{
    "TV_Data": {
        "Channel_List": {
            "is_channel_list": true,
            "is_override": true,
            "thumb_width": 150,
            "all_Channels_Tab_Name": "",
            "main": {
                "id": 1,
                "name": "Afghanistan Channels",
                "sub_name": "Channels",
                "thumbnail_url": "https://flagpedia.net/data/flags/h80/af.png",
                "sub": {
                    "sub_1": {
                        "id": 1,
                        "mode": "video",
                        "name_original": "Channel 1",
                        "name": "COBRA1",
                        "sub_name": "",
                        "stream_video_url": "https://d1yei2z3i6k35z.cloudfront.net/2102480/631bbce158f16_5x1CKNumero4k_A.mp4",
                        "thumbnail_url": "https://tse1.mm.bing.net/th?id=OIP.9z9JugwNO5Lq7vtVVf4MJQHaLH&pid=Api&P=0&w=300&h=300",
                        "thumbnail_url_original": "https://tse1.mm.bing.net/th?id=OIP.9z9JugwNO5Lq7vtVVf4MJQHaLH&pid=Api&P=0&w=300&h=300"
                    },
                    "sub_2": {
                        "id": 2,
                        "mode": "video",
                        "name_original": "Channel 2",
                        "name": "COBRA2",
                        "sub_name": "",
                        "stream_video_url": "https://d1yei2z3i6k35z.cloudfront.net/2102480/631bbdec2d6ef_5x2CKNumero4k_A.mp4",
                        "thumbnail_url": "https://tse2.mm.bing.net/th?id=OIP.Z6k-dPE87N8D1bnfIc3wwAHaJ1&pid=Api&P=0&w=300&h=300",
                        "thumbnail_url_original": "https://tse2.mm.bing.net/th?id=OIP.Z6k-dPE87N8D1bnfIc3wwAHaJ1&pid=Api&P=0&w=300&h=300"
                    },
                    "sub_3": {
                        "id": 3,
                        "mode": "video",
                        "name_original": "Channel 3",
                        "name": "COBRA3",
                        "sub_name": "",
                        "stream_video_url": "https://d1yei2z3i6k35z.cloudfront.net/2102480/631bbe651645d_5x3CKNumero4k_A.mp4",
                        "thumbnail_url": "https://tse1.mm.bing.net/th?id=OIP.e4SDuX80v3TCs2kxug8q5QHaLC&pid=Api&P=0&w=300&h=300",
                        "thumbnail_url_original": "https://tse1.mm.bing.net/th?id=OIP.e4SDuX80v3TCs2kxug8q5QHaLC&pid=Api&P=0&w=300&h=300"
                    },
                    "sub_4": {
                        "id": 4,
                        "mode": "video",
                        "name_original": "Channel 4",
                        "name": "COBRA4",
                        "sub_name": "",
                        "stream_video_url": "https://d1yei2z3i6k35z.cloudfront.net/2102480/631bbf79cce15_5x4CKNumero4k_A.mp4",
                        "thumbnail_url": "https://tse3.mm.bing.net/th?id=OIP.il5xUYvciC0qNo88U6lX_wHaLC&pid=Api&P=0&w=300&h=300",
                        "thumbnail_url_original": "https://tse3.mm.bing.net/th?id=OIP.il5xUYvciC0qNo88U6lX_wHaLC&pid=Api&P=0&w=300&h=300"
                    },
                    "sub_5": {
                        "id": 5,
                        "mode": "video",
                        "name_original": "Channel 5",
                        "name": "COBRA5",
                        "sub_name": "",
                        "stream_video_url": "https://d1yei2z3i6k35z.cloudfront.net/2102480/631bce17a9370_5x5CKNumero4k_A.mp4",
                        "thumbnail_url": "https://tse1.mm.bing.net/th?id=OIP.zbhxc2CXexuThukxr5xaEAHaKj&pid=Api&P=0&w=300&h=300",
                        "thumbnail_url_original": "https://tse1.mm.bing.net/th?id=OIP.zbhxc2CXexuThukxr5xaEAHaKj&pid=Api&P=0&w=300&h=300"
                    },
                    "sub_6": {
                        "id": 6,
                        "mode": "video",
                        "name_original": "Channel 6",
                        "name": "COBRA6",
                        "sub_name": "",
                        "stream_video_url": "https://d1yei2z3i6k35z.cloudfront.net/2102480/631bd49618d43_5x6CKNumero4k_A.mp4",
                        "thumbnail_url": "https://tse1.mm.bing.net/th?id=OIP.zbhxc2CXexuThukxr5xaEAHaKj&pid=Api&P=0&w=300&h=300",
                        "thumbnail_url_original": "https://tse1.mm.bing.net/th?id=OIP.zbhxc2CXexuThukxr5xaEAHaKj&pid=Api&P=0&w=300&h=300"
                    },
                    "sub_7": {
                        "id": 7,
                        "mode": "video",
                        "name_original": "Channel 7",
                        "name": "COBRA7",
                        "sub_name": "",
                        "stream_video_url": "https://d1yei2z3i6k35z.cloudfront.net/2102480/631bd49ccc29d_5x7CKNumero4k_A.mp4",
                        "thumbnail_url": "https://tse1.mm.bing.net/th?id=OIP.zbhxc2CXexuThukxr5xaEAHaKj&pid=Api&P=0&w=300&h=300",
                        "thumbnail_url_original": "https://tse1.mm.bing.net/th?id=OIP.zbhxc2CXexuThukxr5xaEAHaKj&pid=Api&P=0&w=300&h=300"
                    },
                    "sub_8": {
                        "id": 8,
                        "mode": "video",
                        "name_original": "Channel 8",
                        "name": "COBRA8",
                        "sub_name": "",
                        "stream_video_url": "https://d1yei2z3i6k35z.cloudfront.net/2102480/631bd4a1acb0e_5x8CKNumero4k_A.mp4",
                        "thumbnail_url": "https://tse1.mm.bing.net/th?id=OIP.Skk6EkCJcsoJg7GwRLmwlwHaNY&pid=Api&P=0&w=300&h=300",
                        "thumbnail_url_original": "https://tse1.mm.bing.net/th?id=OIP.Skk6EkCJcsoJg7GwRLmwlwHaNY&pid=Api&P=0&w=300&h=300"
                    },
                    "sub_9": {
                        "id": 9,
                        "mode": "video",
                        "name_original": "Channel 9",
                        "name": "COBRA9",
                        "sub_name": "",
                        "stream_video_url": "https://d1yei2z3i6k35z.cloudfront.net/2102480/631bd4a6c95eb_5x9CKNumero4k_A.mp4",
                        "thumbnail_url": "https://tse1.mm.bing.net/th?id=OIP.zbhxc2CXexuThukxr5xaEAHaKj&pid=Api&P=0&w=300&h=300",
                        "thumbnail_url_original": "https://tse1.mm.bing.net/th?id=OIP.zbhxc2CXexuThukxr5xaEAHaKj&pid=Api&P=0&w=300&h=300"
                    },
                    "sub_10": {
                        "id": 10,
                        "mode": "video",
                        "name_original": "Channel 10",
                        "name": "COBRA10",
                        "sub_name": "",
                        "stream_video_url": "https://d1yei2z3i6k35z.cloudfront.net/2102480/631bd4abddad3_5x10CKNumero4k_A.mp4",
                        "thumbnail_url": "https://tse1.mm.bing.net/th?id=OIP.e4SDuX80v3TCs2kxug8q5QHaLC&pid=Api&P=0&w=300&h=300",
                        "thumbnail_url_original": "https://tse1.mm.bing.net/th?id=OIP.e4SDuX80v3TCs2kxug8q5QHaLC&pid=Api&P=0&w=300&h=300"
                    },
                    "sub_11": {
                        "id": 11,
                        "mode": "video",
                        "name_original": "Channel 11",
                        "name": "Monster Hunter (2020)",
                        "sub_name": "",
                        "stream_video_url": "https://objectstorage.us-phoenix-1.oraclecloud.com/n/axa4wow3dcia/b/bucket-20201001-1658/o/pelis%2Fpelfeb%2Fmonster%20hunter.mp4",
                        "thumbnail_url": "https://tse3.mm.bing.net/th?id=OIP.5hEsv-4ElMsV64qJ45HrigHaLH&pid=Api&P=0&w=300&h=300",
                        "thumbnail_url_original": "https://tse3.mm.bing.net/th?id=OIP.5hEsv-4ElMsV64qJ45HrigHaLH&pid=Api&P=0&w=300&h=300"
                    },
                    "sub_12": {
                        "id": 12,
                        "mode": "video",
                        "name_original": "Channel 12",
                        "name": "Ruega por nosotros (2021)",
                        "sub_name": "",
                        "stream_video_url": "https://objectstorage.us-phoenix-1.oraclecloud.com/n/axa4wow3dcia/b/bucket-20201001-1658/o/pelis%2Fpelismay%2FVer%20Ruega%20por%20nosotros%20Online%20Castellano%20Latino%20Subtitulada%20HD%20-%20HDFull.mp4",
                        "thumbnail_url": "https://tse4.mm.bing.net/th?id=OIP.XZWjqzloAtfGXyBlzkXnJQHaLH&pid=Api&P=0&w=300&h=300",
                        "thumbnail_url_original": "https://tse4.mm.bing.net/th?id=OIP.XZWjqzloAtfGXyBlzkXnJQHaLH&pid=Api&P=0&w=300&h=300"
                    },
                    "sub_13": {
                        "id": 13,
                        "mode": "video",
                        "name_original": "Channel 13",
                        "name": "Luca (2021)",
                        "sub_name": "",
                        "stream_video_url": "https://objectstorage.us-phoenix-1.oraclecloud.com/n/axa4wow3dcia/b/bucket-20201001-1658/o/pelis%2Fpelisjun%2Fluca.mp4",
                        "thumbnail_url": "https://tse4.mm.bing.net/th?id=OIP.dyYl-C93qigVT61PFIfRrgHaK-&pid=Api&P=0&w=300&h=300",
                        "thumbnail_url_original": "https://tse4.mm.bing.net/th?id=OIP.dyYl-C93qigVT61PFIfRrgHaK-&pid=Api&P=0&w=300&h=300"
                    },
                    "sub_14": {
                        "id": 14,
                        "mode": "video",
                        "name_original": "Channel 14",
                        "name": "Jackass Forever (2022)",
                        "sub_name": "",
                        "stream_video_url": "https://objectstorage.us-phoenix-1.oraclecloud.com/n/axa4wow3dcia/b/bucket-20201001-1658/o/2022pelicu%2FVer%20Jackass%20Forever%20Online%20Castellano%20Latino%20Subtitulada%20HD%20-%20HDFull.mp4",
                        "thumbnail_url": "https://tse4.mm.bing.net/th?id=OIP.cqhSkmWuZ5NVeefIDHTgegHaK_&pid=Api&P=0&w=300&h=300",
                        "thumbnail_url_original": "https://tse4.mm.bing.net/th?id=OIP.cqhSkmWuZ5NVeefIDHTgegHaK_&pid=Api&P=0&w=300&h=300"
                    },
                    "sub_15": {
                        "id": 15,
                        "mode": "video",
                        "name_original": "Channel 15",
                        "name": "365 Dias 2 Aquel d\u00eda (2022)",
                        "sub_name": "",
                        "stream_video_url": "https://objectstorage.us-phoenix-1.oraclecloud.com/n/axa4wow3dcia/b/bucket-20201001-1658/o/2022pelicu%2Fabril%2FVer%20365%20dni-%20Ten%20dzie%C5%84%20Online%20Castellano%20Latino%20Subtitulada%20HD%20-%20HDFull.mp4",
                        "thumbnail_url": "https://tse4.mm.bing.net/th?id=OIP.UwsefrefevgIisgJA_U-1wAAAA&pid=Api&P=0&w=300&h=300",
                        "thumbnail_url_original": "https://tse4.mm.bing.net/th?id=OIP.UwsefrefevgIisgJA_U-1wAAAA&pid=Api&P=0&w=300&h=300"
                    },
                    "sub_16": {
                        "id": 16,
                        "mode": "video",
                        "name_original": "Channel 16",
                        "name": "Morbius (2022)",
                        "sub_name": "",
                        "stream_video_url": "https://d1yei2z3i6k35z.cloudfront.net/2104853/62838bfd28d5f_44MRBIUSNumero4k_T.mp4",
                        "thumbnail_url": "https://tse3.mm.bing.net/th?id=OIP.EQ35MeXU7Tjjtv-msJTcCwAAAA&pid=Api&P=0&w=300&h=300",
                        "thumbnail_url_original": "https://tse3.mm.bing.net/th?id=OIP.EQ35MeXU7Tjjtv-msJTcCwAAAA&pid=Api&P=0&w=300&h=300"
                    },
                    "sub_17": {
                        "id": 17,
                        "mode": "video",
                        "name_original": "Channel 17",
                        "name": "King: Regreso a casa (2022)",
                        "sub_name": "",
                        "stream_video_url": "https://objectstorage.us-phoenix-1.oraclecloud.com/n/axa4wow3dcia/b/bucket-20201001-1658/o/2022pelicu%2Fmayo%2FVer%20King-%20Regreso%20a%20casa%20(2022)%20Online%20Gratis%20en%20HD%20-%20InkaPelis.mp4",
                        "thumbnail_url": "https://tse1.mm.bing.net/th?id=OIP.YEYGuvC7BA5-en7xGcU8SAHaEK&pid=Api&P=0&w=300&h=300",
                        "thumbnail_url_original": "https://tse1.mm.bing.net/th?id=OIP.YEYGuvC7BA5-en7xGcU8SAHaEK&pid=Api&P=0&w=300&h=300"
                    },
                    "sub_18": {
                        "id": 18,
                        "mode": "video",
                        "name_original": "Channel 18",
                        "name": "Dog. Un viaje salvaje (2022)",
                        "sub_name": "",
                        "stream_video_url": "https://objectstorage.us-phoenix-1.oraclecloud.com/n/axa4wow3dcia/b/bucket-20201001-1658/o/2022pelicu%2Fmayo%2FVer%20Dog.%20Un%20viaje%20salvaje%20(2022)%20Online%20Gratis%20en%20HD%20-%20InkaPelis.mp4",
                        "thumbnail_url": "https://tse1.mm.bing.net/th?id=OIP.UZ3U5_2o69T35UcqFvNt5wHaKl&pid=Api&P=0&w=300&h=300",
                        "thumbnail_url_original": "https://tse1.mm.bing.net/th?id=OIP.UZ3U5_2o69T35UcqFvNt5wHaKl&pid=Api&P=0&w=300&h=300"
                    },
                    "sub_19": {
                        "id": 19,
                        "mode": "video",
                        "name_original": "Channel 19",
                        "name": "STRANGER THINGS 4",
                        "sub_name": "",
                        "stream_video_url": "https://d1yei2z3i6k35z.cloudfront.net/2102480/6290ece9e6bf9_4x1STNumero4k_F.mp4",
                        "thumbnail_url": "https://tse2.mm.bing.net/th?id=OIP.U2Akmor3bmsaEHdgkl5mDQHaNK&pid=Api&P=0&w=300&h=300",
                        "thumbnail_url_original": "https://tse2.mm.bing.net/th?id=OIP.U2Akmor3bmsaEHdgkl5mDQHaNK&pid=Api&P=0&w=300&h=300"
                    },
                    "sub_20": {
                        "id": 20,
                        "mode": "video",
                        "name_original": "Channel 20",
                        "name": "STRANGER2",
                        "sub_name": "",
                        "stream_video_url": "https://d1yei2z3i6k35z.cloudfront.net/2102480/6290f3b806ae5_4x2STNumero4k_F.mp4",
                        "thumbnail_url": "https://tse4.mm.bing.net/th?id=OIP.0uRk3IrPqL_C_6KGoIzUUAHaLC&pid=Api&P=0&w=300&h=300",
                        "thumbnail_url_original": "https://tse4.mm.bing.net/th?id=OIP.0uRk3IrPqL_C_6KGoIzUUAHaLC&pid=Api&P=0&w=300&h=300"
                    },
                    "sub_21": {
                        "id": 21,
                        "mode": "video",
                        "name_original": "Channel 21",
                        "name": "STRANGER3",
                        "sub_name": "",
                        "stream_video_url": "https://d1yei2z3i6k35z.cloudfront.net/2102480/6290f3bf699a4_4x3STNumero4k_F.mp4",
                        "thumbnail_url": "https://tse4.mm.bing.net/th?id=OIP.i7RC_U71kstMOHpipTWFlgHaJP&pid=Api&P=0&w=300&h=300",
                        "thumbnail_url_original": "https://tse4.mm.bing.net/th?id=OIP.i7RC_U71kstMOHpipTWFlgHaJP&pid=Api&P=0&w=300&h=300"
                    },
                    "sub_22": {
                        "id": 22,
                        "mode": "video",
                        "name_original": "Channel 22",
                        "name": "STRANGER4",
                        "sub_name": "",
                        "stream_video_url": "https://d1yei2z3i6k35z.cloudfront.net/2102480/6290f3c4cf0fb_4x4STNumero4k_F.mp4",
                        "thumbnail_url": "https://tse3.mm.bing.net/th?id=OIP.VvYUomflBnUuCUKK_5hRbgHaK9&pid=Api&P=0&w=300&h=300",
                        "thumbnail_url_original": "https://tse3.mm.bing.net/th?id=OIP.VvYUomflBnUuCUKK_5hRbgHaK9&pid=Api&P=0&w=300&h=300"
                    },
                    "sub_23": {
                        "id": 23,
                        "mode": "video",
                        "name_original": "Channel 23",
                        "name": "STRANGER5",
                        "sub_name": "",
                        "stream_video_url": "https://d1yei2z3i6k35z.cloudfront.net/2102480/6290feb865bed_4x5STNumero4k_F.mp4",
                        "thumbnail_url": "https://tse3.mm.bing.net/th?id=OIP.VvYUomflBnUuCUKK_5hRbgHaK9&pid=Api&P=0&w=300&h=300",
                        "thumbnail_url_original": "https://tse3.mm.bing.net/th?id=OIP.VvYUomflBnUuCUKK_5hRbgHaK9&pid=Api&P=0&w=300&h=300"
                    },
                    "sub_24": {
                        "id": 24,
                        "mode": "video",
                        "name_original": "Channel 24",
                        "name": "STRANGER6",
                        "sub_name": "",
                        "stream_video_url": "https://d1yei2z3i6k35z.cloudfront.net/2102480/6290febd47585_4x6STNumero4k_F.mp4",
                        "thumbnail_url": "https://tse2.mm.bing.net/th?id=OIP.QfJmp-7scwvdVT5iNveAJwHaKk&pid=Api&P=0&w=300&h=300",
                        "thumbnail_url_original": "https://tse2.mm.bing.net/th?id=OIP.QfJmp-7scwvdVT5iNveAJwHaKk&pid=Api&P=0&w=300&h=300"
                    },
                    "sub_25": {
                        "id": 25,
                        "mode": "video",
                        "name_original": "Channel 25",
                        "name": "STRANGER7",
                        "sub_name": "",
                        "stream_video_url": "https://d1yei2z3i6k35z.cloudfront.net/2102480/6290fec1d24fb_4x7STNumero4k_F.mp4",
                        "thumbnail_url": "https://tse2.mm.bing.net/th?id=OIP.QfJmp-7scwvdVT5iNveAJwHaKk&pid=Api&P=0&w=300&h=300",
                        "thumbnail_url_original": "https://tse2.mm.bing.net/th?id=OIP.QfJmp-7scwvdVT5iNveAJwHaKk&pid=Api&P=0&w=300&h=300"
                    },
                    "sub_26": {
                        "id": 26,
                        "mode": "video",
                        "name_original": "Channel 26",
                        "name": "Animales Fant\u00e1sticos 3 (2022)",
                        "sub_name": "",
                        "stream_video_url": "https://d1yei2z3i6k35z.cloudfront.net/2104853/6295211c4c1dd_85AFLSDDNumero4k_A.mp4",
                        "thumbnail_url": "https://tse2.mm.bing.net/th?id=OIP.lpjQwhyVyjY9iEdx9R_HqwHaK_&pid=Api&P=0&w=300&h=300",
                        "thumbnail_url_original": "https://tse2.mm.bing.net/th?id=OIP.lpjQwhyVyjY9iEdx9R_HqwHaK_&pid=Api&P=0&w=300&h=300"
                    },
                    "sub_27": {
                        "id": 27,
                        "mode": "video",
                        "name_original": "Channel 27",
                        "name": "El padre de la novia (2022)",
                        "sub_name": "",
                        "stream_video_url": "https://objectstorage.us-phoenix-1.oraclecloud.com/n/axa4wow3dcia/b/bucket-20201001-1658/o/2022pelicu%2Fjuniio%2FVer%20El%20padre%20de%20la%20novia%20Online%20Castellano%20Latino%20Subtitulada%20HD%20-%20HDFull.mp4",
                        "thumbnail_url": "https://tse4.mm.bing.net/th?id=OIP.9KtHtD0LZ3IJ1oJtvmaMdAHaKW&pid=Api&P=0&w=300&h=300",
                        "thumbnail_url_original": "https://tse4.mm.bing.net/th?id=OIP.9KtHtD0LZ3IJ1oJtvmaMdAHaKW&pid=Api&P=0&w=300&h=300"
                    },
                    "sub_28": {
                        "id": 28,
                        "mode": "video",
                        "name_original": "Channel 28",
                        "name": "American Sicario (2021)",
                        "sub_name": "",
                        "stream_video_url": "https://objectstorage.us-phoenix-1.oraclecloud.com/n/axa4wow3dcia/b/bucket-20201001-1658/o/2022pelicu%2Fjuniio%2FVer%20American%20Sicario%20(2021)%20Online%20Gratis%20en%20HD%20-%20InkaPelis.mp4",
                        "thumbnail_url": "https://tse2.mm.bing.net/th?id=OIP.W4yMU-6udx2ZudAesQ06pgHaLH&pid=Api&P=0&w=300&h=300",
                        "thumbnail_url_original": "https://tse2.mm.bing.net/th?id=OIP.W4yMU-6udx2ZudAesQ06pgHaLH&pid=Api&P=0&w=300&h=300"
                    },
                    "sub_29": {
                        "id": 29,
                        "mode": "video",
                        "name_original": "Channel 29",
                        "name": "Doctor Strange en el Multiverso de la Locura (2022",
                        "sub_name": "",
                        "stream_video_url": "https://objectstorage.us-phoenix-1.oraclecloud.com/n/axa4wow3dcia/b/bucket-20201001-1658/o/2022pelicu%2Fjuniio%2FVer%20Doctor%20Strange%20en%20el%20multiverso%20de%20la%20locura%20Online%20Castellano%20Latino%20Subtitulada%20HD%20-%20HDFull.mp4",
                        "thumbnail_url": "https://tse3.mm.bing.net/th?id=OIP.RHKU0EVj-vMifoGcFeyq9wAAAA&pid=Api&P=0&w=300&h=300",
                        "thumbnail_url_original": "https://tse3.mm.bing.net/th?id=OIP.RHKU0EVj-vMifoGcFeyq9wAAAA&pid=Api&P=0&w=300&h=300"
                    },
                    "sub_30": {
                        "id": 30,
                        "mode": "video",
                        "name_original": "Channel 30",
                        "name": "COREA1",
                        "sub_name": "",
                        "stream_video_url": "https://d1yei2z3i6k35z.cloudfront.net/2102480/62b5cec55e50a_1x1LCDPCNumero4k_A.mp4",
                        "thumbnail_url": "https://tse2.mm.bing.net/th?id=OIP.g-LMXfTzriJybn6HBXV2KgHaKl&pid=Api&P=0&w=300&h=300",
                        "thumbnail_url_original": "https://tse2.mm.bing.net/th?id=OIP.g-LMXfTzriJybn6HBXV2KgHaKl&pid=Api&P=0&w=300&h=300"
                    },
                    "sub_31": {
                        "id": 31,
                        "mode": "video",
                        "name_original": "Channel 31",
                        "name": "COREA2",
                        "sub_name": "",
                        "stream_video_url": "https://d1yei2z3i6k35z.cloudfront.net/2102480/62b5ceca410c6_1x2LCDPCNumero4k_A.mp4",
                        "thumbnail_url": "https://tse1.mm.bing.net/th?id=OIP.ucnsq9cXx86hyu2zRfSqDQHaKk&pid=Api&P=0&w=300&h=300",
                        "thumbnail_url_original": "https://tse1.mm.bing.net/th?id=OIP.ucnsq9cXx86hyu2zRfSqDQHaKk&pid=Api&P=0&w=300&h=300"
                    },
                    "sub_32": {
                        "id": 32,
                        "mode": "video",
                        "name_original": "Channel 32",
                        "name": "COREA3",
                        "sub_name": "",
                        "stream_video_url": "https://d1yei2z3i6k35z.cloudfront.net/2102480/62b5cecf8fb2b_1x3LCDPCNumero4k_A.mp4",
                        "thumbnail_url": "https://tse2.mm.bing.net/th?id=OIP.wZCePmAqYZ11HyXLdf1NOAAAAA&pid=Api&P=0&w=300&h=300",
                        "thumbnail_url_original": "https://tse2.mm.bing.net/th?id=OIP.wZCePmAqYZ11HyXLdf1NOAAAAA&pid=Api&P=0&w=300&h=300"
                    },
                    "sub_33": {
                        "id": 33,
                        "mode": "video",
                        "name_original": "Channel 33",
                        "name": "COREA4",
                        "sub_name": "",
                        "stream_video_url": "https://d1yei2z3i6k35z.cloudfront.net/2102480/62b5ced44738f_1x4LCDPCNumero4k_A.mp4",
                        "thumbnail_url": "https://tse4.mm.bing.net/th?id=OIP.CTvoqduL8igSjn4hnpB3ogHaLN&pid=Api&P=0&w=300&h=300",
                        "thumbnail_url_original": "https://tse4.mm.bing.net/th?id=OIP.CTvoqduL8igSjn4hnpB3ogHaLN&pid=Api&P=0&w=300&h=300"
                    },
                    "sub_34": {
                        "id": 34,
                        "mode": "video",
                        "name_original": "Channel 34",
                        "name": "COREA5",
                        "sub_name": "",
                        "stream_video_url": "https://d1yei2z3i6k35z.cloudfront.net/2102480/62b5ced8af7cc_1x5LCDPCNumero4k_A.mp4",
                        "thumbnail_url": "https://tse4.mm.bing.net/th?id=OIP.KSH1d1tb8-rkpte-COZvtQHaKv&pid=Api&P=0&w=300&h=300",
                        "thumbnail_url_original": "https://tse4.mm.bing.net/th?id=OIP.KSH1d1tb8-rkpte-COZvtQHaKv&pid=Api&P=0&w=300&h=300"
                    },
                    "sub_35": {
                        "id": 35,
                        "mode": "video",
                        "name_original": "Channel 35",
                        "name": "COREA6",
                        "sub_name": "",
                        "stream_video_url": "https://d1yei2z3i6k35z.cloudfront.net/2102480/62b5cedd5e411_1x6LCDPCNumero4k_A.mp4",
                        "thumbnail_url": "https://tse4.mm.bing.net/th?id=OIP.ZG6uIHCj0kJgkZy5DXh5FgHaKl&pid=Api&P=0&w=300&h=300",
                        "thumbnail_url_original": "https://tse4.mm.bing.net/th?id=OIP.ZG6uIHCj0kJgkZy5DXh5FgHaKl&pid=Api&P=0&w=300&h=300"
                    },
                    "sub_36": {
                        "id": 36,
                        "mode": "video",
                        "name_original": "Channel 36",
                        "name": "STRANGER8",
                        "sub_name": "",
                        "stream_video_url": "https://d1yei2z3i6k35z.cloudfront.net/2102480/62c088a6c13de_4x8STNumero4k_F.mp4",
                        "thumbnail_url": "https://tse2.mm.bing.net/th?id=OIP.QfJmp-7scwvdVT5iNveAJwHaKk&pid=Api&P=0&w=300&h=300",
                        "thumbnail_url_original": "https://tse2.mm.bing.net/th?id=OIP.QfJmp-7scwvdVT5iNveAJwHaKk&pid=Api&P=0&w=300&h=300"
                    },
                    "sub_37": {
                        "id": 37,
                        "mode": "video",
                        "name_original": "Channel 37",
                        "name": "STRANGER9",
                        "sub_name": "",
                        "stream_video_url": "https://d1yei2z3i6k35z.cloudfront.net/2102480/62c088abc0a35_4x9STNumero4k_F.mp4",
                        "thumbnail_url": "https://tse2.mm.bing.net/th?id=OIP.QfJmp-7scwvdVT5iNveAJwHaKk&pid=Api&P=0&w=300&h=300",
                        "thumbnail_url_original": "https://tse2.mm.bing.net/th?id=OIP.QfJmp-7scwvdVT5iNveAJwHaKk&pid=Api&P=0&w=300&h=300"
                    },
                    "sub_38": {
                        "id": 38,
                        "mode": "video",
                        "name_original": "Channel 38",
                        "name": "Sed de Venganza (Vendetta) (2022)",
                        "sub_name": "",
                        "stream_video_url": "https://objectstorage.us-phoenix-1.oraclecloud.com/n/axa4wow3dcia/b/bucket-20201001-1658/o/2022pelicu%2Fjulio%2FVer%20Sed%20de%20Venganza%20(2022)%20Online%20%E2%80%93%20CineHDPlus_2.mp4",
                        "thumbnail_url": "https://tse3.mm.bing.net/th?id=OIP.IvQin0TAXb0P-gWUMdS8yAAAAA&pid=Api&P=0&w=300&h=300",
                        "thumbnail_url_original": "https://tse3.mm.bing.net/th?id=OIP.IvQin0TAXb0P-gWUMdS8yAAAAA&pid=Api&P=0&w=300&h=300"
                    },
                    "sub_39": {
                        "id": 39,
                        "mode": "video",
                        "name_original": "Channel 39",
                        "name": "Predator: La presa (2022)",
                        "sub_name": "",
                        "stream_video_url": "https://objectstorage.us-phoenix-1.oraclecloud.com/n/axa4wow3dcia/b/bucket-20201001-1658/o/2022pelicu%2Fjulio%2FVer%20Predator-%20La%20presa%20Online%20Castellano%20Latino%20Subtitulada%20HD%20-%20HDFull.mp4",
                        "thumbnail_url": "https://tse3.mm.bing.net/th?id=OIP.HosuOYuaSUXn70HoXoGulAHaK-&pid=Api&P=0&w=300&h=300",
                        "thumbnail_url_original": "https://tse3.mm.bing.net/th?id=OIP.HosuOYuaSUXn70HoXoGulAHaK-&pid=Api&P=0&w=300&h=300"
                    },
                    "sub_40": {
                        "id": 40,
                        "mode": "video",
                        "name_original": "Channel 40",
                        "name": "LA CASA DEL DRAGON",
                        "sub_name": "",
                        "stream_video_url": "https://d1yei2z3i6k35z.cloudfront.net/2102480/6313eba9b6c00_1x1LCDDNUMERO4K_a.mp4",
                        "thumbnail_url": "https://tse1.mm.bing.net/th?id=OIP.Kbz20vIPC36v--RJ24TncAHaKz&pid=Api&P=0&w=300&h=300",
                        "thumbnail_url_original": "https://tse1.mm.bing.net/th?id=OIP.Kbz20vIPC36v--RJ24TncAHaKz&pid=Api&P=0&w=300&h=300"
                    },
                    "sub_41": {
                        "id": 41,
                        "mode": "video",
                        "name_original": "Channel 41",
                        "name": "DRAGON2",
                        "sub_name": "",
                        "stream_video_url": "https://d1yei2z3i6k35z.cloudfront.net/2102480/6313e8e04ce06_1x2LCDDNUMERO4K_a.mp4",
                        "thumbnail_url": "https://tse3.mm.bing.net/th?id=OIP.mOh6D7PIGMF3s_b1f1VZyAHaJ4&pid=Api&P=0&w=300&h=300",
                        "thumbnail_url_original": "https://tse3.mm.bing.net/th?id=OIP.mOh6D7PIGMF3s_b1f1VZyAHaJ4&pid=Api&P=0&w=300&h=300"
                    },
                    "sub_42": {
                        "id": 42,
                        "mode": "video",
                        "name_original": "Channel 42",
                        "name": "DRAGON3",
                        "sub_name": "",
                        "stream_video_url": "https://d1yei2z3i6k35z.cloudfront.net/2102480/6316167893fa6_1x3LCDDNUMERO4K_a.mp4",
                        "thumbnail_url": "https://tse3.mm.bing.net/th?id=OIP.75vH-pAZGjAIt6SQFrDjrgHaLs&pid=Api&P=0&w=300&h=300",
                        "thumbnail_url_original": "https://tse3.mm.bing.net/th?id=OIP.75vH-pAZGjAIt6SQFrDjrgHaLs&pid=Api&P=0&w=300&h=300"
                    },
                    "sub_43": {
                        "id": 43,
                        "mode": "video",
                        "name_original": "Channel 43",
                        "name": "DRAGON4",
                        "sub_name": "",
                        "stream_video_url": "https://d1yei2z3i6k35z.cloudfront.net/2102480/631f6bad93e1b_1x4LCDDNUMERO4K_a.mp4",
                        "thumbnail_url": "https://tse3.mm.bing.net/th?id=OIP.kpWiCTFT1OnSGNHugz7RSwHaK9&pid=Api&P=0&w=300&h=300",
                        "thumbnail_url_original": "https://tse3.mm.bing.net/th?id=OIP.kpWiCTFT1OnSGNHugz7RSwHaK9&pid=Api&P=0&w=300&h=300"
                    },
                    "sub_44": {
                        "id": 44,
                        "mode": "video",
                        "name_original": "Channel 44",
                        "name": "DRAGON5",
                        "sub_name": "",
                        "stream_video_url": "https://d1yei2z3i6k35z.cloudfront.net/2102480/63289b0421a7f_1x5LCDDNUMERO4K_a.mp4",
                        "thumbnail_url": "https://tse2.mm.bing.net/th?id=OIP.DcXBXr8ugswTM2EIqXJ2VwHaLH&pid=Api&P=0&w=300&h=300",
                        "thumbnail_url_original": "https://tse2.mm.bing.net/th?id=OIP.DcXBXr8ugswTM2EIqXJ2VwHaLH&pid=Api&P=0&w=300&h=300"
                    },
                    "sub_45": {
                        "id": 45,
                        "mode": "video",
                        "name_original": "Channel 45",
                        "name": "La Bestia (2022)",
                        "sub_name": "",
                        "stream_video_url": "https://d1yei2z3i6k35z.cloudfront.net/2102480/631b7efe50c38_96BSTNumero4k_A.mp4",
                        "thumbnail_url": "https://tse3.mm.bing.net/th?id=OIP.9OI-0nS6jVJGPQOxEhQhEgHaHa&pid=Api&P=0&w=300&h=300",
                        "thumbnail_url_original": "https://tse3.mm.bing.net/th?id=OIP.9OI-0nS6jVJGPQOxEhQhEgHaHa&pid=Api&P=0&w=300&h=300"
                    },
                    "sub_46": {
                        "id": 46,
                        "mode": "video",
                        "name_original": "Channel 46",
                        "name": "\u00c9xodo: La \u00faltima marea (2021)",
                        "sub_name": "",
                        "stream_video_url": "https://d1yei2z3i6k35z.cloudfront.net/2104853/632207f97af62_46ELUMNumeo4k_D.mp4",
                        "thumbnail_url": "https://tse1.mm.bing.net/th?id=OIP.r-InhQPoGW-RRbguEm3ztwHaLH&pid=Api&P=0&w=300&h=300",
                        "thumbnail_url_original": "https://tse1.mm.bing.net/th?id=OIP.r-InhQPoGW-RRbguEm3ztwHaLH&pid=Api&P=0&w=300&h=300"
                    },
                    "sub_47": {
                        "id": 47,
                        "mode": "video",
                        "name_original": "Channel 47",
                        "name": "Nop (2022)",
                        "sub_name": "",
                        "stream_video_url": "https://d1yei2z3i6k35z.cloudfront.net/2104853/6314218e2ebc7_54NPNumero4k_T.mp4",
                        "thumbnail_url": "https://tse2.mm.bing.net/th?id=OIP.HozubA-O61PbivC-jUJ3iwAAAA&pid=Api&P=0&w=300&h=300",
                        "thumbnail_url_original": "https://tse2.mm.bing.net/th?id=OIP.HozubA-O61PbivC-jUJ3iwAAAA&pid=Api&P=0&w=300&h=300"
                    },
                    "sub_48": {
                        "id": 48,
                        "mode": "video",
                        "name_original": "Channel 48",
                        "name": "El Cuartel Secreto (2022)",
                        "sub_name": "",
                        "stream_video_url": "https://objectstorage.us-phoenix-1.oraclecloud.com/n/axa4wow3dcia/b/bucket-20201001-1658/o/2022pelicu%2Fseptiembe%2FVer%20Secret%20Headquarters%20(2022)%20Online%20Gratis%20en%20HD%20-%20InkaPelis.mp4",
                        "thumbnail_url": "https://tse2.mm.bing.net/th?id=OIP.yrhVtVrd33vpTCdlcDczOQHaLH&pid=Api&P=0&w=300&h=300",
                        "thumbnail_url_original": "https://tse2.mm.bing.net/th?id=OIP.yrhVtVrd33vpTCdlcDczOQHaLH&pid=Api&P=0&w=300&h=300"
                    },
                    "sub_49": {
                        "id": 49,
                        "mode": "video",
                        "name_original": "Channel 49",
                        "name": "Lou (2022)",
                        "sub_name": "",
                        "stream_video_url": "https://d1yei2z3i6k35z.cloudfront.net/2104853/632f4fdef2801_44LUNumero4k_A.mp4",
                        "thumbnail_url": "https://tse3.mm.bing.net/th?id=OIP.u4CGwMYAcCWD4Ddcii6hBgHaK4&pid=Api&P=0&w=300&h=300",
                        "thumbnail_url_original": "https://tse3.mm.bing.net/th?id=OIP.u4CGwMYAcCWD4Ddcii6hBgHaK4&pid=Api&P=0&w=300&h=300"
                    },
                    "sub_50": {
                        "id": 50,
                        "mode": "video",
                        "name_original": "Channel 50",
                        "name": "Atenea (2022)",
                        "sub_name": "",
                        "stream_video_url": "https://d1yei2z3i6k35z.cloudfront.net/2104853/632f4fdab8239_43ATNANumero4k_D.mp4",
                        "thumbnail_url": "https://tse2.mm.bing.net/th?id=OIP.GO4m1_vyqZNpducywCZ8KAHaLH&pid=Api&P=0&w=300&h=300",
                        "thumbnail_url_original": "https://tse2.mm.bing.net/th?id=OIP.GO4m1_vyqZNpducywCZ8KAHaLH&pid=Api&P=0&w=300&h=300"
                    },
                    "sub_51": {
                        "id": 51,
                        "mode": "video",
                        "name_original": "Channel 51",
                        "name": "Sociedad de Honor (2022)",
                        "sub_name": "",
                        "stream_video_url": "https://d1yei2z3i6k35z.cloudfront.net/2104853/632b4188e1c25_46HSNUmero4k_C.mp4",
                        "thumbnail_url": "https://tse4.mm.bing.net/th?id=OIP.fPjvL4032i0DytsjT9MZ_gHaLH&pid=Api&P=0&w=300&h=300",
                        "thumbnail_url_original": "https://tse4.mm.bing.net/th?id=OIP.fPjvL4032i0DytsjT9MZ_gHaLH&pid=Api&P=0&w=300&h=300"
                    },
                    "sub_52": {
                        "id": 52,
                        "mode": "video",
                        "name_original": "Channel 52",
                        "name": "La Maldici\u00f3n De Bridge Hollow (2022)",
                        "sub_name": "",
                        "stream_video_url": "https://objectstorage.us-phoenix-1.oraclecloud.com/n/axa4wow3dcia/b/bucket-20201001-1658/o/2022pelicu%2Foctubr%2FVer%20La%20Maldici%C3%B3n%20De%20Bridge%20Hollow%20(2022)%20Online%20%E2%80%93%20CineHDPlus.mp4",
                        "thumbnail_url": "https://tse4.mm.bing.net/th?id=OIP.f4Kscgbjztba2MJMOAj7DAHaKl&pid=Api&P=0&w=300&h=300",
                        "thumbnail_url_original": "https://tse4.mm.bing.net/th?id=OIP.f4Kscgbjztba2MJMOAj7DAHaKl&pid=Api&P=0&w=300&h=300"
                    },
                    "sub_53": {
                        "id": 53,
                        "mode": "video",
                        "name_original": "Channel 53",
                        "name": "Mortal Kombat (2021)",
                        "sub_name": "",
                        "stream_video_url": "http://archive.org/download/mkombt-021/mkombt-021.mp4",
                        "thumbnail_url": "https://tse4.mm.bing.net/th?id=OIP.zKtU-TKio8BGvfEJgVnYAQHaK-&pid=Api&P=0&w=300&h=300",
                        "thumbnail_url_original": "https://tse4.mm.bing.net/th?id=OIP.zKtU-TKio8BGvfEJgVnYAQHaK-&pid=Api&P=0&w=300&h=300"
                    },
                    "sub_54": {
                        "id": 54,
                        "mode": "video",
                        "name_original": "Channel 54",
                        "name": "Nosotros los Nobles (2013)",
                        "sub_name": "",
                        "stream_video_url": "http://archive.org/download/NoLoNoSRREGIO_20180212/NoLoNoSRREGIO.mp4",
                        "thumbnail_url": "https://tse1.mm.bing.net/th?id=OIP.XxUbeFc4J3PrWHitjVnbagHaKl&pid=Api&P=0&w=300&h=300",
                        "thumbnail_url_original": "https://tse1.mm.bing.net/th?id=OIP.XxUbeFc4J3PrWHitjVnbagHaKl&pid=Api&P=0&w=300&h=300"
                    },
                    "sub_55": {
                        "id": 55,
                        "mode": "video",
                        "name_original": "Channel 55",
                        "name": "Prometeus (2012)",
                        "sub_name": "",
                        "stream_video_url": "http://archive.org/download/PROMEPELIXMAX1/PROMEPELIXMAX1.mp4",
                        "thumbnail_url": "https://tse2.mm.bing.net/th?id=OIP.YMKx4Yn-CnI1T66ctm9OfgHaK8&pid=Api&P=0&w=300&h=300",
                        "thumbnail_url_original": "https://tse2.mm.bing.net/th?id=OIP.YMKx4Yn-CnI1T66ctm9OfgHaK8&pid=Api&P=0&w=300&h=300"
                    },
                    "sub_56": {
                        "id": 56,
                        "mode": "video",
                        "name_original": "Channel 56",
                        "name": "Sahara (2017)",
                        "sub_name": "",
                        "stream_video_url": "http://ia801603.us.archive.org/20/items/3453453453454456456456465/17052017_fseer.mp4?PelixMax1.mp4",
                        "thumbnail_url": "https://tse4.mm.bing.net/th?id=OIP.3Yqs1O9_KpvGm5Gn93owRAHaOG&pid=Api&P=0&w=300&h=300",
                        "thumbnail_url_original": "https://tse4.mm.bing.net/th?id=OIP.3Yqs1O9_KpvGm5Gn93owRAHaOG&pid=Api&P=0&w=300&h=300"
                    },
                    "sub_57": {
                        "id": 57,
                        "mode": "video",
                        "name_original": "Channel 57",
                        "name": "The Cloverfield Paradox (2018)",
                        "sub_name": "",
                        "stream_video_url": "http://ia801509.us.archive.org/32/items/tcSRREGIO/tcSRREGIO.mp4",
                        "thumbnail_url": "https://tse3.mm.bing.net/th?id=OIP.SkWD3fV_lM2HjR7Gx3RtuQHaLH&pid=Api&P=0&w=300&h=300",
                        "thumbnail_url_original": "https://tse3.mm.bing.net/th?id=OIP.SkWD3fV_lM2HjR7Gx3RtuQHaLH&pid=Api&P=0&w=300&h=300"
                    },
                    "sub_58": {
                        "id": 58,
                        "mode": "video",
                        "name_original": "Channel 58",
                        "name": "Volver al Futuro 3 (1990)",
                        "sub_name": "",
                        "stream_video_url": "http://discontrol@ia601500.us.archive.org/0/items/84CK.70-3/84CK.70.FU7U93.3-ES-720.mp4",
                        "thumbnail_url": "https://tse2.mm.bing.net/th?id=OIP.VP5ezFzZBZpP8R-rnwzOywHaLQ&pid=Api&P=0&w=300&h=300",
                        "thumbnail_url_original": "https://tse2.mm.bing.net/th?id=OIP.VP5ezFzZBZpP8R-rnwzOywHaLQ&pid=Api&P=0&w=300&h=300"
                    }
                }
            }
        }
    }
}
