{
  "TV_Data": {
    "Channel_List": {
      "is_channel_list": true,
      "is_override": true,
      "thumb_width": 150,
      "all_Channels_Tab_Name": "",
      "main": {
        "id": 9,
        "name": "Turkish Channels",
        "sub_name": "Channels",
        "thumbnail_url": "https://www.iptv-updated.com/wp-content/uploads/2019/12/iconfinder_flag-turkey_748103.png",
        "sub": {
          "sub_1": {
            "id": 1,
            "mode": "video",
            "name": "Afyon Turk TV",
            "sub_name": "",
            "stream_video_url": "https://5be5d840359c6.streamlock.net/afyonturktv/afyonturktv/playlist.m3u8",
            "thumbnail_url": "https://www.iptv-updated.com/wp-content/themes/shootingstar-child/uploaded_images/afyon_turk_tv_img_2922.png"
          },
          "sub_2": {
            "id": 2,
            "mode": "video",
            "name": "Akit TV",
            "sub_name": "",
            "stream_video_url": "http://akittv-live.ercdn.net/akittv/akittv.m3u8",
            "thumbnail_url": "https://www.iptv-updated.com/wp-content/themes/shootingstar-child/uploaded_images/akit_tv_img_2925.png"
          },
          "sub_3": {
            "id": 3,
            "mode": "website",
            "name_original": "",
            "name": "VidChat : Live",
            "sub_name": "Random Video Chat (Ad)",
            "website_url": "https://play.google.com/store/apps/details?id=com.booya.videochat",
            "is_system_browser": true,
            "thumbnail_url": "https://play-lh.googleusercontent.com/OwvRNTvvyUo8g9MQUdJJBGT_cL4S7ObS_xCyzwHYTS-rLrapbZzD1cQYowyHy-uVgw=w240-h480-rw",
            "thumbnail_url_original": ""
          },
          "sub_4": {
            "id": 4,
            "mode": "video",
            "name": "BRT 2",
            "sub_name": "",
            "stream_video_url": "http://wms.brtk.net:1935/live/brt2/BratuMarian.m3u8",
            "thumbnail_url": "https://www.iptv-updated.com/wp-content/themes/shootingstar-child/uploaded_images/brt_2_img_2930.png"
          },
          "sub_5": {
            "id": 5,
            "mode": "video",
            "name": "BRT 2 (Turkish)",
            "sub_name": "",
            "stream_video_url": "http://wms.brtk.net:1935/live/brt2/playlist.m3u8",
            "thumbnail_url": "https://i.ibb.co/0Fz0rSB/yoNkkLc.png"
          },
          "sub_6": {
            "id": 6,
            "mode": "website",
            "name_original": "",
            "name": "World IPTV",
            "sub_name": "IPTV m3u Playlists(Ad)",
            "website_url": "https://play.google.com/store/apps/details?id=com.iptv.m3u.playlists",
            "is_system_browser": true,
            "thumbnail_url": "https://play-lh.googleusercontent.com/8mPNKodK65zCjQHS8aqF4o0cX9YlKZYN-3qYCd9oMlcTkGaAf_3AxB0vnE9Kud6bPw=w240-h480-rw",
            "thumbnail_url_original": ""
          },
          "sub_7": {
            "id": 7,
            "mode": "video",
            "name": "Can TV",
            "sub_name": "",
            "stream_video_url": "http://canbroadcast.com:7000/canlican/tv.m3u8",
            "thumbnail_url": "https://www.iptv-updated.com/wp-content/themes/shootingstar-child/uploaded_images/can_tv_img_2933.png"
          },
          "sub_8": {
            "id": 8,
            "mode": "video",
            "name": "Cay TV",
            "sub_name": "",
            "stream_video_url": "http://stream2.taksimbilisim.com:1935/caytv/bant1/CAYTV.m3u8",
            "thumbnail_url": "https://www.iptv-updated.com/wp-content/themes/shootingstar-child/uploaded_images/cay_tv_img_2934.png"
          },
          "sub_9": {
            "id": 9,
            "mode": "website",
            "name_original": "",
            "name": "India Live Tv",
            "sub_name": "Live Tv channels (Ad)",
            "website_url": "https://play.google.com/store/apps/details?id=com.tvgram.indialivetv",
            "is_system_browser": true,
            "thumbnail_url": "https://i.postimg.cc/Gm3YYCdq/India-Tv.png",
            "thumbnail_url_original": ""
          },
          "sub_10": {
            "id": 10,
            "mode": "video",
            "name": "Finans Turk TV",
            "sub_name": "",
            "stream_video_url": "http://live.arkumedia.com:1935/finansturktv/finansturktv/playlist.m3u8",
            "thumbnail_url": "https://www.iptv-updated.com/wp-content/themes/shootingstar-child/uploaded_images/finans_turk_tv_img_2943.png"
          },
          "sub_11": {
            "id": 11,
            "mode": "video",
            "name": "Kanal 3",
            "sub_name": "",
            "stream_video_url": "http://stream.taksimbilisim.com:1935/kanal3/bant1/Kanal3.m3u8?fluxustv.m3u8",
            "thumbnail_url": "https://www.iptv-updated.com/wp-content/themes/shootingstar-child/uploaded_images/kanal_3_img_2946.png"
          },
          "sub_12": {
            "id": 12,
            "mode": "website",
            "name_original": "",
            "name": "YoYo Video Calls",
            "sub_name": "Live Random Video Chat (Ad)",
            "website_url": "https://play.google.com/store/apps/details?id=com.yoyolive.llc",
            "is_system_browser": true,
            "thumbnail_url": "https://i.postimg.cc/KvDBRzS1/YOYO.png",
            "thumbnail_url_original": ""
          },
          "sub_13": {
            "id": 13,
            "mode": "video",
            "name": "Natural TV",
            "sub_name": "",
            "stream_video_url": "http://broadcasttr.com:1935/naturaltv/bant1/playlist.m3u8",
            "thumbnail_url": "https://www.iptv-updated.com/wp-content/themes/shootingstar-child/uploaded_images/natural_tv_img_2952.png"
          },
          "sub_14": {
            "id": 14,
            "mode": "video",
            "name": "Natural TV",
            "sub_name": "",
            "stream_video_url": "https://broadcasttr.com:446/naturaltv/bant1/chunklist.m3u8",
            "thumbnail_url": "https://www.iptv-updated.com/wp-content/themes/shootingstar-child/uploaded_images/natural_tv_img_2952.png"
          },
          "sub_15": {
            "id": 15,
            "mode": "website",
            "name_original": "",
            "name": "USA Live TV",
            "sub_name": "USA Tv channels (Ad)",
            "website_url": "https://play.google.com/store/apps/details?id=com.tvgram.usalivetv",
            "is_system_browser": true,
            "thumbnail_url": "https://i.postimg.cc/gJh6dcHk/USA-Tv.png",
            "thumbnail_url_original": ""
          },
          "sub_16": {
            "id": 16,
            "mode": "video",
            "name": "Rudaw",
            "sub_name": "",
            "stream_video_url": "https://svs.itworkscdn.net/rudawlive/rudawlive.smil/playlist.m3u8",
            "thumbnail_url": "https://www.iptv-updated.com/wp-content/themes/shootingstar-child/uploaded_images/rudaw_img_2957.png"
          },
          "sub_17": {
            "id": 17,
            "mode": "video",
            "name": "TRT Arabi",
            "sub_name": "",
            "stream_video_url": "http://trtcanlitv-lh.akamaihd.net/i/TRTARAPCA_1@181945/master.m3u8?fluxustv.m3u8",
            "thumbnail_url": "https://www.iptv-updated.com/wp-content/themes/shootingstar-child/uploaded_images/trt_arabi_img_2966.png"
          },
          "sub_18": {
            "id": 18,
            "mode": "website",
            "name_original": "",
            "name": "India IPTV List",
            "sub_name": "Indian m3u Playlist (Ad)",
            "website_url": "https://play.google.com/store/apps/details?id=com.bitlinks.india.iptv.m3ulist",
            "is_system_browser": true,
            "thumbnail_url": "https://play-lh.googleusercontent.com/l3rJ2qzJtRFzqUzr55ano_WEhcDx5YznwIpd7uRVxooEbOW5444QY8HeeZbiZhd4Ayc=w240-h480-rw",
            "thumbnail_url_original": ""
          },
          "sub_19": {
            "id": 19,
            "mode": "video",
            "name": "TRT Cocuk",
            "sub_name": "",
            "stream_video_url": "https://tv-trtcocuk.live.trt.com.tr/master.m3u8",
            "thumbnail_url": "https://www.iptv-updated.com/wp-content/themes/shootingstar-child/uploaded_images/trt_cocuk_img_3428.png"
          },
          "sub_20": {
            "id": 20,
            "mode": "video",
            "name": "TRT World",
            "sub_name": "",
            "stream_video_url": "https://trtcanlitv-lh.akamaihd.net/i/TRTWORLD_1@321783/master.m3u8",
            "thumbnail_url": "https://www.iptv-updated.com/wp-content/themes/shootingstar-child/uploaded_images/trt_world_img_2971.png"
          },
          "sub_21": {
            "id": 21,
            "mode": "website",
            "name_original": "",
            "name": "Cash Counter",
            "sub_name": "Cash Calculator",
            "website_url": "https://play.google.com/store/apps/details?id=com.money_count_save",
            "is_system_browser": true,
            "thumbnail_url": "https://play-lh.googleusercontent.com/kB7MXSAbO8vKrfbnM8QrzIcNbNm2tWH8rImp5xsIZY1lwKqK3FkNkEFRQpyskJliEbQ=w240-h480-rw",
            "thumbnail_url_original": ""
          },
          "sub_22": {
            "id": 22,
            "mode": "video",
            "name": "TRT World",
            "sub_name": "",
            "stream_video_url": "https://tv-trtworld.live.trt.com.tr/master_1080.m3u8",
            "thumbnail_url": "https://www.iptv-updated.com/wp-content/themes/shootingstar-child/uploaded_images/trt_world_img_2971.png"
          }
        }
      }
    }
  }
}
