{
    "TV_Data": {
        "Channel_List": {
            "is_channel_list": true,
            "is_override": true,
            "thumb_width": 150,
            "all_Channels_Tab_Name": "",
            "main": {
                "id": 1,
                "name": "Argentina Channels",
                "sub_name": "Channels",
                "thumbnail_url": "https://flagpedia.net/data/flags/h80/ar.png",
                "sub": {
                    "sub_1": {
                        "id": 1,
                        "mode": "video",
                        "name_original": "Channel 1",
                        "name": "Agrotendencia TV",
                        "sub_name": "",
                        "stream_video_url": "https://5fc584f3f19c9.streamlock.net/agrotendencia/videoagrotendencia_hls1/playlist.m3u8",
                        "thumbnail_url": "https://gitlab.com/bitcodingsolutions/TVGram/-/raw/master/TVGram/ChannelsLogo/TvGram.png",
                        "thumbnail_url_original": "https://raw.githubusercontent.com/tvgram-inc/tvgram-inc.github.io/master/images/logo.png"
                    },
                    "sub_2": {
                        "id": 2,
                        "mode": "video",
                        "name_original": "Channel 2",
                        "name": "Antena 91",
                        "sub_name": "",
                        "stream_video_url": "https://tuvideoonline.com.ar:3393/live/antena91live.m3u8",
                        "thumbnail_url": "https://gitlab.com/bitcodingsolutions/TVGram/-/raw/master/TVGram/ChannelsLogo/TvGram.png",
                        "thumbnail_url_original": "https://raw.githubusercontent.com/tvgram-inc/tvgram-inc.github.io/master/images/logo.png"
                    },
                    "sub_3": {
                        "id": 3,
                        "mode": "video",
                        "name_original": "Channel 3",
                        "name": "Bahrain International",
                        "sub_name": "",
                        "stream_video_url": "https://5c7b683162943.streamlock.net/live/ngrp:bahraininternational_all/playlist.m3u8",
                        "thumbnail_url": "https://gitlab.com/bitcodingsolutions/TVGram/-/raw/master/TVGram/ChannelsLogo/TvGram.png",
                        "thumbnail_url_original": "https://raw.githubusercontent.com/tvgram-inc/tvgram-inc.github.io/master/images/logo.png"
                    },
                    "sub_4": {
                        "id": 4,
                        "mode": "video",
                        "name_original": "Channel 4",
                        "name": "BeritaSatu World",
                        "sub_name": "",
                        "stream_video_url": "https://b1world.beritasatumedia.com/Beritasatu/B1World_manifest.m3u8",
                        "thumbnail_url": "https://gitlab.com/bitcodingsolutions/TVGram/-/raw/master/TVGram/ChannelsLogo/TvGram.png",
                        "thumbnail_url_original": "https://raw.githubusercontent.com/tvgram-inc/tvgram-inc.github.io/master/images/logo.png"
                    },
                    "sub_5": {
                        "id": 5,
                        "mode": "video",
                        "name_original": "Channel 5",
                        "name": "BVC",
                        "sub_name": "",
                        "stream_video_url": "https://vivo.solumedia.com:19360/bvconline/bvconline.m3u8",
                        "thumbnail_url": "https://gitlab.com/bitcodingsolutions/TVGram/-/raw/master/TVGram/ChannelsLogo/TvGram.png",
                        "thumbnail_url_original": "https://raw.githubusercontent.com/tvgram-inc/tvgram-inc.github.io/master/images/logo.png"
                    },
                    "sub_6": {
                        "id": 6,
                        "mode": "video",
                        "name_original": "Channel 6",
                        "name": "C20 Canal 20 Villa Mar\u00eda",
                        "sub_name": "",
                        "stream_video_url": "https://cronos.aldeaglobal.net.ar/hls/canal20.m3u8",
                        "thumbnail_url": "https://gitlab.com/bitcodingsolutions/TVGram/-/raw/master/TVGram/ChannelsLogo/TvGram.png",
                        "thumbnail_url_original": "https://raw.githubusercontent.com/tvgram-inc/tvgram-inc.github.io/master/images/logo.png"
                    },
                    "sub_7": {
                        "id": 7,
                        "mode": "video",
                        "name_original": "Channel 7",
                        "name": "Canal 2",
                        "sub_name": "",
                        "stream_video_url": "https://stmvideo1.livecastv.com/canal2/canal2/playlist.m3u8",
                        "thumbnail_url": "https://gitlab.com/bitcodingsolutions/TVGram/-/raw/master/TVGram/ChannelsLogo/TvGram.png",
                        "thumbnail_url_original": "https://raw.githubusercontent.com/tvgram-inc/tvgram-inc.github.io/master/images/logo.png"
                    },
                    "sub_8": {
                        "id": 8,
                        "mode": "video",
                        "name_original": "Channel 8",
                        "name": "Canal 2 Jujuy",
                        "sub_name": "",
                        "stream_video_url": "https://api.new.livestream.com/accounts/679322/events/3782013/live.m3u8",
                        "thumbnail_url": "https://gitlab.com/bitcodingsolutions/TVGram/-/raw/master/TVGram/ChannelsLogo/TvGram.png",
                        "thumbnail_url_original": "https://raw.githubusercontent.com/tvgram-inc/tvgram-inc.github.io/master/images/logo.png"
                    },
                    "sub_9": {
                        "id": 9,
                        "mode": "video",
                        "name_original": "Channel 9",
                        "name": "Canal 3 Formosa",
                        "sub_name": "",
                        "stream_video_url": "https://stmvideo2.livecastv.com/agenfor/agenfor/playlist.m3u8",
                        "thumbnail_url": "https://gitlab.com/bitcodingsolutions/TVGram/-/raw/master/TVGram/ChannelsLogo/TvGram.png",
                        "thumbnail_url_original": "https://raw.githubusercontent.com/tvgram-inc/tvgram-inc.github.io/master/images/logo.png"
                    },
                    "sub_10": {
                        "id": 10,
                        "mode": "video",
                        "name_original": "Channel 10",
                        "name": "Canal 3 Las Heras",
                        "sub_name": "",
                        "stream_video_url": "https://stream.arcast.com.ar/canal3/canal3/playlist.m3u8",
                        "thumbnail_url": "https://gitlab.com/bitcodingsolutions/TVGram/-/raw/master/TVGram/ChannelsLogo/TvGram.png",
                        "thumbnail_url_original": "https://raw.githubusercontent.com/tvgram-inc/tvgram-inc.github.io/master/images/logo.png"
                    },
                    "sub_11": {
                        "id": 11,
                        "mode": "video",
                        "name_original": "Channel 11",
                        "name": "Canal 4 Esquel",
                        "sub_name": "",
                        "stream_video_url": "https://stream.arcast.com.ar/canal4esquel/canal4esquel/playlist.m3u8",
                        "thumbnail_url": "https://gitlab.com/bitcodingsolutions/TVGram/-/raw/master/TVGram/ChannelsLogo/TvGram.png",
                        "thumbnail_url_original": "https://raw.githubusercontent.com/tvgram-inc/tvgram-inc.github.io/master/images/logo.png"
                    },
                    "sub_12": {
                        "id": 12,
                        "mode": "video",
                        "name_original": "Channel 12",
                        "name": "Canal 4 Posadas",
                        "sub_name": "",
                        "stream_video_url": "https://iptv.ixfo.com.ar:30443/live/C4POS/playlist.m3u8",
                        "thumbnail_url": "https://gitlab.com/bitcodingsolutions/TVGram/-/raw/master/TVGram/ChannelsLogo/TvGram.png",
                        "thumbnail_url_original": "https://raw.githubusercontent.com/tvgram-inc/tvgram-inc.github.io/master/images/logo.png"
                    },
                    "sub_13": {
                        "id": 13,
                        "mode": "video",
                        "name_original": "Channel 13",
                        "name": "Canal 6",
                        "sub_name": "",
                        "stream_video_url": "https://stmvideo1.livecastv.com/canal6er/canal6er/playlist.m3u8",
                        "thumbnail_url": "https://gitlab.com/bitcodingsolutions/TVGram/-/raw/master/TVGram/ChannelsLogo/TvGram.png",
                        "thumbnail_url_original": "https://raw.githubusercontent.com/tvgram-inc/tvgram-inc.github.io/master/images/logo.png"
                    },
                    "sub_14": {
                        "id": 14,
                        "mode": "video",
                        "name_original": "Channel 14",
                        "name": "Canal 7",
                        "sub_name": "",
                        "stream_video_url": "https://stream.arcast.live/canal7jujuy/ngrp:canal7jujuy_all/playlist.m3u8",
                        "thumbnail_url": "https://gitlab.com/bitcodingsolutions/TVGram/-/raw/master/TVGram/ChannelsLogo/TvGram.png",
                        "thumbnail_url_original": "https://raw.githubusercontent.com/tvgram-inc/tvgram-inc.github.io/master/images/logo.png"
                    },
                    "sub_15": {
                        "id": 15,
                        "mode": "video",
                        "name_original": "Channel 15",
                        "name": "Canal 8 Mar del Plata",
                        "sub_name": "",
                        "stream_video_url": "https://stream.arcast.com.ar/c8mdp/ngrp:c8mdp_all/playlist.m3u8",
                        "thumbnail_url": "https://gitlab.com/bitcodingsolutions/TVGram/-/raw/master/TVGram/ChannelsLogo/TvGram.png",
                        "thumbnail_url_original": "https://raw.githubusercontent.com/tvgram-inc/tvgram-inc.github.io/master/images/logo.png"
                    },
                    "sub_16": {
                        "id": 16,
                        "mode": "video",
                        "name_original": "Channel 16",
                        "name": "Canal 9 Litoral",
                        "sub_name": "",
                        "stream_video_url": "https://stream.arcast.live/ahora/ahora/playlist.m3u8",
                        "thumbnail_url": "https://gitlab.com/bitcodingsolutions/TVGram/-/raw/master/TVGram/ChannelsLogo/TvGram.png",
                        "thumbnail_url_original": "https://raw.githubusercontent.com/tvgram-inc/tvgram-inc.github.io/master/images/logo.png"
                    },
                    "sub_17": {
                        "id": 17,
                        "mode": "video",
                        "name_original": "Channel 17",
                        "name": "Canal 9 Resistencia",
                        "sub_name": "",
                        "stream_video_url": "http://201.217.245.41:8081/testmelucas/canal9/playlist.m3u8",
                        "thumbnail_url": "https://gitlab.com/bitcodingsolutions/TVGram/-/raw/master/TVGram/ChannelsLogo/TvGram.png",
                        "thumbnail_url_original": "https://raw.githubusercontent.com/tvgram-inc/tvgram-inc.github.io/master/images/logo.png"
                    },
                    "sub_18": {
                        "id": 18,
                        "mode": "video",
                        "name_original": "Channel 18",
                        "name": "Canal 10 C\u00f3rdoba",
                        "sub_name": "",
                        "stream_video_url": "https://stream.arcast.live/canal10/ngrp:canal10_all/playlist.m3u8",
                        "thumbnail_url": "https://gitlab.com/bitcodingsolutions/TVGram/-/raw/master/TVGram/ChannelsLogo/TvGram.png",
                        "thumbnail_url_original": "https://raw.githubusercontent.com/tvgram-inc/tvgram-inc.github.io/master/images/logo.png"
                    },
                    "sub_19": {
                        "id": 19,
                        "mode": "video",
                        "name_original": "Channel 19",
                        "name": "Canal 10 Neuqu\u00e9n",
                        "sub_name": "",
                        "stream_video_url": "https://stmv1.srvstm.com/tv10/tv10/playlist.m3u8",
                        "thumbnail_url": "https://gitlab.com/bitcodingsolutions/TVGram/-/raw/master/TVGram/ChannelsLogo/TvGram.png",
                        "thumbnail_url_original": "https://raw.githubusercontent.com/tvgram-inc/tvgram-inc.github.io/master/images/logo.png"
                    },
                    "sub_20": {
                        "id": 20,
                        "mode": "video",
                        "name_original": "Channel 20",
                        "name": "Canal 10 Rio Negro",
                        "sub_name": "",
                        "stream_video_url": "http://panel.dattalive.com:1935/8204/8204/playlist.m3u8",
                        "thumbnail_url": "https://gitlab.com/bitcodingsolutions/TVGram/-/raw/master/TVGram/ChannelsLogo/TvGram.png",
                        "thumbnail_url_original": "https://raw.githubusercontent.com/tvgram-inc/tvgram-inc.github.io/master/images/logo.png"
                    },
                    "sub_21": {
                        "id": 21,
                        "mode": "video",
                        "name_original": "Channel 21",
                        "name": "Canal 11 de la Costa",
                        "sub_name": "",
                        "stream_video_url": "https://vivo.solumedia.com:19360/dadaproductora/dadaproductora.m3u8",
                        "thumbnail_url": "https://gitlab.com/bitcodingsolutions/TVGram/-/raw/master/TVGram/ChannelsLogo/TvGram.png",
                        "thumbnail_url_original": "https://raw.githubusercontent.com/tvgram-inc/tvgram-inc.github.io/master/images/logo.png"
                    },
                    "sub_22": {
                        "id": 22,
                        "mode": "video",
                        "name_original": "Channel 22",
                        "name": "Canal 11 La Rioja",
                        "sub_name": "",
                        "stream_video_url": "http://stmv4.questreaming.com/fenixlarioja/fenixlarioja/playlist.m3u8",
                        "thumbnail_url": "https://gitlab.com/bitcodingsolutions/TVGram/-/raw/master/TVGram/ChannelsLogo/TvGram.png",
                        "thumbnail_url_original": "https://raw.githubusercontent.com/tvgram-inc/tvgram-inc.github.io/master/images/logo.png"
                    },
                    "sub_23": {
                        "id": 23,
                        "mode": "video",
                        "name_original": "Channel 23",
                        "name": "Canal 12 Puerto Madryn",
                        "sub_name": "",
                        "stream_video_url": "https://5f700d5b2c46f.streamlock.net/madryntv/madryntv/playlist.m3u8",
                        "thumbnail_url": "https://gitlab.com/bitcodingsolutions/TVGram/-/raw/master/TVGram/ChannelsLogo/TvGram.png",
                        "thumbnail_url_original": "https://raw.githubusercontent.com/tvgram-inc/tvgram-inc.github.io/master/images/logo.png"
                    },
                    "sub_24": {
                        "id": 24,
                        "mode": "video",
                        "name_original": "Channel 24",
                        "name": "Canal13 Jujuy TV",
                        "sub_name": "",
                        "stream_video_url": "https://genexservicios.com:19360/canal13jujuy/canal13jujuy.m3u8",
                        "thumbnail_url": "https://gitlab.com/bitcodingsolutions/TVGram/-/raw/master/TVGram/ChannelsLogo/TvGram.png",
                        "thumbnail_url_original": "https://raw.githubusercontent.com/tvgram-inc/tvgram-inc.github.io/master/images/logo.png"
                    },
                    "sub_25": {
                        "id": 25,
                        "mode": "video",
                        "name_original": "Channel 25",
                        "name": "Canal 13 La Rioja",
                        "sub_name": "",
                        "stream_video_url": "http://arcast.net:1935/mp/mp/playlist.m3u8",
                        "thumbnail_url": "https://gitlab.com/bitcodingsolutions/TVGram/-/raw/master/TVGram/ChannelsLogo/TvGram.png",
                        "thumbnail_url_original": "https://raw.githubusercontent.com/tvgram-inc/tvgram-inc.github.io/master/images/logo.png"
                    },
                    "sub_26": {
                        "id": 26,
                        "mode": "video",
                        "name_original": "Channel 26",
                        "name": "Canal 21 TV",
                        "sub_name": "",
                        "stream_video_url": "https://iptv.ixfo.com.ar:30443/c21tv/hd/c21tv/playlist.m3u8",
                        "thumbnail_url": "https://gitlab.com/bitcodingsolutions/TVGram/-/raw/master/TVGram/ChannelsLogo/TvGram.png",
                        "thumbnail_url_original": "https://raw.githubusercontent.com/tvgram-inc/tvgram-inc.github.io/master/images/logo.png"
                    },
                    "sub_27": {
                        "id": 27,
                        "mode": "video",
                        "name_original": "Channel 27",
                        "name": "Canal 22",
                        "sub_name": "",
                        "stream_video_url": "https://5f700d5b2c46f.streamlock.net/canal22/canal22/playlist.m3u8",
                        "thumbnail_url": "https://gitlab.com/bitcodingsolutions/TVGram/-/raw/master/TVGram/ChannelsLogo/TvGram.png",
                        "thumbnail_url_original": "https://raw.githubusercontent.com/tvgram-inc/tvgram-inc.github.io/master/images/logo.png"
                    },
                    "sub_28": {
                        "id": 28,
                        "mode": "video",
                        "name_original": "Channel 28",
                        "name": "Canal 26",
                        "sub_name": "",
                        "stream_video_url": "http://200.115.193.177/live/26hd-720/playlist.m3u8",
                        "thumbnail_url": "https://gitlab.com/bitcodingsolutions/TVGram/-/raw/master/TVGram/ChannelsLogo/TvGram.png",
                        "thumbnail_url_original": "https://raw.githubusercontent.com/tvgram-inc/tvgram-inc.github.io/master/images/logo.png"
                    },
                    "sub_29": {
                        "id": 29,
                        "mode": "video",
                        "name_original": "Channel 29",
                        "name": "Canal 34 San Juan",
                        "sub_name": "",
                        "stream_video_url": "http://streamyes.alsolnet.com/canal34hd/live/playlist.m3u8",
                        "thumbnail_url": "https://gitlab.com/bitcodingsolutions/TVGram/-/raw/master/TVGram/ChannelsLogo/TvGram.png",
                        "thumbnail_url_original": "https://raw.githubusercontent.com/tvgram-inc/tvgram-inc.github.io/master/images/logo.png"
                    },
                    "sub_30": {
                        "id": 30,
                        "mode": "video",
                        "name_original": "Channel 30",
                        "name": "Canal 79",
                        "sub_name": "",
                        "stream_video_url": "https://streamconex.com:1936/mardelplata/mardelplata/playlist.m3u8",
                        "thumbnail_url": "https://gitlab.com/bitcodingsolutions/TVGram/-/raw/master/TVGram/ChannelsLogo/TvGram.png",
                        "thumbnail_url_original": "https://raw.githubusercontent.com/tvgram-inc/tvgram-inc.github.io/master/images/logo.png"
                    },
                    "sub_31": {
                        "id": 31,
                        "mode": "video",
                        "name_original": "Channel 31",
                        "name": "Canal 79",
                        "sub_name": "",
                        "stream_video_url": "https://streamconex.com:1936/santaclara/santaclara/playlist.m3u8",
                        "thumbnail_url": "https://gitlab.com/bitcodingsolutions/TVGram/-/raw/master/TVGram/ChannelsLogo/TvGram.png",
                        "thumbnail_url_original": "https://raw.githubusercontent.com/tvgram-inc/tvgram-inc.github.io/master/images/logo.png"
                    },
                    "sub_32": {
                        "id": 32,
                        "mode": "video",
                        "name_original": "Channel 32",
                        "name": "Canal Orbe 21",
                        "sub_name": "",
                        "stream_video_url": "https://cdn2.zencast.tv:30443/orbe/orbe21smil/playlist.m3u8",
                        "thumbnail_url": "https://gitlab.com/bitcodingsolutions/TVGram/-/raw/master/TVGram/ChannelsLogo/TvGram.png",
                        "thumbnail_url_original": "https://raw.githubusercontent.com/tvgram-inc/tvgram-inc.github.io/master/images/logo.png"
                    },
                    "sub_33": {
                        "id": 33,
                        "mode": "video",
                        "name_original": "Channel 33",
                        "name": "Canal Rural",
                        "sub_name": "",
                        "stream_video_url": "https://cda2.alsolnet.com/elrural/live/playlist.m3u8",
                        "thumbnail_url": "https://gitlab.com/bitcodingsolutions/TVGram/-/raw/master/TVGram/ChannelsLogo/TvGram.png",
                        "thumbnail_url_original": "https://raw.githubusercontent.com/tvgram-inc/tvgram-inc.github.io/master/images/logo.png"
                    },
                    "sub_34": {
                        "id": 34,
                        "mode": "video",
                        "name_original": "Channel 34",
                        "name": "CANAL TDC",
                        "sub_name": "",
                        "stream_video_url": "https://5e7cdf2370883.streamlock.net/tdconline/tdconline/playlist.m3u8",
                        "thumbnail_url": "https://gitlab.com/bitcodingsolutions/TVGram/-/raw/master/TVGram/ChannelsLogo/TvGram.png",
                        "thumbnail_url_original": "https://raw.githubusercontent.com/tvgram-inc/tvgram-inc.github.io/master/images/logo.png"
                    },
                    "sub_35": {
                        "id": 35,
                        "mode": "video",
                        "name_original": "Channel 35",
                        "name": "Canal U",
                        "sub_name": "",
                        "stream_video_url": "https://stream.arcast.live/canalu/canalu/playlist.m3u8",
                        "thumbnail_url": "https://gitlab.com/bitcodingsolutions/TVGram/-/raw/master/TVGram/ChannelsLogo/TvGram.png",
                        "thumbnail_url_original": "https://raw.githubusercontent.com/tvgram-inc/tvgram-inc.github.io/master/images/logo.png"
                    },
                    "sub_36": {
                        "id": 36,
                        "mode": "video",
                        "name_original": "Channel 36",
                        "name": "Canal XFN",
                        "sub_name": "",
                        "stream_video_url": "https://streamconex.com:1936/canalxfn/canalxfn/playlist.m3u8",
                        "thumbnail_url": "https://gitlab.com/bitcodingsolutions/TVGram/-/raw/master/TVGram/ChannelsLogo/TvGram.png",
                        "thumbnail_url_original": "https://raw.githubusercontent.com/tvgram-inc/tvgram-inc.github.io/master/images/logo.png"
                    },
                    "sub_37": {
                        "id": 37,
                        "mode": "video",
                        "name_original": "Channel 37",
                        "name": "Catamarca TV [Not 24/7]",
                        "sub_name": "",
                        "stream_video_url": "https://stream.arcast.com.ar/canal7catamarca/ngrp:canal7catamarca_all/playlist.m3u8",
                        "thumbnail_url": "https://gitlab.com/bitcodingsolutions/TVGram/-/raw/master/TVGram/ChannelsLogo/TvGram.png",
                        "thumbnail_url_original": "https://raw.githubusercontent.com/tvgram-inc/tvgram-inc.github.io/master/images/logo.png"
                    },
                    "sub_38": {
                        "id": 38,
                        "mode": "video",
                        "name_original": "Channel 38",
                        "name": "Celta TV",
                        "sub_name": "",
                        "stream_video_url": "https://vivo.solumedia.com:19360/celta/celta.m3u8",
                        "thumbnail_url": "https://gitlab.com/bitcodingsolutions/TVGram/-/raw/master/TVGram/ChannelsLogo/TvGram.png",
                        "thumbnail_url_original": "https://raw.githubusercontent.com/tvgram-inc/tvgram-inc.github.io/master/images/logo.png"
                    },
                    "sub_39": {
                        "id": 39,
                        "mode": "video",
                        "name_original": "Channel 39",
                        "name": "CGTN",
                        "sub_name": "",
                        "stream_video_url": "https://news.cgtn.com/resource/live/english/cgtn-news.m3u8",
                        "thumbnail_url": "https://gitlab.com/bitcodingsolutions/TVGram/-/raw/master/TVGram/ChannelsLogo/TvGram.png",
                        "thumbnail_url_original": "https://raw.githubusercontent.com/tvgram-inc/tvgram-inc.github.io/master/images/logo.png"
                    },
                    "sub_40": {
                        "id": 40,
                        "mode": "video",
                        "name_original": "Channel 40",
                        "name": "CGTN Espa\u00f1ol",
                        "sub_name": "",
                        "stream_video_url": "https://news.cgtn.com/resource/live/espanol/cgtn-e.m3u8",
                        "thumbnail_url": "https://gitlab.com/bitcodingsolutions/TVGram/-/raw/master/TVGram/ChannelsLogo/TvGram.png",
                        "thumbnail_url_original": "https://raw.githubusercontent.com/tvgram-inc/tvgram-inc.github.io/master/images/logo.png"
                    },
                    "sub_41": {
                        "id": 41,
                        "mode": "video",
                        "name_original": "Channel 41",
                        "name": "Chilecito TV",
                        "sub_name": "",
                        "stream_video_url": "https://vivo.solumedia.com:19360/grupoemail/grupoemail.m3u8",
                        "thumbnail_url": "https://gitlab.com/bitcodingsolutions/TVGram/-/raw/master/TVGram/ChannelsLogo/TvGram.png",
                        "thumbnail_url_original": "https://raw.githubusercontent.com/tvgram-inc/tvgram-inc.github.io/master/images/logo.png"
                    },
                    "sub_42": {
                        "id": 42,
                        "mode": "video",
                        "name_original": "Channel 42",
                        "name": "Ciudad TV Resistencia",
                        "sub_name": "",
                        "stream_video_url": "http://coninfo.net:1935/chacodxdtv/live/playlist.m3u8",
                        "thumbnail_url": "https://gitlab.com/bitcodingsolutions/TVGram/-/raw/master/TVGram/ChannelsLogo/TvGram.png",
                        "thumbnail_url_original": "https://raw.githubusercontent.com/tvgram-inc/tvgram-inc.github.io/master/images/logo.png"
                    },
                    "sub_43": {
                        "id": 43,
                        "mode": "video",
                        "name_original": "Channel 43",
                        "name": "Classic Arts Showcase",
                        "sub_name": "",
                        "stream_video_url": "https://classicarts.akamaized.net/hls/live/1024257/CAS/master.m3u8",
                        "thumbnail_url": "https://gitlab.com/bitcodingsolutions/TVGram/-/raw/master/TVGram/ChannelsLogo/TvGram.png",
                        "thumbnail_url_original": "https://raw.githubusercontent.com/tvgram-inc/tvgram-inc.github.io/master/images/logo.png"
                    },
                    "sub_44": {
                        "id": 44,
                        "mode": "video",
                        "name_original": "Channel 44",
                        "name": "CNA International",
                        "sub_name": "",
                        "stream_video_url": "https://d2e1asnsl7br7b.cloudfront.net/7782e205e72f43aeb4a48ec97f66ebbe/index.m3u8",
                        "thumbnail_url": "https://gitlab.com/bitcodingsolutions/TVGram/-/raw/master/TVGram/ChannelsLogo/TvGram.png",
                        "thumbnail_url_original": "https://raw.githubusercontent.com/tvgram-inc/tvgram-inc.github.io/master/images/logo.png"
                    },
                    "sub_45": {
                        "id": 45,
                        "mode": "video",
                        "name_original": "Channel 45",
                        "name": "Cosmos TV",
                        "sub_name": "",
                        "stream_video_url": "https://tv.mediacp.eu:19360/cosmos/cosmos.m3u8",
                        "thumbnail_url": "https://gitlab.com/bitcodingsolutions/TVGram/-/raw/master/TVGram/ChannelsLogo/TvGram.png",
                        "thumbnail_url_original": "https://raw.githubusercontent.com/tvgram-inc/tvgram-inc.github.io/master/images/logo.png"
                    },
                    "sub_46": {
                        "id": 46,
                        "mode": "video",
                        "name_original": "Channel 46",
                        "name": "CPEtv",
                        "sub_name": "",
                        "stream_video_url": "https://stream.arcast.live/cpe/ngrp:cpe_all/playlist.m3u8",
                        "thumbnail_url": "https://gitlab.com/bitcodingsolutions/TVGram/-/raw/master/TVGram/ChannelsLogo/TvGram.png",
                        "thumbnail_url_original": "https://raw.githubusercontent.com/tvgram-inc/tvgram-inc.github.io/master/images/logo.png"
                    },
                    "sub_47": {
                        "id": 47,
                        "mode": "video",
                        "name_original": "Channel 47",
                        "name": "DW English",
                        "sub_name": "",
                        "stream_video_url": "https://dwamdstream102.akamaized.net/hls/live/2015525/dwstream102/index.m3u8",
                        "thumbnail_url": "https://gitlab.com/bitcodingsolutions/TVGram/-/raw/master/TVGram/ChannelsLogo/TvGram.png",
                        "thumbnail_url_original": "https://raw.githubusercontent.com/tvgram-inc/tvgram-inc.github.io/master/images/logo.png"
                    },
                    "sub_48": {
                        "id": 48,
                        "mode": "video",
                        "name_original": "Channel 48",
                        "name": "DW Espa\u00f1ol",
                        "sub_name": "",
                        "stream_video_url": "https://dwamdstream104.akamaized.net/hls/live/2015530/dwstream104/index.m3u8",
                        "thumbnail_url": "https://gitlab.com/bitcodingsolutions/TVGram/-/raw/master/TVGram/ChannelsLogo/TvGram.png",
                        "thumbnail_url_original": "https://raw.githubusercontent.com/tvgram-inc/tvgram-inc.github.io/master/images/logo.png"
                    },
                    "sub_49": {
                        "id": 49,
                        "mode": "video",
                        "name_original": "Channel 49",
                        "name": "El Nueve",
                        "sub_name": "",
                        "stream_video_url": "https://octubre-live.cdn.vustreams.com/live/channel09/live.isml/live.m3u8",
                        "thumbnail_url": "https://gitlab.com/bitcodingsolutions/TVGram/-/raw/master/TVGram/ChannelsLogo/TvGram.png",
                        "thumbnail_url_original": "https://raw.githubusercontent.com/tvgram-inc/tvgram-inc.github.io/master/images/logo.png"
                    },
                    "sub_50": {
                        "id": 50,
                        "mode": "video",
                        "name_original": "Channel 50",
                        "name": "El Trece",
                        "sub_name": "",
                        "stream_video_url": "https://live-01-02-eltrece.vodgc.net/eltrecetv/index.m3u8",
                        "thumbnail_url": "https://gitlab.com/bitcodingsolutions/TVGram/-/raw/master/TVGram/ChannelsLogo/TvGram.png",
                        "thumbnail_url_original": "https://raw.githubusercontent.com/tvgram-inc/tvgram-inc.github.io/master/images/logo.png"
                    },
                    "sub_51": {
                        "id": 51,
                        "mode": "video",
                        "name_original": "Channel 51",
                        "name": "EnerGeek Fanpop",
                        "sub_name": "",
                        "stream_video_url": "https://stream.wifispeed.cl:3247/live/energeek2live.m3u8",
                        "thumbnail_url": "https://gitlab.com/bitcodingsolutions/TVGram/-/raw/master/TVGram/ChannelsLogo/TvGram.png",
                        "thumbnail_url_original": "https://raw.githubusercontent.com/tvgram-inc/tvgram-inc.github.io/master/images/logo.png"
                    },
                    "sub_52": {
                        "id": 52,
                        "mode": "video",
                        "name_original": "Channel 52",
                        "name": "EnerGeek Se\u00f1al 1",
                        "sub_name": "",
                        "stream_video_url": "https://stream.wifispeed.cl:3103/live/energeek1live.m3u8",
                        "thumbnail_url": "https://gitlab.com/bitcodingsolutions/TVGram/-/raw/master/TVGram/ChannelsLogo/TvGram.png",
                        "thumbnail_url_original": "https://raw.githubusercontent.com/tvgram-inc/tvgram-inc.github.io/master/images/logo.png"
                    },
                    "sub_53": {
                        "id": 53,
                        "mode": "video",
                        "name_original": "Channel 53",
                        "name": "EnerGeek Se\u00f1al 3",
                        "sub_name": "",
                        "stream_video_url": "https://stream.wifispeed.cl:3852/live/energeeklive.m3u8",
                        "thumbnail_url": "https://gitlab.com/bitcodingsolutions/TVGram/-/raw/master/TVGram/ChannelsLogo/TvGram.png",
                        "thumbnail_url_original": "https://raw.githubusercontent.com/tvgram-inc/tvgram-inc.github.io/master/images/logo.png"
                    },
                    "sub_54": {
                        "id": 54,
                        "mode": "video",
                        "name_original": "Channel 54",
                        "name": "EPS TV Canal 5",
                        "sub_name": "",
                        "stream_video_url": "https://live.enhdtv.com:19360/tvplaydigital2/tvplaydigital2.m3u8",
                        "thumbnail_url": "https://gitlab.com/bitcodingsolutions/TVGram/-/raw/master/TVGram/ChannelsLogo/TvGram.png",
                        "thumbnail_url_original": "https://raw.githubusercontent.com/tvgram-inc/tvgram-inc.github.io/master/images/logo.png"
                    },
                    "sub_55": {
                        "id": 55,
                        "mode": "video",
                        "name_original": "Channel 55",
                        "name": "ERT World",
                        "sub_name": "",
                        "stream_video_url": "http://wpso.com:1936/hls/wzra.m3u8",
                        "thumbnail_url": "https://gitlab.com/bitcodingsolutions/TVGram/-/raw/master/TVGram/ChannelsLogo/TvGram.png",
                        "thumbnail_url_original": "https://raw.githubusercontent.com/tvgram-inc/tvgram-inc.github.io/master/images/logo.png"
                    },
                    "sub_56": {
                        "id": 56,
                        "mode": "video",
                        "name_original": "Channel 56",
                        "name": "Esports Max [Not 24/7]",
                        "sub_name": "",
                        "stream_video_url": "http://vcpar.myplaytv.com/esportsmax/live/playlist.m3u8",
                        "thumbnail_url": "https://gitlab.com/bitcodingsolutions/TVGram/-/raw/master/TVGram/ChannelsLogo/TvGram.png",
                        "thumbnail_url_original": "https://raw.githubusercontent.com/tvgram-inc/tvgram-inc.github.io/master/images/logo.png"
                    },
                    "sub_57": {
                        "id": 57,
                        "mode": "video",
                        "name_original": "Channel 57",
                        "name": "ETB Basque",
                        "sub_name": "",
                        "stream_video_url": "https://multimedia.eitb.eus/live-content/eitbbasque-hls/master.m3u8",
                        "thumbnail_url": "https://gitlab.com/bitcodingsolutions/TVGram/-/raw/master/TVGram/ChannelsLogo/TvGram.png",
                        "thumbnail_url_original": "https://raw.githubusercontent.com/tvgram-inc/tvgram-inc.github.io/master/images/logo.png"
                    },
                    "sub_58": {
                        "id": 58,
                        "mode": "video",
                        "name_original": "Channel 58",
                        "name": "Euro Indie Music Chart TV",
                        "sub_name": "",
                        "stream_video_url": "http://178.33.224.197:1935/euroindiemusic/euroindiemusic/playlist.m3u8",
                        "thumbnail_url": "https://gitlab.com/bitcodingsolutions/TVGram/-/raw/master/TVGram/ChannelsLogo/TvGram.png",
                        "thumbnail_url_original": "https://raw.githubusercontent.com/tvgram-inc/tvgram-inc.github.io/master/images/logo.png"
                    },
                    "sub_59": {
                        "id": 59,
                        "mode": "video",
                        "name_original": "Channel 59",
                        "name": "Galicia TV Am\u00e9rica",
                        "sub_name": "",
                        "stream_video_url": "http://america-crtvg.flumotion.com/playlist.m3u8",
                        "thumbnail_url": "https://gitlab.com/bitcodingsolutions/TVGram/-/raw/master/TVGram/ChannelsLogo/TvGram.png",
                        "thumbnail_url_original": "https://raw.githubusercontent.com/tvgram-inc/tvgram-inc.github.io/master/images/logo.png"
                    },
                    "sub_60": {
                        "id": 60,
                        "mode": "video",
                        "name_original": "Channel 60",
                        "name": "GenTV",
                        "sub_name": "",
                        "stream_video_url": "https://inliveserver.com:1936/14056/14056/playlist.m3u8",
                        "thumbnail_url": "https://gitlab.com/bitcodingsolutions/TVGram/-/raw/master/TVGram/ChannelsLogo/TvGram.png",
                        "thumbnail_url_original": "https://raw.githubusercontent.com/tvgram-inc/tvgram-inc.github.io/master/images/logo.png"
                    },
                    "sub_61": {
                        "id": 61,
                        "mode": "video",
                        "name_original": "Channel 61",
                        "name": "HispanTV",
                        "sub_name": "",
                        "stream_video_url": "https://live1.presstv.ir/live/hispan.m3u8",
                        "thumbnail_url": "https://gitlab.com/bitcodingsolutions/TVGram/-/raw/master/TVGram/ChannelsLogo/TvGram.png",
                        "thumbnail_url_original": "https://raw.githubusercontent.com/tvgram-inc/tvgram-inc.github.io/master/images/logo.png"
                    },
                    "sub_62": {
                        "id": 62,
                        "mode": "video",
                        "name_original": "Channel 62",
                        "name": "Informacion Period\u00edstica",
                        "sub_name": "",
                        "stream_video_url": "https://d1nmqgphjn0y4.cloudfront.net/live/ip/live.isml/5ee6e167-1167-4a85-9d8d-e08a3f55cff3.m3u8",
                        "thumbnail_url": "https://gitlab.com/bitcodingsolutions/TVGram/-/raw/master/TVGram/ChannelsLogo/TvGram.png",
                        "thumbnail_url_original": "https://raw.githubusercontent.com/tvgram-inc/tvgram-inc.github.io/master/images/logo.png"
                    },
                    "sub_63": {
                        "id": 63,
                        "mode": "video",
                        "name_original": "Channel 63",
                        "name": "KBS World",
                        "sub_name": "",
                        "stream_video_url": "https://kbsworld-ott.akamaized.net/hls/live/2002341/kbsworld/master.m3u8",
                        "thumbnail_url": "https://gitlab.com/bitcodingsolutions/TVGram/-/raw/master/TVGram/ChannelsLogo/TvGram.png",
                        "thumbnail_url_original": "https://raw.githubusercontent.com/tvgram-inc/tvgram-inc.github.io/master/images/logo.png"
                    },
                    "sub_64": {
                        "id": 64,
                        "mode": "video",
                        "name_original": "Channel 64",
                        "name": "Lapacho TV",
                        "sub_name": "",
                        "stream_video_url": "https://vivo.solumedia.com:19360/lapacho/lapacho.m3u8",
                        "thumbnail_url": "https://gitlab.com/bitcodingsolutions/TVGram/-/raw/master/TVGram/ChannelsLogo/TvGram.png",
                        "thumbnail_url_original": "https://raw.githubusercontent.com/tvgram-inc/tvgram-inc.github.io/master/images/logo.png"
                    },
                    "sub_65": {
                        "id": 65,
                        "mode": "video",
                        "name_original": "Channel 65",
                        "name": "Litus TV",
                        "sub_name": "",
                        "stream_video_url": "https://stream.arcast.com.ar/litustv/ngrp:litustv_all/playlist.m3u8",
                        "thumbnail_url": "https://gitlab.com/bitcodingsolutions/TVGram/-/raw/master/TVGram/ChannelsLogo/TvGram.png",
                        "thumbnail_url_original": "https://raw.githubusercontent.com/tvgram-inc/tvgram-inc.github.io/master/images/logo.png"
                    },
                    "sub_66": {
                        "id": 66,
                        "mode": "video",
                        "name_original": "Channel 66",
                        "name": "LTO Televisi\u00f3n [Not 24/7]",
                        "sub_name": "",
                        "stream_video_url": "https://ltocatamarca.github.io/ltotv.m3u8",
                        "thumbnail_url": "https://gitlab.com/bitcodingsolutions/TVGram/-/raw/master/TVGram/ChannelsLogo/TvGram.png",
                        "thumbnail_url_original": "https://raw.githubusercontent.com/tvgram-inc/tvgram-inc.github.io/master/images/logo.png"
                    },
                    "sub_67": {
                        "id": 67,
                        "mode": "video",
                        "name_original": "Channel 67",
                        "name": "M\u00e1s FM 95.9",
                        "sub_name": "",
                        "stream_video_url": "https://vivo.solumedia.com:19360/masfm/masfm.m3u8",
                        "thumbnail_url": "https://gitlab.com/bitcodingsolutions/TVGram/-/raw/master/TVGram/ChannelsLogo/TvGram.png",
                        "thumbnail_url_original": "https://raw.githubusercontent.com/tvgram-inc/tvgram-inc.github.io/master/images/logo.png"
                    },
                    "sub_68": {
                        "id": 68,
                        "mode": "video",
                        "name_original": "Channel 68",
                        "name": "Metro Globe Network",
                        "sub_name": "",
                        "stream_video_url": "https://edge.medcom.id/live-edge/smil:mgnch.smil/playlist.m3u8",
                        "thumbnail_url": "https://gitlab.com/bitcodingsolutions/TVGram/-/raw/master/TVGram/ChannelsLogo/TvGram.png",
                        "thumbnail_url_original": "https://raw.githubusercontent.com/tvgram-inc/tvgram-inc.github.io/master/images/logo.png"
                    },
                    "sub_69": {
                        "id": 69,
                        "mode": "video",
                        "name_original": "Channel 69",
                        "name": "Misiones Cuatro",
                        "sub_name": "",
                        "stream_video_url": "https://streamlov.alsolnet.com/misionescuatro/live/playlist.m3u8",
                        "thumbnail_url": "https://gitlab.com/bitcodingsolutions/TVGram/-/raw/master/TVGram/ChannelsLogo/TvGram.png",
                        "thumbnail_url_original": "https://raw.githubusercontent.com/tvgram-inc/tvgram-inc.github.io/master/images/logo.png"
                    },
                    "sub_70": {
                        "id": 70,
                        "mode": "video",
                        "name_original": "Channel 70",
                        "name": "Multivisi\u00f3n Federal",
                        "sub_name": "",
                        "stream_video_url": "http://panel.dattalive.com:1935/8250/8250/playlist.m3u8",
                        "thumbnail_url": "https://gitlab.com/bitcodingsolutions/TVGram/-/raw/master/TVGram/ChannelsLogo/TvGram.png",
                        "thumbnail_url_original": "https://raw.githubusercontent.com/tvgram-inc/tvgram-inc.github.io/master/images/logo.png"
                    },
                    "sub_71": {
                        "id": 71,
                        "mode": "video",
                        "name_original": "Channel 71",
                        "name": "MusicTop",
                        "sub_name": "",
                        "stream_video_url": "http://live-edge01.telecentro.net.ar/live/smil:musictop.smil/playlist.m3u8",
                        "thumbnail_url": "https://gitlab.com/bitcodingsolutions/TVGram/-/raw/master/TVGram/ChannelsLogo/TvGram.png",
                        "thumbnail_url_original": "https://raw.githubusercontent.com/tvgram-inc/tvgram-inc.github.io/master/images/logo.png"
                    },
                    "sub_72": {
                        "id": 72,
                        "mode": "video",
                        "name_original": "Channel 72",
                        "name": "Myanmar International TV",
                        "sub_name": "",
                        "stream_video_url": "https://5a13fe32ef748.streamlock.net/mmplay/mitv/playlist.m3u8",
                        "thumbnail_url": "https://gitlab.com/bitcodingsolutions/TVGram/-/raw/master/TVGram/ChannelsLogo/TvGram.png",
                        "thumbnail_url_original": "https://raw.githubusercontent.com/tvgram-inc/tvgram-inc.github.io/master/images/logo.png"
                    },
                    "sub_73": {
                        "id": 73,
                        "mode": "video",
                        "name_original": "Channel 73",
                        "name": "NASA TV",
                        "sub_name": "",
                        "stream_video_url": "https://uplynkcontent.sinclairstoryline.com/channel/ddd76fdc1c0a456ba537e4f48e827d3e.m3u8",
                        "thumbnail_url": "https://gitlab.com/bitcodingsolutions/TVGram/-/raw/master/TVGram/ChannelsLogo/TvGram.png",
                        "thumbnail_url_original": "https://raw.githubusercontent.com/tvgram-inc/tvgram-inc.github.io/master/images/logo.png"
                    },
                    "sub_74": {
                        "id": 74,
                        "mode": "video",
                        "name_original": "Channel 74",
                        "name": "NET TV",
                        "sub_name": "",
                        "stream_video_url": "https://unlimited1-us.dps.live/nettv/nettv.smil/playlist.m3u8",
                        "thumbnail_url": "https://gitlab.com/bitcodingsolutions/TVGram/-/raw/master/TVGram/ChannelsLogo/TvGram.png",
                        "thumbnail_url_original": "https://raw.githubusercontent.com/tvgram-inc/tvgram-inc.github.io/master/images/logo.png"
                    },
                    "sub_75": {
                        "id": 75,
                        "mode": "video",
                        "name_original": "Channel 75",
                        "name": "NG Federal",
                        "sub_name": "",
                        "stream_video_url": "http://www.coninfo.net:1935/tvlink/live/playlist.m3u8",
                        "thumbnail_url": "https://gitlab.com/bitcodingsolutions/TVGram/-/raw/master/TVGram/ChannelsLogo/TvGram.png",
                        "thumbnail_url_original": "https://raw.githubusercontent.com/tvgram-inc/tvgram-inc.github.io/master/images/logo.png"
                    },
                    "sub_76": {
                        "id": 76,
                        "mode": "video",
                        "name_original": "Channel 76",
                        "name": "NHK World Japan",
                        "sub_name": "",
                        "stream_video_url": "https://nhkwlive-ojp.akamaized.net/hls/live/2003459/nhkwlive-ojp-en/index.m3u8",
                        "thumbnail_url": "https://gitlab.com/bitcodingsolutions/TVGram/-/raw/master/TVGram/ChannelsLogo/TvGram.png",
                        "thumbnail_url_original": "https://raw.githubusercontent.com/tvgram-inc/tvgram-inc.github.io/master/images/logo.png"
                    },
                    "sub_77": {
                        "id": 77,
                        "mode": "video",
                        "name_original": "Channel 77",
                        "name": "Nuevo Tiempo",
                        "sub_name": "",
                        "stream_video_url": "https://stream.live.novotempo.com/tv/smil:tvnuevotiempo.smil/playlist.m3u8",
                        "thumbnail_url": "https://gitlab.com/bitcodingsolutions/TVGram/-/raw/master/TVGram/ChannelsLogo/TvGram.png",
                        "thumbnail_url_original": "https://raw.githubusercontent.com/tvgram-inc/tvgram-inc.github.io/master/images/logo.png"
                    },
                    "sub_78": {
                        "id": 78,
                        "mode": "video",
                        "name_original": "Channel 78",
                        "name": "Platzi TV",
                        "sub_name": "",
                        "stream_video_url": "https://mdstrm.com/live-stream-playlist/629a63ae8df27c082901f78b.m3u8",
                        "thumbnail_url": "https://gitlab.com/bitcodingsolutions/TVGram/-/raw/master/TVGram/ChannelsLogo/TvGram.png",
                        "thumbnail_url_original": "https://raw.githubusercontent.com/tvgram-inc/tvgram-inc.github.io/master/images/logo.png"
                    },
                    "sub_79": {
                        "id": 79,
                        "mode": "video",
                        "name_original": "Channel 79",
                        "name": "PowerHD",
                        "sub_name": "",
                        "stream_video_url": "https://live2.tensila.com/1-1-1.power-tv/hls/master.m3u8",
                        "thumbnail_url": "https://gitlab.com/bitcodingsolutions/TVGram/-/raw/master/TVGram/ChannelsLogo/TvGram.png",
                        "thumbnail_url_original": "https://raw.githubusercontent.com/tvgram-inc/tvgram-inc.github.io/master/images/logo.png"
                    },
                    "sub_80": {
                        "id": 80,
                        "mode": "video",
                        "name_original": "Channel 80",
                        "name": "Radio TV Neuquen",
                        "sub_name": "",
                        "stream_video_url": "http://media.neuquen.gov.ar/rtn/television/playlist.m3u8",
                        "thumbnail_url": "https://gitlab.com/bitcodingsolutions/TVGram/-/raw/master/TVGram/ChannelsLogo/TvGram.png",
                        "thumbnail_url_original": "https://raw.githubusercontent.com/tvgram-inc/tvgram-inc.github.io/master/images/logo.png"
                    },
                    "sub_81": {
                        "id": 81,
                        "mode": "video",
                        "name_original": "Channel 81",
                        "name": "Red Bull TV",
                        "sub_name": "",
                        "stream_video_url": "https://rbmn-live.akamaized.net/hls/live/590964/BoRB-AT/master.m3u8",
                        "thumbnail_url": "https://gitlab.com/bitcodingsolutions/TVGram/-/raw/master/TVGram/ChannelsLogo/TvGram.png",
                        "thumbnail_url_original": "https://raw.githubusercontent.com/tvgram-inc/tvgram-inc.github.io/master/images/logo.png"
                    },
                    "sub_82": {
                        "id": 82,
                        "mode": "video",
                        "name_original": "Channel 82",
                        "name": "RetroM\u00e1gico",
                        "sub_name": "",
                        "stream_video_url": "https://vivo.solumedia.com:19360/retromagico/retromagico.m3u8",
                        "thumbnail_url": "https://gitlab.com/bitcodingsolutions/TVGram/-/raw/master/TVGram/ChannelsLogo/TvGram.png",
                        "thumbnail_url_original": "https://raw.githubusercontent.com/tvgram-inc/tvgram-inc.github.io/master/images/logo.png"
                    },
                    "sub_83": {
                        "id": 83,
                        "mode": "video",
                        "name_original": "Channel 83",
                        "name": "RT Documentary Russian",
                        "sub_name": "",
                        "stream_video_url": "http://uiptv.do.am/1ufc/300663722/playlist.m3u8",
                        "thumbnail_url": "https://gitlab.com/bitcodingsolutions/TVGram/-/raw/master/TVGram/ChannelsLogo/TvGram.png",
                        "thumbnail_url_original": "https://raw.githubusercontent.com/tvgram-inc/tvgram-inc.github.io/master/images/logo.png"
                    },
                    "sub_84": {
                        "id": 84,
                        "mode": "video",
                        "name_original": "Channel 84",
                        "name": "RT en Espa\u00f1ol",
                        "sub_name": "",
                        "stream_video_url": "https://rt-esp.rttv.com/live/rtesp/playlist.m3u8",
                        "thumbnail_url": "https://gitlab.com/bitcodingsolutions/TVGram/-/raw/master/TVGram/ChannelsLogo/TvGram.png",
                        "thumbnail_url_original": "https://raw.githubusercontent.com/tvgram-inc/tvgram-inc.github.io/master/images/logo.png"
                    },
                    "sub_85": {
                        "id": 85,
                        "mode": "video",
                        "name_original": "Channel 85",
                        "name": "RTN",
                        "sub_name": "",
                        "stream_video_url": "http://media.neuquen.gov.ar/rtn/television/media.m3u8",
                        "thumbnail_url": "https://gitlab.com/bitcodingsolutions/TVGram/-/raw/master/TVGram/ChannelsLogo/TvGram.png",
                        "thumbnail_url_original": "https://raw.githubusercontent.com/tvgram-inc/tvgram-inc.github.io/master/images/logo.png"
                    },
                    "sub_86": {
                        "id": 86,
                        "mode": "video",
                        "name_original": "Channel 86",
                        "name": "Santa Fe Canal",
                        "sub_name": "",
                        "stream_video_url": "https://api.new.livestream.com/accounts/22636012/events/8242619/live.m3u8",
                        "thumbnail_url": "https://gitlab.com/bitcodingsolutions/TVGram/-/raw/master/TVGram/ChannelsLogo/TvGram.png",
                        "thumbnail_url_original": "https://raw.githubusercontent.com/tvgram-inc/tvgram-inc.github.io/master/images/logo.png"
                    },
                    "sub_87": {
                        "id": 87,
                        "mode": "video",
                        "name_original": "Channel 87",
                        "name": "Senillosa TV",
                        "sub_name": "",
                        "stream_video_url": "https://stmv1.srvstm.com/senillosa/senillosa/playlist.m3u8",
                        "thumbnail_url": "https://gitlab.com/bitcodingsolutions/TVGram/-/raw/master/TVGram/ChannelsLogo/TvGram.png",
                        "thumbnail_url_original": "https://raw.githubusercontent.com/tvgram-inc/tvgram-inc.github.io/master/images/logo.png"
                    },
                    "sub_88": {
                        "id": 88,
                        "mode": "video",
                        "name_original": "Channel 88",
                        "name": "Sicardi TV",
                        "sub_name": "",
                        "stream_video_url": "https://vivo.solumedia.com:19360/sicarditv/sicarditv.m3u8",
                        "thumbnail_url": "https://gitlab.com/bitcodingsolutions/TVGram/-/raw/master/TVGram/ChannelsLogo/TvGram.png",
                        "thumbnail_url_original": "https://raw.githubusercontent.com/tvgram-inc/tvgram-inc.github.io/master/images/logo.png"
                    },
                    "sub_89": {
                        "id": 89,
                        "mode": "video",
                        "name_original": "Channel 89",
                        "name": "Ski TV",
                        "sub_name": "",
                        "stream_video_url": "https://d2xeo83q8fcni6.cloudfront.net/v1/master/9d062541f2ff39b5c0f48b743c6411d25f62fc25/SkiTV-SynapseTV/193.m3u8",
                        "thumbnail_url": "https://gitlab.com/bitcodingsolutions/TVGram/-/raw/master/TVGram/ChannelsLogo/TvGram.png",
                        "thumbnail_url_original": "https://raw.githubusercontent.com/tvgram-inc/tvgram-inc.github.io/master/images/logo.png"
                    },
                    "sub_90": {
                        "id": 90,
                        "mode": "video",
                        "name_original": "Channel 90",
                        "name": "Sofy TV",
                        "sub_name": "",
                        "stream_video_url": "https://sofy-ger-samsung.amagi.tv/playlist.m3u8",
                        "thumbnail_url": "https://gitlab.com/bitcodingsolutions/TVGram/-/raw/master/TVGram/ChannelsLogo/TvGram.png",
                        "thumbnail_url_original": "https://raw.githubusercontent.com/tvgram-inc/tvgram-inc.github.io/master/images/logo.png"
                    },
                    "sub_91": {
                        "id": 91,
                        "mode": "video",
                        "name_original": "Channel 91",
                        "name": "Somos La Pampa",
                        "sub_name": "",
                        "stream_video_url": "https://stream.arcast.com.ar/somosnoticias/somosnoticias/playlist.m3u8",
                        "thumbnail_url": "https://gitlab.com/bitcodingsolutions/TVGram/-/raw/master/TVGram/ChannelsLogo/TvGram.png",
                        "thumbnail_url_original": "https://raw.githubusercontent.com/tvgram-inc/tvgram-inc.github.io/master/images/logo.png"
                    },
                    "sub_92": {
                        "id": 92,
                        "mode": "video",
                        "name_original": "Channel 92",
                        "name": "Tastemade en Espa\u00f1ol",
                        "sub_name": "",
                        "stream_video_url": "https://tastemade-es8intl-roku.amagi.tv/playlist.m3u8",
                        "thumbnail_url": "https://gitlab.com/bitcodingsolutions/TVGram/-/raw/master/TVGram/ChannelsLogo/TvGram.png",
                        "thumbnail_url_original": "https://raw.githubusercontent.com/tvgram-inc/tvgram-inc.github.io/master/images/logo.png"
                    },
                    "sub_93": {
                        "id": 93,
                        "mode": "video",
                        "name_original": "Channel 93",
                        "name": "TEC TV",
                        "sub_name": "",
                        "stream_video_url": "https://tv.initium.net.ar:3939/live/tectvmainlive.m3u8",
                        "thumbnail_url": "https://gitlab.com/bitcodingsolutions/TVGram/-/raw/master/TVGram/ChannelsLogo/TvGram.png",
                        "thumbnail_url_original": "https://raw.githubusercontent.com/tvgram-inc/tvgram-inc.github.io/master/images/logo.png"
                    },
                    "sub_94": {
                        "id": 94,
                        "mode": "video",
                        "name_original": "Channel 94",
                        "name": "Telemax",
                        "sub_name": "",
                        "stream_video_url": "http://live-edge01.telecentro.net.ar/live/smil:tlx.smil/master.m3u8",
                        "thumbnail_url": "https://gitlab.com/bitcodingsolutions/TVGram/-/raw/master/TVGram/ChannelsLogo/TvGram.png",
                        "thumbnail_url_original": "https://raw.githubusercontent.com/tvgram-inc/tvgram-inc.github.io/master/images/logo.png"
                    },
                    "sub_95": {
                        "id": 95,
                        "mode": "video",
                        "name_original": "Channel 95",
                        "name": "Telenord",
                        "sub_name": "",
                        "stream_video_url": "https://617c5175c970b.streamlock.net:4444/previsoratv/live/playlist.m3u8",
                        "thumbnail_url": "https://gitlab.com/bitcodingsolutions/TVGram/-/raw/master/TVGram/ChannelsLogo/TvGram.png",
                        "thumbnail_url_original": "https://raw.githubusercontent.com/tvgram-inc/tvgram-inc.github.io/master/images/logo.png"
                    },
                    "sub_96": {
                        "id": 96,
                        "mode": "video",
                        "name_original": "Channel 96",
                        "name": "Telenord Corrientes",
                        "sub_name": "",
                        "stream_video_url": "http://www.coninfo.net:1935/previsoratv/live/playlist.m3u8",
                        "thumbnail_url": "https://gitlab.com/bitcodingsolutions/TVGram/-/raw/master/TVGram/ChannelsLogo/TvGram.png",
                        "thumbnail_url_original": "https://raw.githubusercontent.com/tvgram-inc/tvgram-inc.github.io/master/images/logo.png"
                    },
                    "sub_97": {
                        "id": 97,
                        "mode": "video",
                        "name_original": "Channel 97",
                        "name": "Tevex",
                        "sub_name": "",
                        "stream_video_url": "https://v4.tustreaming.cl/tevexinter/index.m3u8",
                        "thumbnail_url": "https://gitlab.com/bitcodingsolutions/TVGram/-/raw/master/TVGram/ChannelsLogo/TvGram.png",
                        "thumbnail_url_original": "https://raw.githubusercontent.com/tvgram-inc/tvgram-inc.github.io/master/images/logo.png"
                    },
                    "sub_98": {
                        "id": 98,
                        "mode": "video",
                        "name_original": "Channel 98",
                        "name": "TRT World",
                        "sub_name": "",
                        "stream_video_url": "https://tv-trtworld.live.trt.com.tr/master.m3u8",
                        "thumbnail_url": "https://gitlab.com/bitcodingsolutions/TVGram/-/raw/master/TVGram/ChannelsLogo/TvGram.png",
                        "thumbnail_url_original": "https://raw.githubusercontent.com/tvgram-inc/tvgram-inc.github.io/master/images/logo.png"
                    },
                    "sub_99": {
                        "id": 99,
                        "mode": "video",
                        "name_original": "Channel 99",
                        "name": "TV Solidaria",
                        "sub_name": "",
                        "stream_video_url": "https://canadaremar2.todostreaming.es/live/argentina-web.m3u8",
                        "thumbnail_url": "https://gitlab.com/bitcodingsolutions/TVGram/-/raw/master/TVGram/ChannelsLogo/TvGram.png",
                        "thumbnail_url_original": "https://raw.githubusercontent.com/tvgram-inc/tvgram-inc.github.io/master/images/logo.png"
                    },
                    "sub_100": {
                        "id": 100,
                        "mode": "video",
                        "name_original": "Channel 100",
                        "name": "TVG Am\u00e9rica",
                        "sub_name": "",
                        "stream_video_url": "https://america-crtvg.flumotion.com/playlist.m3u8",
                        "thumbnail_url": "https://gitlab.com/bitcodingsolutions/TVGram/-/raw/master/TVGram/ChannelsLogo/TvGram.png",
                        "thumbnail_url_original": "https://raw.githubusercontent.com/tvgram-inc/tvgram-inc.github.io/master/images/logo.png"
                    },
                    "sub_101": {
                        "id": 101,
                        "mode": "video",
                        "name_original": "Channel 101",
                        "name": "TVM Internacional",
                        "sub_name": "",
                        "stream_video_url": "http://online.tvm.co.mz:1935/live/smil:Channel2.smil/playlist.m3u8",
                        "thumbnail_url": "https://gitlab.com/bitcodingsolutions/TVGram/-/raw/master/TVGram/ChannelsLogo/TvGram.png",
                        "thumbnail_url_original": "https://raw.githubusercontent.com/tvgram-inc/tvgram-inc.github.io/master/images/logo.png"
                    },
                    "sub_102": {
                        "id": 102,
                        "mode": "video",
                        "name_original": "Channel 102",
                        "name": "TVU Universidad Nacional de La Plata",
                        "sub_name": "",
                        "stream_video_url": "https://stratus.stream.cespi.unlp.edu.ar/hls/tvunlp.m3u8",
                        "thumbnail_url": "https://gitlab.com/bitcodingsolutions/TVGram/-/raw/master/TVGram/ChannelsLogo/TvGram.png",
                        "thumbnail_url_original": "https://raw.githubusercontent.com/tvgram-inc/tvgram-inc.github.io/master/images/logo.png"
                    },
                    "sub_103": {
                        "id": 103,
                        "mode": "video",
                        "name_original": "Channel 103",
                        "name": "UN Web TV",
                        "sub_name": "",
                        "stream_video_url": "https://cdnapi.kaltura.com/p/2503451/sp/250345100/playManifest/entryId/1_gb6tjmle/protocol/https/format/applehttp/a.m3u8",
                        "thumbnail_url": "https://gitlab.com/bitcodingsolutions/TVGram/-/raw/master/TVGram/ChannelsLogo/TvGram.png",
                        "thumbnail_url_original": "https://raw.githubusercontent.com/tvgram-inc/tvgram-inc.github.io/master/images/logo.png"
                    },
                    "sub_104": {
                        "id": 104,
                        "mode": "video",
                        "name_original": "Channel 104",
                        "name": "UNAM Transmedia",
                        "sub_name": "",
                        "stream_video_url": "http://192.100.186.53:8090/hls/live.stream.m3u8",
                        "thumbnail_url": "https://gitlab.com/bitcodingsolutions/TVGram/-/raw/master/TVGram/ChannelsLogo/TvGram.png",
                        "thumbnail_url_original": "https://raw.githubusercontent.com/tvgram-inc/tvgram-inc.github.io/master/images/logo.png"
                    },
                    "sub_105": {
                        "id": 105,
                        "mode": "video",
                        "name_original": "Channel 105",
                        "name": "Unirio TV",
                        "sub_name": "",
                        "stream_video_url": "https://5f700d5b2c46f.streamlock.net/uniriotv/uniriotv/playlist.m3u8",
                        "thumbnail_url": "https://gitlab.com/bitcodingsolutions/TVGram/-/raw/master/TVGram/ChannelsLogo/TvGram.png",
                        "thumbnail_url_original": "https://raw.githubusercontent.com/tvgram-inc/tvgram-inc.github.io/master/images/logo.png"
                    },
                    "sub_106": {
                        "id": 106,
                        "mode": "video",
                        "name_original": "Channel 106",
                        "name": "Uniteve",
                        "sub_name": "",
                        "stream_video_url": "https://vivo.solumedia.com:19360/uniteve/uniteve.m3u8",
                        "thumbnail_url": "https://gitlab.com/bitcodingsolutions/TVGram/-/raw/master/TVGram/ChannelsLogo/TvGram.png",
                        "thumbnail_url_original": "https://raw.githubusercontent.com/tvgram-inc/tvgram-inc.github.io/master/images/logo.png"
                    },
                    "sub_107": {
                        "id": 107,
                        "mode": "video",
                        "name_original": "Channel 107",
                        "name": "Vallenato Internacional",
                        "sub_name": "",
                        "stream_video_url": "https://59a564764e2b6.streamlock.net/vallenato/Vallenato2/playlist.m3u8",
                        "thumbnail_url": "https://gitlab.com/bitcodingsolutions/TVGram/-/raw/master/TVGram/ChannelsLogo/TvGram.png",
                        "thumbnail_url_original": "https://raw.githubusercontent.com/tvgram-inc/tvgram-inc.github.io/master/images/logo.png"
                    },
                    "sub_108": {
                        "id": 108,
                        "mode": "video",
                        "name_original": "Channel 108",
                        "name": "VerTV",
                        "sub_name": "",
                        "stream_video_url": "https://5f700d5b2c46f.streamlock.net/vertv/vertv/playlist.m3u8",
                        "thumbnail_url": "https://gitlab.com/bitcodingsolutions/TVGram/-/raw/master/TVGram/ChannelsLogo/TvGram.png",
                        "thumbnail_url_original": "https://raw.githubusercontent.com/tvgram-inc/tvgram-inc.github.io/master/images/logo.png"
                    },
                    "sub_109": {
                        "id": 109,
                        "mode": "video",
                        "name_original": "Channel 109",
                        "name": "World Poker Tour",
                        "sub_name": "",
                        "stream_video_url": "https://d3w4n3hhseniak.cloudfront.net/v1/master/9d062541f2ff39b5c0f48b743c6411d25f62fc25/WPT-DistroTV/150.m3u8",
                        "thumbnail_url": "https://gitlab.com/bitcodingsolutions/TVGram/-/raw/master/TVGram/ChannelsLogo/TvGram.png",
                        "thumbnail_url_original": "https://raw.githubusercontent.com/tvgram-inc/tvgram-inc.github.io/master/images/logo.png"
                    }
                }
            }
        }
    }
}