{
    "TV_Data": {
        "Channel_List": {
            "is_channel_list": true,
            "is_override": true,
            "thumb_width": 150,
            "all_Channels_Tab_Name": "",
            "main": {
                "id": 1,
                "name": "Jordan Channels",
                "sub_name": "Channels",
                "thumbnail_url": "https://flagpedia.net/data/flags/h80/jo.png",
                "sub": {
                    "sub_1": {
                        "id": 1,
                        "mode": "video",
                        "name_original": "Channel 1",
                        "name": "Abu Dhabi Sports 1",
                        "sub_name": "",
                        "stream_video_url": "https://admdn1.cdn.mangomolo.com/adsports1/smil:adsports1.stream.smil/playlist.m3u8",
                        "thumbnail_url": "https://gitlab.com/bitcodingsolutions/TVGram/-/raw/master/TVGram/ChannelsLogo/TvGram.png",
                        "thumbnail_url_original": "https://raw.githubusercontent.com/tvgram-inc/tvgram-inc.github.io/master/images/logo.png"
                    },
                    "sub_2": {
                        "id": 2,
                        "mode": "video",
                        "name_original": "Channel 2",
                        "name": "Al Hayat TV",
                        "sub_name": "",
                        "stream_video_url": "http://media.islamexplained.com:1935/live/_definst_mp4:ahme.stream/playlist.m3u8",
                        "thumbnail_url": "https://gitlab.com/bitcodingsolutions/TVGram/-/raw/master/TVGram/ChannelsLogo/TvGram.png",
                        "thumbnail_url_original": "https://raw.githubusercontent.com/tvgram-inc/tvgram-inc.github.io/master/images/logo.png"
                    },
                    "sub_3": {
                        "id": 3,
                        "mode": "video",
                        "name_original": "Channel 3",
                        "name": "Al Jazeera Documentary",
                        "sub_name": "",
                        "stream_video_url": "https://live-hls-web-ajd.getaj.net/AJD/index.m3u8",
                        "thumbnail_url": "https://gitlab.com/bitcodingsolutions/TVGram/-/raw/master/TVGram/ChannelsLogo/TvGram.png",
                        "thumbnail_url_original": "https://raw.githubusercontent.com/tvgram-inc/tvgram-inc.github.io/master/images/logo.png"
                    },
                    "sub_4": {
                        "id": 4,
                        "mode": "video",
                        "name_original": "Channel 4",
                        "name": "Al Jazeera Mubasher",
                        "sub_name": "",
                        "stream_video_url": "https://live-hls-web-ajm.getaj.net/AJM/index.m3u8",
                        "thumbnail_url": "https://gitlab.com/bitcodingsolutions/TVGram/-/raw/master/TVGram/ChannelsLogo/TvGram.png",
                        "thumbnail_url_original": "https://raw.githubusercontent.com/tvgram-inc/tvgram-inc.github.io/master/images/logo.png"
                    },
                    "sub_5": {
                        "id": 5,
                        "mode": "video",
                        "name_original": "Channel 5",
                        "name": "Al Mamlaka TV",
                        "sub_name": "",
                        "stream_video_url": "https://almamlka-live.ercdn.net/almamlka/almamlka.m3u8",
                        "thumbnail_url": "https://gitlab.com/bitcodingsolutions/TVGram/-/raw/master/TVGram/ChannelsLogo/TvGram.png",
                        "thumbnail_url_original": "https://raw.githubusercontent.com/tvgram-inc/tvgram-inc.github.io/master/images/logo.png"
                    },
                    "sub_6": {
                        "id": 6,
                        "mode": "video",
                        "name_original": "Channel 6",
                        "name": "Al Qamar TV",
                        "sub_name": "",
                        "stream_video_url": "https://cdn5.iqsat.net/iq/8c17d37e0f5c88b1e9c7e1f8f82bc980.sdp/playlist.m3u8",
                        "thumbnail_url": "https://gitlab.com/bitcodingsolutions/TVGram/-/raw/master/TVGram/ChannelsLogo/TvGram.png",
                        "thumbnail_url_original": "https://raw.githubusercontent.com/tvgram-inc/tvgram-inc.github.io/master/images/logo.png"
                    },
                    "sub_7": {
                        "id": 7,
                        "mode": "video",
                        "name_original": "Channel 7",
                        "name": "Alaraby 2 TV",
                        "sub_name": "",
                        "stream_video_url": "https://alaraby.cdn.octivid.com/alaraby2n/smil:alaraby2n.stream.smil/playlist.m3u8",
                        "thumbnail_url": "https://gitlab.com/bitcodingsolutions/TVGram/-/raw/master/TVGram/ChannelsLogo/TvGram.png",
                        "thumbnail_url_original": "https://raw.githubusercontent.com/tvgram-inc/tvgram-inc.github.io/master/images/logo.png"
                    },
                    "sub_8": {
                        "id": 8,
                        "mode": "video",
                        "name_original": "Channel 8",
                        "name": "Alaraby TV",
                        "sub_name": "",
                        "stream_video_url": "https://alaraby.cdn.octivid.com/alaraby/smil:alaraby.stream.smil/playlist.m3u8",
                        "thumbnail_url": "https://gitlab.com/bitcodingsolutions/TVGram/-/raw/master/TVGram/ChannelsLogo/TvGram.png",
                        "thumbnail_url_original": "https://raw.githubusercontent.com/tvgram-inc/tvgram-inc.github.io/master/images/logo.png"
                    },
                    "sub_9": {
                        "id": 9,
                        "mode": "video",
                        "name_original": "Channel 9",
                        "name": "Bahrain International",
                        "sub_name": "",
                        "stream_video_url": "https://5c7b683162943.streamlock.net/live/ngrp:bahraininternational_all/playlist.m3u8",
                        "thumbnail_url": "https://gitlab.com/bitcodingsolutions/TVGram/-/raw/master/TVGram/ChannelsLogo/TvGram.png",
                        "thumbnail_url_original": "https://raw.githubusercontent.com/tvgram-inc/tvgram-inc.github.io/master/images/logo.png"
                    },
                    "sub_10": {
                        "id": 10,
                        "mode": "video",
                        "name_original": "Channel 10",
                        "name": "BeritaSatu World",
                        "sub_name": "",
                        "stream_video_url": "https://b1world.beritasatumedia.com/Beritasatu/B1World_manifest.m3u8",
                        "thumbnail_url": "https://gitlab.com/bitcodingsolutions/TVGram/-/raw/master/TVGram/ChannelsLogo/TvGram.png",
                        "thumbnail_url_original": "https://raw.githubusercontent.com/tvgram-inc/tvgram-inc.github.io/master/images/logo.png"
                    },
                    "sub_11": {
                        "id": 11,
                        "mode": "video",
                        "name_original": "Channel 11",
                        "name": "Bloomberg TV EMEA Live Event",
                        "sub_name": "",
                        "stream_video_url": "https://bloomberg.com/media-manifest/streams/eu-event.m3u8",
                        "thumbnail_url": "https://gitlab.com/bitcodingsolutions/TVGram/-/raw/master/TVGram/ChannelsLogo/TvGram.png",
                        "thumbnail_url_original": "https://raw.githubusercontent.com/tvgram-inc/tvgram-inc.github.io/master/images/logo.png"
                    },
                    "sub_12": {
                        "id": 12,
                        "mode": "video",
                        "name_original": "Channel 12",
                        "name": "Bloomberg TV Europe",
                        "sub_name": "",
                        "stream_video_url": "https://bloomberg.com/media-manifest/streams/eu.m3u8",
                        "thumbnail_url": "https://gitlab.com/bitcodingsolutions/TVGram/-/raw/master/TVGram/ChannelsLogo/TvGram.png",
                        "thumbnail_url_original": "https://raw.githubusercontent.com/tvgram-inc/tvgram-inc.github.io/master/images/logo.png"
                    },
                    "sub_13": {
                        "id": 13,
                        "mode": "video",
                        "name_original": "Channel 13",
                        "name": "Cartoon Network Arabia",
                        "sub_name": "",
                        "stream_video_url": "https://shls-cartoon-net-prod-dub.shahid.net/out/v1/dc4aa87372374325a66be458f29eab0f/index.m3u8",
                        "thumbnail_url": "https://gitlab.com/bitcodingsolutions/TVGram/-/raw/master/TVGram/ChannelsLogo/TvGram.png",
                        "thumbnail_url_original": "https://raw.githubusercontent.com/tvgram-inc/tvgram-inc.github.io/master/images/logo.png"
                    },
                    "sub_14": {
                        "id": 14,
                        "mode": "video",
                        "name_original": "Channel 14",
                        "name": "CGTN",
                        "sub_name": "",
                        "stream_video_url": "https://news.cgtn.com/resource/live/english/cgtn-news.m3u8",
                        "thumbnail_url": "https://gitlab.com/bitcodingsolutions/TVGram/-/raw/master/TVGram/ChannelsLogo/TvGram.png",
                        "thumbnail_url_original": "https://raw.githubusercontent.com/tvgram-inc/tvgram-inc.github.io/master/images/logo.png"
                    },
                    "sub_15": {
                        "id": 15,
                        "mode": "video",
                        "name_original": "Channel 15",
                        "name": "CGTN Arabic",
                        "sub_name": "",
                        "stream_video_url": "https://news.cgtn.com/resource/live/arabic/cgtn-a.m3u8",
                        "thumbnail_url": "https://gitlab.com/bitcodingsolutions/TVGram/-/raw/master/TVGram/ChannelsLogo/TvGram.png",
                        "thumbnail_url_original": "https://raw.githubusercontent.com/tvgram-inc/tvgram-inc.github.io/master/images/logo.png"
                    },
                    "sub_16": {
                        "id": 16,
                        "mode": "video",
                        "name_original": "Channel 16",
                        "name": "Classic Arts Showcase",
                        "sub_name": "",
                        "stream_video_url": "https://classicarts.akamaized.net/hls/live/1024257/CAS/master.m3u8",
                        "thumbnail_url": "https://gitlab.com/bitcodingsolutions/TVGram/-/raw/master/TVGram/ChannelsLogo/TvGram.png",
                        "thumbnail_url_original": "https://raw.githubusercontent.com/tvgram-inc/tvgram-inc.github.io/master/images/logo.png"
                    },
                    "sub_17": {
                        "id": 17,
                        "mode": "video",
                        "name_original": "Channel 17",
                        "name": "CNA International",
                        "sub_name": "",
                        "stream_video_url": "https://d2e1asnsl7br7b.cloudfront.net/7782e205e72f43aeb4a48ec97f66ebbe/index.m3u8",
                        "thumbnail_url": "https://gitlab.com/bitcodingsolutions/TVGram/-/raw/master/TVGram/ChannelsLogo/TvGram.png",
                        "thumbnail_url_original": "https://raw.githubusercontent.com/tvgram-inc/tvgram-inc.github.io/master/images/logo.png"
                    },
                    "sub_18": {
                        "id": 18,
                        "mode": "video",
                        "name_original": "Channel 18",
                        "name": "DW Arabic",
                        "sub_name": "",
                        "stream_video_url": "https://dwamdstream103.akamaized.net/hls/live/2015526/dwstream103/index.m3u8",
                        "thumbnail_url": "https://gitlab.com/bitcodingsolutions/TVGram/-/raw/master/TVGram/ChannelsLogo/TvGram.png",
                        "thumbnail_url_original": "https://raw.githubusercontent.com/tvgram-inc/tvgram-inc.github.io/master/images/logo.png"
                    },
                    "sub_19": {
                        "id": 19,
                        "mode": "video",
                        "name_original": "Channel 19",
                        "name": "DW English",
                        "sub_name": "",
                        "stream_video_url": "https://dwamdstream102.akamaized.net/hls/live/2015525/dwstream102/index.m3u8",
                        "thumbnail_url": "https://gitlab.com/bitcodingsolutions/TVGram/-/raw/master/TVGram/ChannelsLogo/TvGram.png",
                        "thumbnail_url_original": "https://raw.githubusercontent.com/tvgram-inc/tvgram-inc.github.io/master/images/logo.png"
                    },
                    "sub_20": {
                        "id": 20,
                        "mode": "video",
                        "name_original": "Channel 20",
                        "name": "ERT World",
                        "sub_name": "",
                        "stream_video_url": "http://wpso.com:1936/hls/wzra.m3u8",
                        "thumbnail_url": "https://gitlab.com/bitcodingsolutions/TVGram/-/raw/master/TVGram/ChannelsLogo/TvGram.png",
                        "thumbnail_url_original": "https://raw.githubusercontent.com/tvgram-inc/tvgram-inc.github.io/master/images/logo.png"
                    },
                    "sub_21": {
                        "id": 21,
                        "mode": "video",
                        "name_original": "Channel 21",
                        "name": "ETB Basque",
                        "sub_name": "",
                        "stream_video_url": "https://multimedia.eitb.eus/live-content/eitbbasque-hls/master.m3u8",
                        "thumbnail_url": "https://gitlab.com/bitcodingsolutions/TVGram/-/raw/master/TVGram/ChannelsLogo/TvGram.png",
                        "thumbnail_url_original": "https://raw.githubusercontent.com/tvgram-inc/tvgram-inc.github.io/master/images/logo.png"
                    },
                    "sub_22": {
                        "id": 22,
                        "mode": "video",
                        "name_original": "Channel 22",
                        "name": "Euro Indie Music Chart TV",
                        "sub_name": "",
                        "stream_video_url": "http://178.33.224.197:1935/euroindiemusic/euroindiemusic/playlist.m3u8",
                        "thumbnail_url": "https://gitlab.com/bitcodingsolutions/TVGram/-/raw/master/TVGram/ChannelsLogo/TvGram.png",
                        "thumbnail_url_original": "https://raw.githubusercontent.com/tvgram-inc/tvgram-inc.github.io/master/images/logo.png"
                    },
                    "sub_23": {
                        "id": 23,
                        "mode": "video",
                        "name_original": "Channel 23",
                        "name": "Ismaoona TV",
                        "sub_name": "",
                        "stream_video_url": "http://82.212.74.4:8000/live/2105.m3u8",
                        "thumbnail_url": "https://gitlab.com/bitcodingsolutions/TVGram/-/raw/master/TVGram/ChannelsLogo/TvGram.png",
                        "thumbnail_url_original": "https://raw.githubusercontent.com/tvgram-inc/tvgram-inc.github.io/master/images/logo.png"
                    },
                    "sub_24": {
                        "id": 24,
                        "mode": "video",
                        "name_original": "Channel 24",
                        "name": "Jawhara FM",
                        "sub_name": "",
                        "stream_video_url": "http://streaming.toutech.net:1935/live/mp4:jawharafm.sdp/playlist.m3u8",
                        "thumbnail_url": "https://gitlab.com/bitcodingsolutions/TVGram/-/raw/master/TVGram/ChannelsLogo/TvGram.png",
                        "thumbnail_url_original": "https://raw.githubusercontent.com/tvgram-inc/tvgram-inc.github.io/master/images/logo.png"
                    },
                    "sub_25": {
                        "id": 25,
                        "mode": "video",
                        "name_original": "Channel 25",
                        "name": "Jordan Satellite Channel",
                        "sub_name": "",
                        "stream_video_url": "https://jrtv-live.ercdn.net/jordanhd/jordanhd.m3u8",
                        "thumbnail_url": "https://gitlab.com/bitcodingsolutions/TVGram/-/raw/master/TVGram/ChannelsLogo/TvGram.png",
                        "thumbnail_url_original": "https://raw.githubusercontent.com/tvgram-inc/tvgram-inc.github.io/master/images/logo.png"
                    },
                    "sub_26": {
                        "id": 26,
                        "mode": "video",
                        "name_original": "Channel 26",
                        "name": "KBS World",
                        "sub_name": "",
                        "stream_video_url": "https://kbsworld-ott.akamaized.net/hls/live/2002341/kbsworld/master.m3u8",
                        "thumbnail_url": "https://gitlab.com/bitcodingsolutions/TVGram/-/raw/master/TVGram/ChannelsLogo/TvGram.png",
                        "thumbnail_url_original": "https://raw.githubusercontent.com/tvgram-inc/tvgram-inc.github.io/master/images/logo.png"
                    },
                    "sub_27": {
                        "id": 27,
                        "mode": "video",
                        "name_original": "Channel 27",
                        "name": "MBC 4",
                        "sub_name": "",
                        "stream_video_url": "https://shls-mbc4-prod-dub.shahid.net/out/v1/c08681f81775496ab4afa2bac7ae7638/index.m3u8",
                        "thumbnail_url": "https://gitlab.com/bitcodingsolutions/TVGram/-/raw/master/TVGram/ChannelsLogo/TvGram.png",
                        "thumbnail_url_original": "https://raw.githubusercontent.com/tvgram-inc/tvgram-inc.github.io/master/images/logo.png"
                    },
                    "sub_28": {
                        "id": 28,
                        "mode": "video",
                        "name_original": "Channel 28",
                        "name": "MBC Bollywood",
                        "sub_name": "",
                        "stream_video_url": "https://shls-mbcdramaksa-ak.akamaized.net/out/v1/a79c9d7ef2a64a54a64d5c4567b3462a/index.m3u8",
                        "thumbnail_url": "https://gitlab.com/bitcodingsolutions/TVGram/-/raw/master/TVGram/ChannelsLogo/TvGram.png",
                        "thumbnail_url_original": "https://raw.githubusercontent.com/tvgram-inc/tvgram-inc.github.io/master/images/logo.png"
                    },
                    "sub_29": {
                        "id": 29,
                        "mode": "video",
                        "name_original": "Channel 29",
                        "name": "MBC Plus Drama",
                        "sub_name": "",
                        "stream_video_url": "https://shls-mbcplusdrama-prod-dub.shahid.net/out/v1/97ca0ce6fc6142f4b14c0a694af59eab/index.m3u8",
                        "thumbnail_url": "https://gitlab.com/bitcodingsolutions/TVGram/-/raw/master/TVGram/ChannelsLogo/TvGram.png",
                        "thumbnail_url_original": "https://raw.githubusercontent.com/tvgram-inc/tvgram-inc.github.io/master/images/logo.png"
                    },
                    "sub_30": {
                        "id": 30,
                        "mode": "video",
                        "name_original": "Channel 30",
                        "name": "Melody FM Jordan",
                        "sub_name": "",
                        "stream_video_url": "https://cdn3.wowza.com/1/OVRrOWxXUEswS2Yv/eGVxSWZy/hls/live/playlist.m3u8",
                        "thumbnail_url": "https://gitlab.com/bitcodingsolutions/TVGram/-/raw/master/TVGram/ChannelsLogo/TvGram.png",
                        "thumbnail_url_original": "https://raw.githubusercontent.com/tvgram-inc/tvgram-inc.github.io/master/images/logo.png"
                    },
                    "sub_31": {
                        "id": 31,
                        "mode": "video",
                        "name_original": "Channel 31",
                        "name": "Metro Globe Network",
                        "sub_name": "",
                        "stream_video_url": "https://edge.medcom.id/live-edge/smil:mgnch.smil/playlist.m3u8",
                        "thumbnail_url": "https://gitlab.com/bitcodingsolutions/TVGram/-/raw/master/TVGram/ChannelsLogo/TvGram.png",
                        "thumbnail_url_original": "https://raw.githubusercontent.com/tvgram-inc/tvgram-inc.github.io/master/images/logo.png"
                    },
                    "sub_32": {
                        "id": 32,
                        "mode": "video",
                        "name_original": "Channel 32",
                        "name": "NASA TV",
                        "sub_name": "",
                        "stream_video_url": "https://uplynkcontent.sinclairstoryline.com/channel/ddd76fdc1c0a456ba537e4f48e827d3e.m3u8",
                        "thumbnail_url": "https://gitlab.com/bitcodingsolutions/TVGram/-/raw/master/TVGram/ChannelsLogo/TvGram.png",
                        "thumbnail_url_original": "https://raw.githubusercontent.com/tvgram-inc/tvgram-inc.github.io/master/images/logo.png"
                    },
                    "sub_33": {
                        "id": 33,
                        "mode": "video",
                        "name_original": "Channel 33",
                        "name": "NHK World Japan",
                        "sub_name": "",
                        "stream_video_url": "https://nhkwlive-ojp.akamaized.net/hls/live/2003459/nhkwlive-ojp-en/index.m3u8",
                        "thumbnail_url": "https://gitlab.com/bitcodingsolutions/TVGram/-/raw/master/TVGram/ChannelsLogo/TvGram.png",
                        "thumbnail_url_original": "https://raw.githubusercontent.com/tvgram-inc/tvgram-inc.github.io/master/images/logo.png"
                    },
                    "sub_34": {
                        "id": 34,
                        "mode": "video",
                        "name_original": "Channel 34",
                        "name": "PMC",
                        "sub_name": "",
                        "stream_video_url": "https://hls.pmchd.live/hls/stream.m3u8",
                        "thumbnail_url": "https://gitlab.com/bitcodingsolutions/TVGram/-/raw/master/TVGram/ChannelsLogo/TvGram.png",
                        "thumbnail_url_original": "https://raw.githubusercontent.com/tvgram-inc/tvgram-inc.github.io/master/images/logo.png"
                    },
                    "sub_35": {
                        "id": 35,
                        "mode": "video",
                        "name_original": "Channel 35",
                        "name": "Radio Fann Jordan: Control Studio",
                        "sub_name": "",
                        "stream_video_url": "http://188.247.86.66/RadioFann/ControlStudio1/playlist.m3u8",
                        "thumbnail_url": "https://gitlab.com/bitcodingsolutions/TVGram/-/raw/master/TVGram/ChannelsLogo/TvGram.png",
                        "thumbnail_url_original": "https://raw.githubusercontent.com/tvgram-inc/tvgram-inc.github.io/master/images/logo.png"
                    },
                    "sub_36": {
                        "id": 36,
                        "mode": "video",
                        "name_original": "Channel 36",
                        "name": "Radio Fann Jordan: Studio",
                        "sub_name": "",
                        "stream_video_url": "http://188.247.86.66/RadioFann/OnAirStudio1/playlist.m3u8",
                        "thumbnail_url": "https://gitlab.com/bitcodingsolutions/TVGram/-/raw/master/TVGram/ChannelsLogo/TvGram.png",
                        "thumbnail_url_original": "https://raw.githubusercontent.com/tvgram-inc/tvgram-inc.github.io/master/images/logo.png"
                    },
                    "sub_37": {
                        "id": 37,
                        "mode": "video",
                        "name_original": "Channel 37",
                        "name": "Radio Yaqeen Jordan: City View",
                        "sub_name": "",
                        "stream_video_url": "http://188.247.86.66/MixFM/CityView1/playlist.m3u8",
                        "thumbnail_url": "https://gitlab.com/bitcodingsolutions/TVGram/-/raw/master/TVGram/ChannelsLogo/TvGram.png",
                        "thumbnail_url_original": "https://raw.githubusercontent.com/tvgram-inc/tvgram-inc.github.io/master/images/logo.png"
                    },
                    "sub_38": {
                        "id": 38,
                        "mode": "video",
                        "name_original": "Channel 38",
                        "name": "Radio Yaqeen Jordan: Control Studio",
                        "sub_name": "",
                        "stream_video_url": "http://188.247.86.66/MixFM/ControlStudio1/playlist.m3u8",
                        "thumbnail_url": "https://gitlab.com/bitcodingsolutions/TVGram/-/raw/master/TVGram/ChannelsLogo/TvGram.png",
                        "thumbnail_url_original": "https://raw.githubusercontent.com/tvgram-inc/tvgram-inc.github.io/master/images/logo.png"
                    },
                    "sub_39": {
                        "id": 39,
                        "mode": "video",
                        "name_original": "Channel 39",
                        "name": "Red Bull TV",
                        "sub_name": "",
                        "stream_video_url": "https://rbmn-live.akamaized.net/hls/live/590964/BoRB-AT/master.m3u8",
                        "thumbnail_url": "https://gitlab.com/bitcodingsolutions/TVGram/-/raw/master/TVGram/ChannelsLogo/TvGram.png",
                        "thumbnail_url_original": "https://raw.githubusercontent.com/tvgram-inc/tvgram-inc.github.io/master/images/logo.png"
                    },
                    "sub_40": {
                        "id": 40,
                        "mode": "video",
                        "name_original": "Channel 40",
                        "name": "Rotana Radio Jordan: City View",
                        "sub_name": "",
                        "stream_video_url": "http://188.247.86.66/RotanaRadio/CityView1/playlist.m3u8",
                        "thumbnail_url": "https://gitlab.com/bitcodingsolutions/TVGram/-/raw/master/TVGram/ChannelsLogo/TvGram.png",
                        "thumbnail_url_original": "https://raw.githubusercontent.com/tvgram-inc/tvgram-inc.github.io/master/images/logo.png"
                    },
                    "sub_41": {
                        "id": 41,
                        "mode": "video",
                        "name_original": "Channel 41",
                        "name": "Rotana Radio Jordan: Control Studio",
                        "sub_name": "",
                        "stream_video_url": "http://188.247.86.66/RotanaRadio/ControlStudio1/playlist.m3u8",
                        "thumbnail_url": "https://gitlab.com/bitcodingsolutions/TVGram/-/raw/master/TVGram/ChannelsLogo/TvGram.png",
                        "thumbnail_url_original": "https://raw.githubusercontent.com/tvgram-inc/tvgram-inc.github.io/master/images/logo.png"
                    },
                    "sub_42": {
                        "id": 42,
                        "mode": "video",
                        "name_original": "Channel 42",
                        "name": "Rotana Radio Jordan: Studio",
                        "sub_name": "",
                        "stream_video_url": "http://188.247.86.66/RotanaRadio/OnAirStudio1/playlist.m3u8",
                        "thumbnail_url": "https://gitlab.com/bitcodingsolutions/TVGram/-/raw/master/TVGram/ChannelsLogo/TvGram.png",
                        "thumbnail_url_original": "https://raw.githubusercontent.com/tvgram-inc/tvgram-inc.github.io/master/images/logo.png"
                    },
                    "sub_43": {
                        "id": 43,
                        "mode": "video",
                        "name_original": "Channel 43",
                        "name": "Rotana Tarab Jordan: Control Studio",
                        "sub_name": "",
                        "stream_video_url": "http://188.247.86.66/RotanaRadio/Audio32/playlist.m3u8",
                        "thumbnail_url": "https://gitlab.com/bitcodingsolutions/TVGram/-/raw/master/TVGram/ChannelsLogo/TvGram.png",
                        "thumbnail_url_original": "https://raw.githubusercontent.com/tvgram-inc/tvgram-inc.github.io/master/images/logo.png"
                    },
                    "sub_44": {
                        "id": 44,
                        "mode": "video",
                        "name_original": "Channel 44",
                        "name": "Roya TV",
                        "sub_name": "",
                        "stream_video_url": "https://weyyak-live.akamaized.net/weyyak_roya/index.m3u8",
                        "thumbnail_url": "https://gitlab.com/bitcodingsolutions/TVGram/-/raw/master/TVGram/ChannelsLogo/TvGram.png",
                        "thumbnail_url_original": "https://raw.githubusercontent.com/tvgram-inc/tvgram-inc.github.io/master/images/logo.png"
                    },
                    "sub_45": {
                        "id": 45,
                        "mode": "video",
                        "name_original": "Channel 45",
                        "name": "RT Documentary Russian",
                        "sub_name": "",
                        "stream_video_url": "http://uiptv.do.am/1ufc/300663722/playlist.m3u8",
                        "thumbnail_url": "https://gitlab.com/bitcodingsolutions/TVGram/-/raw/master/TVGram/ChannelsLogo/TvGram.png",
                        "thumbnail_url_original": "https://raw.githubusercontent.com/tvgram-inc/tvgram-inc.github.io/master/images/logo.png"
                    },
                    "sub_46": {
                        "id": 46,
                        "mode": "video",
                        "name_original": "Channel 46",
                        "name": "Ski TV",
                        "sub_name": "",
                        "stream_video_url": "https://d2xeo83q8fcni6.cloudfront.net/v1/master/9d062541f2ff39b5c0f48b743c6411d25f62fc25/SkiTV-SynapseTV/193.m3u8",
                        "thumbnail_url": "https://gitlab.com/bitcodingsolutions/TVGram/-/raw/master/TVGram/ChannelsLogo/TvGram.png",
                        "thumbnail_url_original": "https://raw.githubusercontent.com/tvgram-inc/tvgram-inc.github.io/master/images/logo.png"
                    },
                    "sub_47": {
                        "id": 47,
                        "mode": "video",
                        "name_original": "Channel 47",
                        "name": "Sky News Arabia",
                        "sub_name": "",
                        "stream_video_url": "https://stream.skynewsarabia.com/hls/sna.m3u8",
                        "thumbnail_url": "https://gitlab.com/bitcodingsolutions/TVGram/-/raw/master/TVGram/ChannelsLogo/TvGram.png",
                        "thumbnail_url_original": "https://raw.githubusercontent.com/tvgram-inc/tvgram-inc.github.io/master/images/logo.png"
                    },
                    "sub_48": {
                        "id": 48,
                        "mode": "video",
                        "name_original": "Channel 48",
                        "name": "Sky News Arabia",
                        "sub_name": "",
                        "stream_video_url": "https://stream.skynewsarabia.com/vertical/vertical.m3u8",
                        "thumbnail_url": "https://gitlab.com/bitcodingsolutions/TVGram/-/raw/master/TVGram/ChannelsLogo/TvGram.png",
                        "thumbnail_url_original": "https://raw.githubusercontent.com/tvgram-inc/tvgram-inc.github.io/master/images/logo.png"
                    },
                    "sub_49": {
                        "id": 49,
                        "mode": "video",
                        "name_original": "Channel 49",
                        "name": "Sofy TV",
                        "sub_name": "",
                        "stream_video_url": "https://sofy-ger-samsung.amagi.tv/playlist.m3u8",
                        "thumbnail_url": "https://gitlab.com/bitcodingsolutions/TVGram/-/raw/master/TVGram/ChannelsLogo/TvGram.png",
                        "thumbnail_url_original": "https://raw.githubusercontent.com/tvgram-inc/tvgram-inc.github.io/master/images/logo.png"
                    },
                    "sub_50": {
                        "id": 50,
                        "mode": "video",
                        "name_original": "Channel 50",
                        "name": "TRT Arabi",
                        "sub_name": "",
                        "stream_video_url": "https://tv-trtarabi.live.trt.com.tr/master.m3u8",
                        "thumbnail_url": "https://gitlab.com/bitcodingsolutions/TVGram/-/raw/master/TVGram/ChannelsLogo/TvGram.png",
                        "thumbnail_url_original": "https://raw.githubusercontent.com/tvgram-inc/tvgram-inc.github.io/master/images/logo.png"
                    },
                    "sub_51": {
                        "id": 51,
                        "mode": "video",
                        "name_original": "Channel 51",
                        "name": "TRT World",
                        "sub_name": "",
                        "stream_video_url": "https://tv-trtworld.live.trt.com.tr/master.m3u8",
                        "thumbnail_url": "https://gitlab.com/bitcodingsolutions/TVGram/-/raw/master/TVGram/ChannelsLogo/TvGram.png",
                        "thumbnail_url_original": "https://raw.githubusercontent.com/tvgram-inc/tvgram-inc.github.io/master/images/logo.png"
                    },
                    "sub_52": {
                        "id": 52,
                        "mode": "video",
                        "name_original": "Channel 52",
                        "name": "TVM Internacional",
                        "sub_name": "",
                        "stream_video_url": "http://online.tvm.co.mz:1935/live/smil:Channel2.smil/playlist.m3u8",
                        "thumbnail_url": "https://gitlab.com/bitcodingsolutions/TVGram/-/raw/master/TVGram/ChannelsLogo/TvGram.png",
                        "thumbnail_url_original": "https://raw.githubusercontent.com/tvgram-inc/tvgram-inc.github.io/master/images/logo.png"
                    },
                    "sub_53": {
                        "id": 53,
                        "mode": "video",
                        "name_original": "Channel 53",
                        "name": "UN Web TV",
                        "sub_name": "",
                        "stream_video_url": "https://cdnapi.kaltura.com/p/2503451/sp/250345100/playManifest/entryId/1_gb6tjmle/protocol/https/format/applehttp/a.m3u8",
                        "thumbnail_url": "https://gitlab.com/bitcodingsolutions/TVGram/-/raw/master/TVGram/ChannelsLogo/TvGram.png",
                        "thumbnail_url_original": "https://raw.githubusercontent.com/tvgram-inc/tvgram-inc.github.io/master/images/logo.png"
                    },
                    "sub_54": {
                        "id": 54,
                        "mode": "video",
                        "name_original": "Channel 54",
                        "name": "Wanasah",
                        "sub_name": "",
                        "stream_video_url": "https://shls-wanasah-prod-dub.shahid.net/out/v1/c84ef3128e564b74a6a796e8b6287de6/index.m3u8",
                        "thumbnail_url": "https://gitlab.com/bitcodingsolutions/TVGram/-/raw/master/TVGram/ChannelsLogo/TvGram.png",
                        "thumbnail_url_original": "https://raw.githubusercontent.com/tvgram-inc/tvgram-inc.github.io/master/images/logo.png"
                    },
                    "sub_55": {
                        "id": 55,
                        "mode": "video",
                        "name_original": "Channel 55",
                        "name": "World Poker Tour",
                        "sub_name": "",
                        "stream_video_url": "https://d3w4n3hhseniak.cloudfront.net/v1/master/9d062541f2ff39b5c0f48b743c6411d25f62fc25/WPT-DistroTV/150.m3u8",
                        "thumbnail_url": "https://gitlab.com/bitcodingsolutions/TVGram/-/raw/master/TVGram/ChannelsLogo/TvGram.png",
                        "thumbnail_url_original": "https://raw.githubusercontent.com/tvgram-inc/tvgram-inc.github.io/master/images/logo.png"
                    },
                    "sub_56": {
                        "id": 56,
                        "mode": "video",
                        "name_original": "Channel 1",
                        "name": "Abu Dhabi Sports 1",
                        "sub_name": "",
                        "stream_video_url": "https://admdn1.cdn.mangomolo.com/adsports1/smil:adsports1.stream.smil/playlist.m3u8",
                        "thumbnail_url": "https://gitlab.com/bitcodingsolutions/TVGram/-/raw/master/TVGram/ChannelsLogo/TvGram.png",
                        "thumbnail_url_original": "https://raw.githubusercontent.com/tvgram-inc/tvgram-inc.github.io/master/images/logo.png"
                    },
                    "sub_57": {
                        "id": 57,
                        "mode": "video",
                        "name_original": "Channel 2",
                        "name": "Al Hayat TV",
                        "sub_name": "",
                        "stream_video_url": "http://media.islamexplained.com:1935/live/_definst_mp4:ahme.stream/playlist.m3u8",
                        "thumbnail_url": "https://gitlab.com/bitcodingsolutions/TVGram/-/raw/master/TVGram/ChannelsLogo/TvGram.png",
                        "thumbnail_url_original": "https://raw.githubusercontent.com/tvgram-inc/tvgram-inc.github.io/master/images/logo.png"
                    },
                    "sub_58": {
                        "id": 58,
                        "mode": "video",
                        "name_original": "Channel 3",
                        "name": "Al Jazeera Documentary",
                        "sub_name": "",
                        "stream_video_url": "https://live-hls-web-ajd.getaj.net/AJD/index.m3u8",
                        "thumbnail_url": "https://gitlab.com/bitcodingsolutions/TVGram/-/raw/master/TVGram/ChannelsLogo/TvGram.png",
                        "thumbnail_url_original": "https://raw.githubusercontent.com/tvgram-inc/tvgram-inc.github.io/master/images/logo.png"
                    },
                    "sub_59": {
                        "id": 59,
                        "mode": "video",
                        "name_original": "Channel 4",
                        "name": "Al Jazeera Mubasher",
                        "sub_name": "",
                        "stream_video_url": "https://live-hls-web-ajm.getaj.net/AJM/index.m3u8",
                        "thumbnail_url": "https://gitlab.com/bitcodingsolutions/TVGram/-/raw/master/TVGram/ChannelsLogo/TvGram.png",
                        "thumbnail_url_original": "https://raw.githubusercontent.com/tvgram-inc/tvgram-inc.github.io/master/images/logo.png"
                    },
                    "sub_60": {
                        "id": 60,
                        "mode": "video",
                        "name_original": "Channel 5",
                        "name": "Al Mamlaka TV",
                        "sub_name": "",
                        "stream_video_url": "https://almamlka-live.ercdn.net/almamlka/almamlka.m3u8",
                        "thumbnail_url": "https://gitlab.com/bitcodingsolutions/TVGram/-/raw/master/TVGram/ChannelsLogo/TvGram.png",
                        "thumbnail_url_original": "https://raw.githubusercontent.com/tvgram-inc/tvgram-inc.github.io/master/images/logo.png"
                    },
                    "sub_61": {
                        "id": 61,
                        "mode": "video",
                        "name_original": "Channel 6",
                        "name": "Al Qamar TV",
                        "sub_name": "",
                        "stream_video_url": "https://cdn5.iqsat.net/iq/8c17d37e0f5c88b1e9c7e1f8f82bc980.sdp/playlist.m3u8",
                        "thumbnail_url": "https://gitlab.com/bitcodingsolutions/TVGram/-/raw/master/TVGram/ChannelsLogo/TvGram.png",
                        "thumbnail_url_original": "https://raw.githubusercontent.com/tvgram-inc/tvgram-inc.github.io/master/images/logo.png"
                    },
                    "sub_62": {
                        "id": 62,
                        "mode": "video",
                        "name_original": "Channel 7",
                        "name": "Alaraby 2 TV",
                        "sub_name": "",
                        "stream_video_url": "https://alaraby.cdn.octivid.com/alaraby2n/smil:alaraby2n.stream.smil/playlist.m3u8",
                        "thumbnail_url": "https://gitlab.com/bitcodingsolutions/TVGram/-/raw/master/TVGram/ChannelsLogo/TvGram.png",
                        "thumbnail_url_original": "https://raw.githubusercontent.com/tvgram-inc/tvgram-inc.github.io/master/images/logo.png"
                    },
                    "sub_63": {
                        "id": 63,
                        "mode": "video",
                        "name_original": "Channel 8",
                        "name": "Alaraby TV",
                        "sub_name": "",
                        "stream_video_url": "https://alaraby.cdn.octivid.com/alaraby/smil:alaraby.stream.smil/playlist.m3u8",
                        "thumbnail_url": "https://gitlab.com/bitcodingsolutions/TVGram/-/raw/master/TVGram/ChannelsLogo/TvGram.png",
                        "thumbnail_url_original": "https://raw.githubusercontent.com/tvgram-inc/tvgram-inc.github.io/master/images/logo.png"
                    },
                    "sub_64": {
                        "id": 64,
                        "mode": "video",
                        "name_original": "Channel 9",
                        "name": "Bahrain International",
                        "sub_name": "",
                        "stream_video_url": "https://5c7b683162943.streamlock.net/live/ngrp:bahraininternational_all/playlist.m3u8",
                        "thumbnail_url": "https://gitlab.com/bitcodingsolutions/TVGram/-/raw/master/TVGram/ChannelsLogo/TvGram.png",
                        "thumbnail_url_original": "https://raw.githubusercontent.com/tvgram-inc/tvgram-inc.github.io/master/images/logo.png"
                    },
                    "sub_65": {
                        "id": 65,
                        "mode": "video",
                        "name_original": "Channel 10",
                        "name": "BeritaSatu World",
                        "sub_name": "",
                        "stream_video_url": "https://b1world.beritasatumedia.com/Beritasatu/B1World_manifest.m3u8",
                        "thumbnail_url": "https://gitlab.com/bitcodingsolutions/TVGram/-/raw/master/TVGram/ChannelsLogo/TvGram.png",
                        "thumbnail_url_original": "https://raw.githubusercontent.com/tvgram-inc/tvgram-inc.github.io/master/images/logo.png"
                    },
                    "sub_66": {
                        "id": 66,
                        "mode": "video",
                        "name_original": "Channel 11",
                        "name": "Bloomberg TV EMEA Live Event",
                        "sub_name": "",
                        "stream_video_url": "https://bloomberg.com/media-manifest/streams/eu-event.m3u8",
                        "thumbnail_url": "https://gitlab.com/bitcodingsolutions/TVGram/-/raw/master/TVGram/ChannelsLogo/TvGram.png",
                        "thumbnail_url_original": "https://raw.githubusercontent.com/tvgram-inc/tvgram-inc.github.io/master/images/logo.png"
                    },
                    "sub_67": {
                        "id": 67,
                        "mode": "video",
                        "name_original": "Channel 12",
                        "name": "Bloomberg TV Europe",
                        "sub_name": "",
                        "stream_video_url": "https://bloomberg.com/media-manifest/streams/eu.m3u8",
                        "thumbnail_url": "https://gitlab.com/bitcodingsolutions/TVGram/-/raw/master/TVGram/ChannelsLogo/TvGram.png",
                        "thumbnail_url_original": "https://raw.githubusercontent.com/tvgram-inc/tvgram-inc.github.io/master/images/logo.png"
                    },
                    "sub_68": {
                        "id": 68,
                        "mode": "video",
                        "name_original": "Channel 13",
                        "name": "Cartoon Network Arabia",
                        "sub_name": "",
                        "stream_video_url": "https://shls-cartoon-net-prod-dub.shahid.net/out/v1/dc4aa87372374325a66be458f29eab0f/index.m3u8",
                        "thumbnail_url": "https://gitlab.com/bitcodingsolutions/TVGram/-/raw/master/TVGram/ChannelsLogo/TvGram.png",
                        "thumbnail_url_original": "https://raw.githubusercontent.com/tvgram-inc/tvgram-inc.github.io/master/images/logo.png"
                    },
                    "sub_69": {
                        "id": 69,
                        "mode": "video",
                        "name_original": "Channel 14",
                        "name": "CGTN",
                        "sub_name": "",
                        "stream_video_url": "https://news.cgtn.com/resource/live/english/cgtn-news.m3u8",
                        "thumbnail_url": "https://gitlab.com/bitcodingsolutions/TVGram/-/raw/master/TVGram/ChannelsLogo/TvGram.png",
                        "thumbnail_url_original": "https://raw.githubusercontent.com/tvgram-inc/tvgram-inc.github.io/master/images/logo.png"
                    },
                    "sub_70": {
                        "id": 70,
                        "mode": "video",
                        "name_original": "Channel 15",
                        "name": "CGTN Arabic",
                        "sub_name": "",
                        "stream_video_url": "https://news.cgtn.com/resource/live/arabic/cgtn-a.m3u8",
                        "thumbnail_url": "https://gitlab.com/bitcodingsolutions/TVGram/-/raw/master/TVGram/ChannelsLogo/TvGram.png",
                        "thumbnail_url_original": "https://raw.githubusercontent.com/tvgram-inc/tvgram-inc.github.io/master/images/logo.png"
                    },
                    "sub_71": {
                        "id": 71,
                        "mode": "video",
                        "name_original": "Channel 16",
                        "name": "Classic Arts Showcase",
                        "sub_name": "",
                        "stream_video_url": "https://classicarts.akamaized.net/hls/live/1024257/CAS/master.m3u8",
                        "thumbnail_url": "https://gitlab.com/bitcodingsolutions/TVGram/-/raw/master/TVGram/ChannelsLogo/TvGram.png",
                        "thumbnail_url_original": "https://raw.githubusercontent.com/tvgram-inc/tvgram-inc.github.io/master/images/logo.png"
                    },
                    "sub_72": {
                        "id": 72,
                        "mode": "video",
                        "name_original": "Channel 17",
                        "name": "CNA International",
                        "sub_name": "",
                        "stream_video_url": "https://d2e1asnsl7br7b.cloudfront.net/7782e205e72f43aeb4a48ec97f66ebbe/index.m3u8",
                        "thumbnail_url": "https://gitlab.com/bitcodingsolutions/TVGram/-/raw/master/TVGram/ChannelsLogo/TvGram.png",
                        "thumbnail_url_original": "https://raw.githubusercontent.com/tvgram-inc/tvgram-inc.github.io/master/images/logo.png"
                    },
                    "sub_73": {
                        "id": 73,
                        "mode": "video",
                        "name_original": "Channel 18",
                        "name": "DW Arabic",
                        "sub_name": "",
                        "stream_video_url": "https://dwamdstream103.akamaized.net/hls/live/2015526/dwstream103/index.m3u8",
                        "thumbnail_url": "https://gitlab.com/bitcodingsolutions/TVGram/-/raw/master/TVGram/ChannelsLogo/TvGram.png",
                        "thumbnail_url_original": "https://raw.githubusercontent.com/tvgram-inc/tvgram-inc.github.io/master/images/logo.png"
                    },
                    "sub_74": {
                        "id": 74,
                        "mode": "video",
                        "name_original": "Channel 19",
                        "name": "DW English",
                        "sub_name": "",
                        "stream_video_url": "https://dwamdstream102.akamaized.net/hls/live/2015525/dwstream102/index.m3u8",
                        "thumbnail_url": "https://gitlab.com/bitcodingsolutions/TVGram/-/raw/master/TVGram/ChannelsLogo/TvGram.png",
                        "thumbnail_url_original": "https://raw.githubusercontent.com/tvgram-inc/tvgram-inc.github.io/master/images/logo.png"
                    },
                    "sub_75": {
                        "id": 75,
                        "mode": "video",
                        "name_original": "Channel 20",
                        "name": "ERT World",
                        "sub_name": "",
                        "stream_video_url": "http://wpso.com:1936/hls/wzra.m3u8",
                        "thumbnail_url": "https://gitlab.com/bitcodingsolutions/TVGram/-/raw/master/TVGram/ChannelsLogo/TvGram.png",
                        "thumbnail_url_original": "https://raw.githubusercontent.com/tvgram-inc/tvgram-inc.github.io/master/images/logo.png"
                    },
                    "sub_76": {
                        "id": 76,
                        "mode": "video",
                        "name_original": "Channel 21",
                        "name": "ETB Basque",
                        "sub_name": "",
                        "stream_video_url": "https://multimedia.eitb.eus/live-content/eitbbasque-hls/master.m3u8",
                        "thumbnail_url": "https://gitlab.com/bitcodingsolutions/TVGram/-/raw/master/TVGram/ChannelsLogo/TvGram.png",
                        "thumbnail_url_original": "https://raw.githubusercontent.com/tvgram-inc/tvgram-inc.github.io/master/images/logo.png"
                    },
                    "sub_77": {
                        "id": 77,
                        "mode": "video",
                        "name_original": "Channel 22",
                        "name": "Euro Indie Music Chart TV",
                        "sub_name": "",
                        "stream_video_url": "http://178.33.224.197:1935/euroindiemusic/euroindiemusic/playlist.m3u8",
                        "thumbnail_url": "https://gitlab.com/bitcodingsolutions/TVGram/-/raw/master/TVGram/ChannelsLogo/TvGram.png",
                        "thumbnail_url_original": "https://raw.githubusercontent.com/tvgram-inc/tvgram-inc.github.io/master/images/logo.png"
                    },
                    "sub_78": {
                        "id": 78,
                        "mode": "video",
                        "name_original": "Channel 23",
                        "name": "Ismaoona TV",
                        "sub_name": "",
                        "stream_video_url": "http://82.212.74.4:8000/live/2105.m3u8",
                        "thumbnail_url": "https://gitlab.com/bitcodingsolutions/TVGram/-/raw/master/TVGram/ChannelsLogo/TvGram.png",
                        "thumbnail_url_original": "https://raw.githubusercontent.com/tvgram-inc/tvgram-inc.github.io/master/images/logo.png"
                    },
                    "sub_79": {
                        "id": 79,
                        "mode": "video",
                        "name_original": "Channel 24",
                        "name": "Jawhara FM",
                        "sub_name": "",
                        "stream_video_url": "http://streaming.toutech.net:1935/live/mp4:jawharafm.sdp/playlist.m3u8",
                        "thumbnail_url": "https://gitlab.com/bitcodingsolutions/TVGram/-/raw/master/TVGram/ChannelsLogo/TvGram.png",
                        "thumbnail_url_original": "https://raw.githubusercontent.com/tvgram-inc/tvgram-inc.github.io/master/images/logo.png"
                    },
                    "sub_80": {
                        "id": 80,
                        "mode": "video",
                        "name_original": "Channel 25",
                        "name": "Jordan Satellite Channel",
                        "sub_name": "",
                        "stream_video_url": "https://jrtv-live.ercdn.net/jordanhd/jordanhd.m3u8",
                        "thumbnail_url": "https://gitlab.com/bitcodingsolutions/TVGram/-/raw/master/TVGram/ChannelsLogo/TvGram.png",
                        "thumbnail_url_original": "https://raw.githubusercontent.com/tvgram-inc/tvgram-inc.github.io/master/images/logo.png"
                    },
                    "sub_81": {
                        "id": 81,
                        "mode": "video",
                        "name_original": "Channel 26",
                        "name": "KBS World",
                        "sub_name": "",
                        "stream_video_url": "https://kbsworld-ott.akamaized.net/hls/live/2002341/kbsworld/master.m3u8",
                        "thumbnail_url": "https://gitlab.com/bitcodingsolutions/TVGram/-/raw/master/TVGram/ChannelsLogo/TvGram.png",
                        "thumbnail_url_original": "https://raw.githubusercontent.com/tvgram-inc/tvgram-inc.github.io/master/images/logo.png"
                    },
                    "sub_82": {
                        "id": 82,
                        "mode": "video",
                        "name_original": "Channel 27",
                        "name": "MBC 4",
                        "sub_name": "",
                        "stream_video_url": "https://shls-mbc4-prod-dub.shahid.net/out/v1/c08681f81775496ab4afa2bac7ae7638/index.m3u8",
                        "thumbnail_url": "https://gitlab.com/bitcodingsolutions/TVGram/-/raw/master/TVGram/ChannelsLogo/TvGram.png",
                        "thumbnail_url_original": "https://raw.githubusercontent.com/tvgram-inc/tvgram-inc.github.io/master/images/logo.png"
                    },
                    "sub_83": {
                        "id": 83,
                        "mode": "video",
                        "name_original": "Channel 28",
                        "name": "MBC Bollywood",
                        "sub_name": "",
                        "stream_video_url": "https://shls-mbcdramaksa-ak.akamaized.net/out/v1/a79c9d7ef2a64a54a64d5c4567b3462a/index.m3u8",
                        "thumbnail_url": "https://gitlab.com/bitcodingsolutions/TVGram/-/raw/master/TVGram/ChannelsLogo/TvGram.png",
                        "thumbnail_url_original": "https://raw.githubusercontent.com/tvgram-inc/tvgram-inc.github.io/master/images/logo.png"
                    },
                    "sub_84": {
                        "id": 84,
                        "mode": "video",
                        "name_original": "Channel 29",
                        "name": "MBC Plus Drama",
                        "sub_name": "",
                        "stream_video_url": "https://shls-mbcplusdrama-prod-dub.shahid.net/out/v1/97ca0ce6fc6142f4b14c0a694af59eab/index.m3u8",
                        "thumbnail_url": "https://gitlab.com/bitcodingsolutions/TVGram/-/raw/master/TVGram/ChannelsLogo/TvGram.png",
                        "thumbnail_url_original": "https://raw.githubusercontent.com/tvgram-inc/tvgram-inc.github.io/master/images/logo.png"
                    },
                    "sub_85": {
                        "id": 85,
                        "mode": "video",
                        "name_original": "Channel 30",
                        "name": "Melody FM Jordan",
                        "sub_name": "",
                        "stream_video_url": "https://cdn3.wowza.com/1/OVRrOWxXUEswS2Yv/eGVxSWZy/hls/live/playlist.m3u8",
                        "thumbnail_url": "https://gitlab.com/bitcodingsolutions/TVGram/-/raw/master/TVGram/ChannelsLogo/TvGram.png",
                        "thumbnail_url_original": "https://raw.githubusercontent.com/tvgram-inc/tvgram-inc.github.io/master/images/logo.png"
                    },
                    "sub_86": {
                        "id": 86,
                        "mode": "video",
                        "name_original": "Channel 31",
                        "name": "Metro Globe Network",
                        "sub_name": "",
                        "stream_video_url": "https://edge.medcom.id/live-edge/smil:mgnch.smil/playlist.m3u8",
                        "thumbnail_url": "https://gitlab.com/bitcodingsolutions/TVGram/-/raw/master/TVGram/ChannelsLogo/TvGram.png",
                        "thumbnail_url_original": "https://raw.githubusercontent.com/tvgram-inc/tvgram-inc.github.io/master/images/logo.png"
                    },
                    "sub_87": {
                        "id": 87,
                        "mode": "video",
                        "name_original": "Channel 32",
                        "name": "NASA TV",
                        "sub_name": "",
                        "stream_video_url": "https://uplynkcontent.sinclairstoryline.com/channel/ddd76fdc1c0a456ba537e4f48e827d3e.m3u8",
                        "thumbnail_url": "https://gitlab.com/bitcodingsolutions/TVGram/-/raw/master/TVGram/ChannelsLogo/TvGram.png",
                        "thumbnail_url_original": "https://raw.githubusercontent.com/tvgram-inc/tvgram-inc.github.io/master/images/logo.png"
                    },
                    "sub_88": {
                        "id": 88,
                        "mode": "video",
                        "name_original": "Channel 33",
                        "name": "NHK World Japan",
                        "sub_name": "",
                        "stream_video_url": "https://nhkwlive-ojp.akamaized.net/hls/live/2003459/nhkwlive-ojp-en/index.m3u8",
                        "thumbnail_url": "https://gitlab.com/bitcodingsolutions/TVGram/-/raw/master/TVGram/ChannelsLogo/TvGram.png",
                        "thumbnail_url_original": "https://raw.githubusercontent.com/tvgram-inc/tvgram-inc.github.io/master/images/logo.png"
                    },
                    "sub_89": {
                        "id": 89,
                        "mode": "video",
                        "name_original": "Channel 34",
                        "name": "PMC",
                        "sub_name": "",
                        "stream_video_url": "https://hls.pmchd.live/hls/stream.m3u8",
                        "thumbnail_url": "https://gitlab.com/bitcodingsolutions/TVGram/-/raw/master/TVGram/ChannelsLogo/TvGram.png",
                        "thumbnail_url_original": "https://raw.githubusercontent.com/tvgram-inc/tvgram-inc.github.io/master/images/logo.png"
                    },
                    "sub_90": {
                        "id": 90,
                        "mode": "video",
                        "name_original": "Channel 35",
                        "name": "Radio Fann Jordan: Control Studio",
                        "sub_name": "",
                        "stream_video_url": "http://188.247.86.66/RadioFann/ControlStudio1/playlist.m3u8",
                        "thumbnail_url": "https://gitlab.com/bitcodingsolutions/TVGram/-/raw/master/TVGram/ChannelsLogo/TvGram.png",
                        "thumbnail_url_original": "https://raw.githubusercontent.com/tvgram-inc/tvgram-inc.github.io/master/images/logo.png"
                    },
                    "sub_91": {
                        "id": 91,
                        "mode": "video",
                        "name_original": "Channel 36",
                        "name": "Radio Fann Jordan: Studio",
                        "sub_name": "",
                        "stream_video_url": "http://188.247.86.66/RadioFann/OnAirStudio1/playlist.m3u8",
                        "thumbnail_url": "https://gitlab.com/bitcodingsolutions/TVGram/-/raw/master/TVGram/ChannelsLogo/TvGram.png",
                        "thumbnail_url_original": "https://raw.githubusercontent.com/tvgram-inc/tvgram-inc.github.io/master/images/logo.png"
                    },
                    "sub_92": {
                        "id": 92,
                        "mode": "video",
                        "name_original": "Channel 37",
                        "name": "Radio Yaqeen Jordan: City View",
                        "sub_name": "",
                        "stream_video_url": "http://188.247.86.66/MixFM/CityView1/playlist.m3u8",
                        "thumbnail_url": "https://gitlab.com/bitcodingsolutions/TVGram/-/raw/master/TVGram/ChannelsLogo/TvGram.png",
                        "thumbnail_url_original": "https://raw.githubusercontent.com/tvgram-inc/tvgram-inc.github.io/master/images/logo.png"
                    },
                    "sub_93": {
                        "id": 93,
                        "mode": "video",
                        "name_original": "Channel 38",
                        "name": "Radio Yaqeen Jordan: Control Studio",
                        "sub_name": "",
                        "stream_video_url": "http://188.247.86.66/MixFM/ControlStudio1/playlist.m3u8",
                        "thumbnail_url": "https://gitlab.com/bitcodingsolutions/TVGram/-/raw/master/TVGram/ChannelsLogo/TvGram.png",
                        "thumbnail_url_original": "https://raw.githubusercontent.com/tvgram-inc/tvgram-inc.github.io/master/images/logo.png"
                    },
                    "sub_94": {
                        "id": 94,
                        "mode": "video",
                        "name_original": "Channel 39",
                        "name": "Red Bull TV",
                        "sub_name": "",
                        "stream_video_url": "https://rbmn-live.akamaized.net/hls/live/590964/BoRB-AT/master.m3u8",
                        "thumbnail_url": "https://gitlab.com/bitcodingsolutions/TVGram/-/raw/master/TVGram/ChannelsLogo/TvGram.png",
                        "thumbnail_url_original": "https://raw.githubusercontent.com/tvgram-inc/tvgram-inc.github.io/master/images/logo.png"
                    },
                    "sub_95": {
                        "id": 95,
                        "mode": "video",
                        "name_original": "Channel 40",
                        "name": "Rotana Radio Jordan: City View",
                        "sub_name": "",
                        "stream_video_url": "http://188.247.86.66/RotanaRadio/CityView1/playlist.m3u8",
                        "thumbnail_url": "https://gitlab.com/bitcodingsolutions/TVGram/-/raw/master/TVGram/ChannelsLogo/TvGram.png",
                        "thumbnail_url_original": "https://raw.githubusercontent.com/tvgram-inc/tvgram-inc.github.io/master/images/logo.png"
                    },
                    "sub_96": {
                        "id": 96,
                        "mode": "video",
                        "name_original": "Channel 41",
                        "name": "Rotana Radio Jordan: Control Studio",
                        "sub_name": "",
                        "stream_video_url": "http://188.247.86.66/RotanaRadio/ControlStudio1/playlist.m3u8",
                        "thumbnail_url": "https://gitlab.com/bitcodingsolutions/TVGram/-/raw/master/TVGram/ChannelsLogo/TvGram.png",
                        "thumbnail_url_original": "https://raw.githubusercontent.com/tvgram-inc/tvgram-inc.github.io/master/images/logo.png"
                    },
                    "sub_97": {
                        "id": 97,
                        "mode": "video",
                        "name_original": "Channel 42",
                        "name": "Rotana Radio Jordan: Studio",
                        "sub_name": "",
                        "stream_video_url": "http://188.247.86.66/RotanaRadio/OnAirStudio1/playlist.m3u8",
                        "thumbnail_url": "https://gitlab.com/bitcodingsolutions/TVGram/-/raw/master/TVGram/ChannelsLogo/TvGram.png",
                        "thumbnail_url_original": "https://raw.githubusercontent.com/tvgram-inc/tvgram-inc.github.io/master/images/logo.png"
                    },
                    "sub_98": {
                        "id": 98,
                        "mode": "video",
                        "name_original": "Channel 43",
                        "name": "Rotana Tarab Jordan: Control Studio",
                        "sub_name": "",
                        "stream_video_url": "http://188.247.86.66/RotanaRadio/Audio32/playlist.m3u8",
                        "thumbnail_url": "https://gitlab.com/bitcodingsolutions/TVGram/-/raw/master/TVGram/ChannelsLogo/TvGram.png",
                        "thumbnail_url_original": "https://raw.githubusercontent.com/tvgram-inc/tvgram-inc.github.io/master/images/logo.png"
                    },
                    "sub_99": {
                        "id": 99,
                        "mode": "video",
                        "name_original": "Channel 44",
                        "name": "Roya TV",
                        "sub_name": "",
                        "stream_video_url": "https://weyyak-live.akamaized.net/weyyak_roya/index.m3u8",
                        "thumbnail_url": "https://gitlab.com/bitcodingsolutions/TVGram/-/raw/master/TVGram/ChannelsLogo/TvGram.png",
                        "thumbnail_url_original": "https://raw.githubusercontent.com/tvgram-inc/tvgram-inc.github.io/master/images/logo.png"
                    },
                    "sub_100": {
                        "id": 100,
                        "mode": "video",
                        "name_original": "Channel 45",
                        "name": "RT Documentary Russian",
                        "sub_name": "",
                        "stream_video_url": "http://uiptv.do.am/1ufc/300663722/playlist.m3u8",
                        "thumbnail_url": "https://gitlab.com/bitcodingsolutions/TVGram/-/raw/master/TVGram/ChannelsLogo/TvGram.png",
                        "thumbnail_url_original": "https://raw.githubusercontent.com/tvgram-inc/tvgram-inc.github.io/master/images/logo.png"
                    },
                    "sub_101": {
                        "id": 101,
                        "mode": "video",
                        "name_original": "Channel 46",
                        "name": "Ski TV",
                        "sub_name": "",
                        "stream_video_url": "https://d2xeo83q8fcni6.cloudfront.net/v1/master/9d062541f2ff39b5c0f48b743c6411d25f62fc25/SkiTV-SynapseTV/193.m3u8",
                        "thumbnail_url": "https://gitlab.com/bitcodingsolutions/TVGram/-/raw/master/TVGram/ChannelsLogo/TvGram.png",
                        "thumbnail_url_original": "https://raw.githubusercontent.com/tvgram-inc/tvgram-inc.github.io/master/images/logo.png"
                    }
                }
            }
        }
    }
}