{
    "TV_Data": {
        "Channel_List": {
            "is_channel_list": true,
            "is_override": true,
            "thumb_width": 150,
            "all_Channels_Tab_Name": "",
            "main": {
                "id": 1,
                "name": "Peru Channels",
                "sub_name": "Channels",
                "thumbnail_url": "https://flagpedia.net/data/flags/h80/pe.png",
                "sub": {
                    "sub_1": {
                        "id": 1,
                        "mode": "video",
                        "name_original": "Channel 1",
                        "name": "Agro TV",
                        "sub_name": "",
                        "stream_video_url": "https://ed21ov.live.opencaster.com/pAtGzcAnwziC/index.m3u8",
                        "thumbnail_url": "https://gitlab.com/bitcodingsolutions/TVGram/-/raw/master/TVGram/ChannelsLogo/TvGram.png",
                        "thumbnail_url_original": "https://raw.githubusercontent.com/tvgram-inc/tvgram-inc.github.io/master/images/logo.png"
                    },
                    "sub_2": {
                        "id": 2,
                        "mode": "video",
                        "name_original": "Channel 2",
                        "name": "Agrotendencia TV",
                        "sub_name": "",
                        "stream_video_url": "https://5fc584f3f19c9.streamlock.net/agrotendencia/videoagrotendencia_hls1/playlist.m3u8",
                        "thumbnail_url": "https://gitlab.com/bitcodingsolutions/TVGram/-/raw/master/TVGram/ChannelsLogo/TvGram.png",
                        "thumbnail_url_original": "https://raw.githubusercontent.com/tvgram-inc/tvgram-inc.github.io/master/images/logo.png"
                    },
                    "sub_3": {
                        "id": 3,
                        "mode": "video",
                        "name_original": "Channel 3",
                        "name": "Antares Televisi\u00f3n",
                        "sub_name": "",
                        "stream_video_url": "https://5c3fb01839654.streamlock.net:1963/iptvantares/liveantarestv/playlist.m3u8",
                        "thumbnail_url": "https://gitlab.com/bitcodingsolutions/TVGram/-/raw/master/TVGram/ChannelsLogo/TvGram.png",
                        "thumbnail_url_original": "https://raw.githubusercontent.com/tvgram-inc/tvgram-inc.github.io/master/images/logo.png"
                    },
                    "sub_4": {
                        "id": 4,
                        "mode": "video",
                        "name_original": "Channel 4",
                        "name": "AsiriTV",
                        "sub_name": "",
                        "stream_video_url": "https://video2.lhdserver.es/asiritv/live.m3u8",
                        "thumbnail_url": "https://gitlab.com/bitcodingsolutions/TVGram/-/raw/master/TVGram/ChannelsLogo/TvGram.png",
                        "thumbnail_url_original": "https://raw.githubusercontent.com/tvgram-inc/tvgram-inc.github.io/master/images/logo.png"
                    },
                    "sub_5": {
                        "id": 5,
                        "mode": "video",
                        "name_original": "Channel 5",
                        "name": "Aut\u00e9ntica Televisi\u00f3n",
                        "sub_name": "",
                        "stream_video_url": "https://live.obslivestream.com/autenticatvmux/index.m3u8",
                        "thumbnail_url": "https://gitlab.com/bitcodingsolutions/TVGram/-/raw/master/TVGram/ChannelsLogo/TvGram.png",
                        "thumbnail_url_original": "https://raw.githubusercontent.com/tvgram-inc/tvgram-inc.github.io/master/images/logo.png"
                    },
                    "sub_6": {
                        "id": 6,
                        "mode": "video",
                        "name_original": "Channel 6",
                        "name": "Bahrain International",
                        "sub_name": "",
                        "stream_video_url": "https://5c7b683162943.streamlock.net/live/ngrp:bahraininternational_all/playlist.m3u8",
                        "thumbnail_url": "https://gitlab.com/bitcodingsolutions/TVGram/-/raw/master/TVGram/ChannelsLogo/TvGram.png",
                        "thumbnail_url_original": "https://raw.githubusercontent.com/tvgram-inc/tvgram-inc.github.io/master/images/logo.png"
                    },
                    "sub_7": {
                        "id": 7,
                        "mode": "video",
                        "name_original": "Channel 7",
                        "name": "Bella Asuncion TV",
                        "sub_name": "",
                        "stream_video_url": "https://tvdatta.com:3602/stream/play.m3u8",
                        "thumbnail_url": "https://gitlab.com/bitcodingsolutions/TVGram/-/raw/master/TVGram/ChannelsLogo/TvGram.png",
                        "thumbnail_url_original": "https://raw.githubusercontent.com/tvgram-inc/tvgram-inc.github.io/master/images/logo.png"
                    },
                    "sub_8": {
                        "id": 8,
                        "mode": "video",
                        "name_original": "Channel 8",
                        "name": "BeritaSatu World",
                        "sub_name": "",
                        "stream_video_url": "https://b1world.beritasatumedia.com/Beritasatu/B1World_manifest.m3u8",
                        "thumbnail_url": "https://gitlab.com/bitcodingsolutions/TVGram/-/raw/master/TVGram/ChannelsLogo/TvGram.png",
                        "thumbnail_url_original": "https://raw.githubusercontent.com/tvgram-inc/tvgram-inc.github.io/master/images/logo.png"
                    },
                    "sub_9": {
                        "id": 9,
                        "mode": "video",
                        "name_original": "Channel 9",
                        "name": "BHTV",
                        "sub_name": "",
                        "stream_video_url": "http://cdn1.ujjina.com:1935/iptvbhtv/livebhtvtv/playlist.m3u8",
                        "thumbnail_url": "https://gitlab.com/bitcodingsolutions/TVGram/-/raw/master/TVGram/ChannelsLogo/TvGram.png",
                        "thumbnail_url_original": "https://raw.githubusercontent.com/tvgram-inc/tvgram-inc.github.io/master/images/logo.png"
                    },
                    "sub_10": {
                        "id": 10,
                        "mode": "video",
                        "name_original": "Channel 10",
                        "name": "Canal 26",
                        "sub_name": "",
                        "stream_video_url": "http://200.115.193.177/live/26hd-720/playlist.m3u8",
                        "thumbnail_url": "https://gitlab.com/bitcodingsolutions/TVGram/-/raw/master/TVGram/ChannelsLogo/TvGram.png",
                        "thumbnail_url_original": "https://raw.githubusercontent.com/tvgram-inc/tvgram-inc.github.io/master/images/logo.png"
                    },
                    "sub_11": {
                        "id": 11,
                        "mode": "video",
                        "name_original": "Channel 11",
                        "name": "Central TV",
                        "sub_name": "",
                        "stream_video_url": "https://5c3fb01839654.streamlock.net:1963/iptvcentraltv/livecentraltvtv/playlist.m3u8",
                        "thumbnail_url": "https://gitlab.com/bitcodingsolutions/TVGram/-/raw/master/TVGram/ChannelsLogo/TvGram.png",
                        "thumbnail_url_original": "https://raw.githubusercontent.com/tvgram-inc/tvgram-inc.github.io/master/images/logo.png"
                    },
                    "sub_12": {
                        "id": 12,
                        "mode": "video",
                        "name_original": "Channel 12",
                        "name": "CGTN",
                        "sub_name": "",
                        "stream_video_url": "https://news.cgtn.com/resource/live/english/cgtn-news.m3u8",
                        "thumbnail_url": "https://gitlab.com/bitcodingsolutions/TVGram/-/raw/master/TVGram/ChannelsLogo/TvGram.png",
                        "thumbnail_url_original": "https://raw.githubusercontent.com/tvgram-inc/tvgram-inc.github.io/master/images/logo.png"
                    },
                    "sub_13": {
                        "id": 13,
                        "mode": "video",
                        "name_original": "Channel 13",
                        "name": "CGTN Espa\u00f1ol",
                        "sub_name": "",
                        "stream_video_url": "https://news.cgtn.com/resource/live/espanol/cgtn-e.m3u8",
                        "thumbnail_url": "https://gitlab.com/bitcodingsolutions/TVGram/-/raw/master/TVGram/ChannelsLogo/TvGram.png",
                        "thumbnail_url_original": "https://raw.githubusercontent.com/tvgram-inc/tvgram-inc.github.io/master/images/logo.png"
                    },
                    "sub_14": {
                        "id": 14,
                        "mode": "video",
                        "name_original": "Channel 14",
                        "name": "Classic Arts Showcase",
                        "sub_name": "",
                        "stream_video_url": "https://classicarts.akamaized.net/hls/live/1024257/CAS/master.m3u8",
                        "thumbnail_url": "https://gitlab.com/bitcodingsolutions/TVGram/-/raw/master/TVGram/ChannelsLogo/TvGram.png",
                        "thumbnail_url_original": "https://raw.githubusercontent.com/tvgram-inc/tvgram-inc.github.io/master/images/logo.png"
                    },
                    "sub_15": {
                        "id": 15,
                        "mode": "video",
                        "name_original": "Channel 15",
                        "name": "CNA International",
                        "sub_name": "",
                        "stream_video_url": "https://d2e1asnsl7br7b.cloudfront.net/7782e205e72f43aeb4a48ec97f66ebbe/index.m3u8",
                        "thumbnail_url": "https://gitlab.com/bitcodingsolutions/TVGram/-/raw/master/TVGram/ChannelsLogo/TvGram.png",
                        "thumbnail_url_original": "https://raw.githubusercontent.com/tvgram-inc/tvgram-inc.github.io/master/images/logo.png"
                    },
                    "sub_16": {
                        "id": 16,
                        "mode": "video",
                        "name_original": "Channel 16",
                        "name": "CNC Digital",
                        "sub_name": "",
                        "stream_video_url": "https://cloudvideo.servers10.com:8081/8150/index.m3u8",
                        "thumbnail_url": "https://gitlab.com/bitcodingsolutions/TVGram/-/raw/master/TVGram/ChannelsLogo/TvGram.png",
                        "thumbnail_url_original": "https://raw.githubusercontent.com/tvgram-inc/tvgram-inc.github.io/master/images/logo.png"
                    },
                    "sub_17": {
                        "id": 17,
                        "mode": "video",
                        "name_original": "Channel 17",
                        "name": "Conecta2TV",
                        "sub_name": "",
                        "stream_video_url": "https://servilive.com:3114/live/liveulive.m3u8",
                        "thumbnail_url": "https://gitlab.com/bitcodingsolutions/TVGram/-/raw/master/TVGram/ChannelsLogo/TvGram.png",
                        "thumbnail_url_original": "https://raw.githubusercontent.com/tvgram-inc/tvgram-inc.github.io/master/images/logo.png"
                    },
                    "sub_18": {
                        "id": 18,
                        "mode": "video",
                        "name_original": "Channel 18",
                        "name": "Contacto Deportivo",
                        "sub_name": "",
                        "stream_video_url": "https://live.obslivestream.com/cdeportivo/index.m3u8",
                        "thumbnail_url": "https://gitlab.com/bitcodingsolutions/TVGram/-/raw/master/TVGram/ChannelsLogo/TvGram.png",
                        "thumbnail_url_original": "https://raw.githubusercontent.com/tvgram-inc/tvgram-inc.github.io/master/images/logo.png"
                    },
                    "sub_19": {
                        "id": 19,
                        "mode": "video",
                        "name_original": "Channel 19",
                        "name": "Controversia TV",
                        "sub_name": "",
                        "stream_video_url": "https://live.obslivestream.com/controversiatv/index.m3u8",
                        "thumbnail_url": "https://gitlab.com/bitcodingsolutions/TVGram/-/raw/master/TVGram/ChannelsLogo/TvGram.png",
                        "thumbnail_url_original": "https://raw.githubusercontent.com/tvgram-inc/tvgram-inc.github.io/master/images/logo.png"
                    },
                    "sub_20": {
                        "id": 20,
                        "mode": "video",
                        "name_original": "Channel 20",
                        "name": "Cultura 24",
                        "sub_name": "",
                        "stream_video_url": "https://vs8.live.opencaster.com/cultura24/smil:cultura24/playlist.m3u8",
                        "thumbnail_url": "https://gitlab.com/bitcodingsolutions/TVGram/-/raw/master/TVGram/ChannelsLogo/TvGram.png",
                        "thumbnail_url_original": "https://raw.githubusercontent.com/tvgram-inc/tvgram-inc.github.io/master/images/logo.png"
                    },
                    "sub_21": {
                        "id": 21,
                        "mode": "video",
                        "name_original": "Channel 21",
                        "name": "Doble C Televisi\u00f3n",
                        "sub_name": "",
                        "stream_video_url": "https://7.innovatestream.pe:19360/cctvchupaca/cctvchupaca.m3u8",
                        "thumbnail_url": "https://gitlab.com/bitcodingsolutions/TVGram/-/raw/master/TVGram/ChannelsLogo/TvGram.png",
                        "thumbnail_url_original": "https://raw.githubusercontent.com/tvgram-inc/tvgram-inc.github.io/master/images/logo.png"
                    },
                    "sub_22": {
                        "id": 22,
                        "mode": "video",
                        "name_original": "Channel 22",
                        "name": "DW English",
                        "sub_name": "",
                        "stream_video_url": "https://dwamdstream102.akamaized.net/hls/live/2015525/dwstream102/index.m3u8",
                        "thumbnail_url": "https://gitlab.com/bitcodingsolutions/TVGram/-/raw/master/TVGram/ChannelsLogo/TvGram.png",
                        "thumbnail_url_original": "https://raw.githubusercontent.com/tvgram-inc/tvgram-inc.github.io/master/images/logo.png"
                    },
                    "sub_23": {
                        "id": 23,
                        "mode": "video",
                        "name_original": "Channel 23",
                        "name": "DW Espa\u00f1ol",
                        "sub_name": "",
                        "stream_video_url": "https://dwamdstream104.akamaized.net/hls/live/2015530/dwstream104/index.m3u8",
                        "thumbnail_url": "https://gitlab.com/bitcodingsolutions/TVGram/-/raw/master/TVGram/ChannelsLogo/TvGram.png",
                        "thumbnail_url_original": "https://raw.githubusercontent.com/tvgram-inc/tvgram-inc.github.io/master/images/logo.png"
                    },
                    "sub_24": {
                        "id": 24,
                        "mode": "video",
                        "name_original": "Channel 24",
                        "name": "EnerGeek Fanpop",
                        "sub_name": "",
                        "stream_video_url": "https://stream.wifispeed.cl:3247/live/energeek2live.m3u8",
                        "thumbnail_url": "https://gitlab.com/bitcodingsolutions/TVGram/-/raw/master/TVGram/ChannelsLogo/TvGram.png",
                        "thumbnail_url_original": "https://raw.githubusercontent.com/tvgram-inc/tvgram-inc.github.io/master/images/logo.png"
                    },
                    "sub_25": {
                        "id": 25,
                        "mode": "video",
                        "name_original": "Channel 25",
                        "name": "EnerGeek Se\u00f1al 1",
                        "sub_name": "",
                        "stream_video_url": "https://stream.wifispeed.cl:3103/live/energeek1live.m3u8",
                        "thumbnail_url": "https://gitlab.com/bitcodingsolutions/TVGram/-/raw/master/TVGram/ChannelsLogo/TvGram.png",
                        "thumbnail_url_original": "https://raw.githubusercontent.com/tvgram-inc/tvgram-inc.github.io/master/images/logo.png"
                    },
                    "sub_26": {
                        "id": 26,
                        "mode": "video",
                        "name_original": "Channel 26",
                        "name": "ERT World",
                        "sub_name": "",
                        "stream_video_url": "http://wpso.com:1936/hls/wzra.m3u8",
                        "thumbnail_url": "https://gitlab.com/bitcodingsolutions/TVGram/-/raw/master/TVGram/ChannelsLogo/TvGram.png",
                        "thumbnail_url_original": "https://raw.githubusercontent.com/tvgram-inc/tvgram-inc.github.io/master/images/logo.png"
                    },
                    "sub_27": {
                        "id": 27,
                        "mode": "video",
                        "name_original": "Channel 27",
                        "name": "Esports Max [Not 24/7]",
                        "sub_name": "",
                        "stream_video_url": "http://vcpar.myplaytv.com/esportsmax/live/playlist.m3u8",
                        "thumbnail_url": "https://gitlab.com/bitcodingsolutions/TVGram/-/raw/master/TVGram/ChannelsLogo/TvGram.png",
                        "thumbnail_url_original": "https://raw.githubusercontent.com/tvgram-inc/tvgram-inc.github.io/master/images/logo.png"
                    },
                    "sub_28": {
                        "id": 28,
                        "mode": "video",
                        "name_original": "Channel 28",
                        "name": "ETB Basque",
                        "sub_name": "",
                        "stream_video_url": "https://multimedia.eitb.eus/live-content/eitbbasque-hls/master.m3u8",
                        "thumbnail_url": "https://gitlab.com/bitcodingsolutions/TVGram/-/raw/master/TVGram/ChannelsLogo/TvGram.png",
                        "thumbnail_url_original": "https://raw.githubusercontent.com/tvgram-inc/tvgram-inc.github.io/master/images/logo.png"
                    },
                    "sub_29": {
                        "id": 29,
                        "mode": "video",
                        "name_original": "Channel 29",
                        "name": "Euro Indie Music Chart TV",
                        "sub_name": "",
                        "stream_video_url": "http://178.33.224.197:1935/euroindiemusic/euroindiemusic/playlist.m3u8",
                        "thumbnail_url": "https://gitlab.com/bitcodingsolutions/TVGram/-/raw/master/TVGram/ChannelsLogo/TvGram.png",
                        "thumbnail_url_original": "https://raw.githubusercontent.com/tvgram-inc/tvgram-inc.github.io/master/images/logo.png"
                    },
                    "sub_30": {
                        "id": 30,
                        "mode": "video",
                        "name_original": "Channel 30",
                        "name": "EWTN el Canal Cat\u00f3lico",
                        "sub_name": "",
                        "stream_video_url": "https://cdn3.wowza.com/1/SmVrQmZCUXZhVDgz/b3J3MFJv/hls/live/playlist.m3u8",
                        "thumbnail_url": "https://gitlab.com/bitcodingsolutions/TVGram/-/raw/master/TVGram/ChannelsLogo/TvGram.png",
                        "thumbnail_url_original": "https://raw.githubusercontent.com/tvgram-inc/tvgram-inc.github.io/master/images/logo.png"
                    },
                    "sub_31": {
                        "id": 31,
                        "mode": "video",
                        "name_original": "Channel 31",
                        "name": "Galicia TV Am\u00e9rica",
                        "sub_name": "",
                        "stream_video_url": "http://america-crtvg.flumotion.com/playlist.m3u8",
                        "thumbnail_url": "https://gitlab.com/bitcodingsolutions/TVGram/-/raw/master/TVGram/ChannelsLogo/TvGram.png",
                        "thumbnail_url_original": "https://raw.githubusercontent.com/tvgram-inc/tvgram-inc.github.io/master/images/logo.png"
                    },
                    "sub_32": {
                        "id": 32,
                        "mode": "video",
                        "name_original": "Channel 32",
                        "name": "Genios TV",
                        "sub_name": "",
                        "stream_video_url": "https://live.obslivestream.com/geniostvmux/index.m3u8",
                        "thumbnail_url": "https://gitlab.com/bitcodingsolutions/TVGram/-/raw/master/TVGram/ChannelsLogo/TvGram.png",
                        "thumbnail_url_original": "https://raw.githubusercontent.com/tvgram-inc/tvgram-inc.github.io/master/images/logo.png"
                    },
                    "sub_33": {
                        "id": 33,
                        "mode": "video",
                        "name_original": "Channel 33",
                        "name": "HispanTV",
                        "sub_name": "",
                        "stream_video_url": "https://live1.presstv.ir/live/hispan.m3u8",
                        "thumbnail_url": "https://gitlab.com/bitcodingsolutions/TVGram/-/raw/master/TVGram/ChannelsLogo/TvGram.png",
                        "thumbnail_url_original": "https://raw.githubusercontent.com/tvgram-inc/tvgram-inc.github.io/master/images/logo.png"
                    },
                    "sub_34": {
                        "id": 34,
                        "mode": "video",
                        "name_original": "Channel 34",
                        "name": "Identidad TV",
                        "sub_name": "",
                        "stream_video_url": "https://5c3fb01839654.streamlock.net:1963/iptvrci/livercitv/playlist.m3u8",
                        "thumbnail_url": "https://gitlab.com/bitcodingsolutions/TVGram/-/raw/master/TVGram/ChannelsLogo/TvGram.png",
                        "thumbnail_url_original": "https://raw.githubusercontent.com/tvgram-inc/tvgram-inc.github.io/master/images/logo.png"
                    },
                    "sub_35": {
                        "id": 35,
                        "mode": "video",
                        "name_original": "Channel 35",
                        "name": "Impacto Televisi\u00f3n",
                        "sub_name": "",
                        "stream_video_url": "https://cloudvideo.servers10.com:8081/impactotv/index.m3u8",
                        "thumbnail_url": "https://gitlab.com/bitcodingsolutions/TVGram/-/raw/master/TVGram/ChannelsLogo/TvGram.png",
                        "thumbnail_url_original": "https://raw.githubusercontent.com/tvgram-inc/tvgram-inc.github.io/master/images/logo.png"
                    },
                    "sub_36": {
                        "id": 36,
                        "mode": "video",
                        "name_original": "Channel 36",
                        "name": "JN19",
                        "sub_name": "",
                        "stream_video_url": "https://servilive.com:3149/live/jn19tvlive.m3u8",
                        "thumbnail_url": "https://gitlab.com/bitcodingsolutions/TVGram/-/raw/master/TVGram/ChannelsLogo/TvGram.png",
                        "thumbnail_url_original": "https://raw.githubusercontent.com/tvgram-inc/tvgram-inc.github.io/master/images/logo.png"
                    },
                    "sub_37": {
                        "id": 37,
                        "mode": "video",
                        "name_original": "Channel 37",
                        "name": "KBS World",
                        "sub_name": "",
                        "stream_video_url": "https://kbsworld-ott.akamaized.net/hls/live/2002341/kbsworld/master.m3u8",
                        "thumbnail_url": "https://gitlab.com/bitcodingsolutions/TVGram/-/raw/master/TVGram/ChannelsLogo/TvGram.png",
                        "thumbnail_url_original": "https://raw.githubusercontent.com/tvgram-inc/tvgram-inc.github.io/master/images/logo.png"
                    },
                    "sub_38": {
                        "id": 38,
                        "mode": "video",
                        "name_original": "Channel 38",
                        "name": "La Ribere\u00f1a",
                        "sub_name": "",
                        "stream_video_url": "https://cloudvideo.servers10.com:8081/8070/index.m3u8",
                        "thumbnail_url": "https://gitlab.com/bitcodingsolutions/TVGram/-/raw/master/TVGram/ChannelsLogo/TvGram.png",
                        "thumbnail_url_original": "https://raw.githubusercontent.com/tvgram-inc/tvgram-inc.github.io/master/images/logo.png"
                    },
                    "sub_39": {
                        "id": 39,
                        "mode": "video",
                        "name_original": "Channel 39",
                        "name": "Mega TV",
                        "sub_name": "",
                        "stream_video_url": "https://hls.servidor.stream/storage/megatv.m3u8",
                        "thumbnail_url": "https://gitlab.com/bitcodingsolutions/TVGram/-/raw/master/TVGram/ChannelsLogo/TvGram.png",
                        "thumbnail_url_original": "https://raw.githubusercontent.com/tvgram-inc/tvgram-inc.github.io/master/images/logo.png"
                    },
                    "sub_40": {
                        "id": 40,
                        "mode": "video",
                        "name_original": "Channel 40",
                        "name": "Metro Globe Network",
                        "sub_name": "",
                        "stream_video_url": "https://edge.medcom.id/live-edge/smil:mgnch.smil/playlist.m3u8",
                        "thumbnail_url": "https://gitlab.com/bitcodingsolutions/TVGram/-/raw/master/TVGram/ChannelsLogo/TvGram.png",
                        "thumbnail_url_original": "https://raw.githubusercontent.com/tvgram-inc/tvgram-inc.github.io/master/images/logo.png"
                    },
                    "sub_41": {
                        "id": 41,
                        "mode": "video",
                        "name_original": "Channel 41",
                        "name": "Miel TV",
                        "sub_name": "",
                        "stream_video_url": "https://7.innovatestream.pe:19360/mieltv/mieltv.m3u8",
                        "thumbnail_url": "https://gitlab.com/bitcodingsolutions/TVGram/-/raw/master/TVGram/ChannelsLogo/TvGram.png",
                        "thumbnail_url_original": "https://raw.githubusercontent.com/tvgram-inc/tvgram-inc.github.io/master/images/logo.png"
                    },
                    "sub_42": {
                        "id": 42,
                        "mode": "video",
                        "name_original": "Channel 42",
                        "name": "MINEDU IPTV 1",
                        "sub_name": "",
                        "stream_video_url": "http://iptv.perueduca.pe:1935/canal1/canal11/playlist.m3u8",
                        "thumbnail_url": "https://gitlab.com/bitcodingsolutions/TVGram/-/raw/master/TVGram/ChannelsLogo/TvGram.png",
                        "thumbnail_url_original": "https://raw.githubusercontent.com/tvgram-inc/tvgram-inc.github.io/master/images/logo.png"
                    },
                    "sub_43": {
                        "id": 43,
                        "mode": "video",
                        "name_original": "Channel 43",
                        "name": "MINEDU IPTV 2",
                        "sub_name": "",
                        "stream_video_url": "http://iptv.perueduca.pe:1935/canal2/canal22/playlist.m3u8",
                        "thumbnail_url": "https://gitlab.com/bitcodingsolutions/TVGram/-/raw/master/TVGram/ChannelsLogo/TvGram.png",
                        "thumbnail_url_original": "https://raw.githubusercontent.com/tvgram-inc/tvgram-inc.github.io/master/images/logo.png"
                    },
                    "sub_44": {
                        "id": 44,
                        "mode": "video",
                        "name_original": "Channel 44",
                        "name": "Monterrico TV",
                        "sub_name": "",
                        "stream_video_url": "http://vs8.live.opencaster.com/20100152275/jcpstream/playlist.m3u8",
                        "thumbnail_url": "https://gitlab.com/bitcodingsolutions/TVGram/-/raw/master/TVGram/ChannelsLogo/TvGram.png",
                        "thumbnail_url_original": "https://raw.githubusercontent.com/tvgram-inc/tvgram-inc.github.io/master/images/logo.png"
                    },
                    "sub_45": {
                        "id": 45,
                        "mode": "video",
                        "name_original": "Channel 45",
                        "name": "Myanmar International TV",
                        "sub_name": "",
                        "stream_video_url": "https://5a13fe32ef748.streamlock.net/mmplay/mitv/playlist.m3u8",
                        "thumbnail_url": "https://gitlab.com/bitcodingsolutions/TVGram/-/raw/master/TVGram/ChannelsLogo/TvGram.png",
                        "thumbnail_url_original": "https://raw.githubusercontent.com/tvgram-inc/tvgram-inc.github.io/master/images/logo.png"
                    },
                    "sub_46": {
                        "id": 46,
                        "mode": "video",
                        "name_original": "Channel 46",
                        "name": "NASA TV",
                        "sub_name": "",
                        "stream_video_url": "https://uplynkcontent.sinclairstoryline.com/channel/ddd76fdc1c0a456ba537e4f48e827d3e.m3u8",
                        "thumbnail_url": "https://gitlab.com/bitcodingsolutions/TVGram/-/raw/master/TVGram/ChannelsLogo/TvGram.png",
                        "thumbnail_url_original": "https://raw.githubusercontent.com/tvgram-inc/tvgram-inc.github.io/master/images/logo.png"
                    },
                    "sub_47": {
                        "id": 47,
                        "mode": "video",
                        "name_original": "Channel 47",
                        "name": "Nativa",
                        "sub_name": "",
                        "stream_video_url": "https://servilive.com:3449/live/mlecaroslive.m3u8",
                        "thumbnail_url": "https://gitlab.com/bitcodingsolutions/TVGram/-/raw/master/TVGram/ChannelsLogo/TvGram.png",
                        "thumbnail_url_original": "https://raw.githubusercontent.com/tvgram-inc/tvgram-inc.github.io/master/images/logo.png"
                    },
                    "sub_48": {
                        "id": 48,
                        "mode": "video",
                        "name_original": "Channel 48",
                        "name": "Nativa TV",
                        "sub_name": "",
                        "stream_video_url": "https://7.innovatestream.pe:19360/nativatv/nativatv.m3u8",
                        "thumbnail_url": "https://gitlab.com/bitcodingsolutions/TVGram/-/raw/master/TVGram/ChannelsLogo/TvGram.png",
                        "thumbnail_url_original": "https://raw.githubusercontent.com/tvgram-inc/tvgram-inc.github.io/master/images/logo.png"
                    },
                    "sub_49": {
                        "id": 49,
                        "mode": "video",
                        "name_original": "Channel 49",
                        "name": "NHK World Japan",
                        "sub_name": "",
                        "stream_video_url": "https://nhkwlive-ojp.akamaized.net/hls/live/2003459/nhkwlive-ojp-en/index.m3u8",
                        "thumbnail_url": "https://gitlab.com/bitcodingsolutions/TVGram/-/raw/master/TVGram/ChannelsLogo/TvGram.png",
                        "thumbnail_url_original": "https://raw.githubusercontent.com/tvgram-inc/tvgram-inc.github.io/master/images/logo.png"
                    },
                    "sub_50": {
                        "id": 50,
                        "mode": "video",
                        "name_original": "Channel 50",
                        "name": "NorSelva RTV [Not 24/7]",
                        "sub_name": "",
                        "stream_video_url": "https://live.obslivestream.com/norselvatv/index.m3u8",
                        "thumbnail_url": "https://gitlab.com/bitcodingsolutions/TVGram/-/raw/master/TVGram/ChannelsLogo/TvGram.png",
                        "thumbnail_url_original": "https://raw.githubusercontent.com/tvgram-inc/tvgram-inc.github.io/master/images/logo.png"
                    },
                    "sub_51": {
                        "id": 51,
                        "mode": "video",
                        "name_original": "Channel 51",
                        "name": "Nuevo Tiempo",
                        "sub_name": "",
                        "stream_video_url": "https://stream.live.novotempo.com/tv/smil:tvnuevotiempo.smil/playlist.m3u8",
                        "thumbnail_url": "https://gitlab.com/bitcodingsolutions/TVGram/-/raw/master/TVGram/ChannelsLogo/TvGram.png",
                        "thumbnail_url_original": "https://raw.githubusercontent.com/tvgram-inc/tvgram-inc.github.io/master/images/logo.png"
                    },
                    "sub_52": {
                        "id": 52,
                        "mode": "video",
                        "name_original": "Channel 52",
                        "name": "Oasis RTV",
                        "sub_name": "",
                        "stream_video_url": "https://7.innovatestream.pe:19360/oasisrtv/oasisrtv.m3u8",
                        "thumbnail_url": "https://gitlab.com/bitcodingsolutions/TVGram/-/raw/master/TVGram/ChannelsLogo/TvGram.png",
                        "thumbnail_url_original": "https://raw.githubusercontent.com/tvgram-inc/tvgram-inc.github.io/master/images/logo.png"
                    },
                    "sub_53": {
                        "id": 53,
                        "mode": "video",
                        "name_original": "Channel 53",
                        "name": "OK TeVe",
                        "sub_name": "",
                        "stream_video_url": "https://stream.plixitv.live/oktv/oktv/playlist.m3u8",
                        "thumbnail_url": "https://gitlab.com/bitcodingsolutions/TVGram/-/raw/master/TVGram/ChannelsLogo/TvGram.png",
                        "thumbnail_url_original": "https://raw.githubusercontent.com/tvgram-inc/tvgram-inc.github.io/master/images/logo.png"
                    },
                    "sub_54": {
                        "id": 54,
                        "mode": "video",
                        "name_original": "Channel 54",
                        "name": "Onda Digital",
                        "sub_name": "",
                        "stream_video_url": "https://tv.ondadigital.pe:1936/ondatv2/ondatv2/playlist.m3u8",
                        "thumbnail_url": "https://gitlab.com/bitcodingsolutions/TVGram/-/raw/master/TVGram/ChannelsLogo/TvGram.png",
                        "thumbnail_url_original": "https://raw.githubusercontent.com/tvgram-inc/tvgram-inc.github.io/master/images/logo.png"
                    },
                    "sub_55": {
                        "id": 55,
                        "mode": "video",
                        "name_original": "Channel 55",
                        "name": "Ovacion TV",
                        "sub_name": "",
                        "stream_video_url": "http://cdn2.ujjina.com:1935/iptvovacion1/liveovacion1tv/playlist.m3u8",
                        "thumbnail_url": "https://gitlab.com/bitcodingsolutions/TVGram/-/raw/master/TVGram/ChannelsLogo/TvGram.png",
                        "thumbnail_url_original": "https://raw.githubusercontent.com/tvgram-inc/tvgram-inc.github.io/master/images/logo.png"
                    },
                    "sub_56": {
                        "id": 56,
                        "mode": "video",
                        "name_original": "Channel 56",
                        "name": "Platzi TV",
                        "sub_name": "",
                        "stream_video_url": "https://mdstrm.com/live-stream-playlist/629a63ae8df27c082901f78b.m3u8",
                        "thumbnail_url": "https://gitlab.com/bitcodingsolutions/TVGram/-/raw/master/TVGram/ChannelsLogo/TvGram.png",
                        "thumbnail_url_original": "https://raw.githubusercontent.com/tvgram-inc/tvgram-inc.github.io/master/images/logo.png"
                    },
                    "sub_57": {
                        "id": 57,
                        "mode": "video",
                        "name_original": "Channel 57",
                        "name": "QT Televisi\u00f3n",
                        "sub_name": "",
                        "stream_video_url": "https://servilive.com:3753/live/qosqotimeslive.m3u8",
                        "thumbnail_url": "https://gitlab.com/bitcodingsolutions/TVGram/-/raw/master/TVGram/ChannelsLogo/TvGram.png",
                        "thumbnail_url_original": "https://raw.githubusercontent.com/tvgram-inc/tvgram-inc.github.io/master/images/logo.png"
                    },
                    "sub_58": {
                        "id": 58,
                        "mode": "video",
                        "name_original": "Channel 58",
                        "name": "Radio San Borja TV",
                        "sub_name": "",
                        "stream_video_url": "https://5c3fb01839654.streamlock.net:1963/iptvsanborja/livesanborjatv/playlist.m3u8",
                        "thumbnail_url": "https://gitlab.com/bitcodingsolutions/TVGram/-/raw/master/TVGram/ChannelsLogo/TvGram.png",
                        "thumbnail_url_original": "https://raw.githubusercontent.com/tvgram-inc/tvgram-inc.github.io/master/images/logo.png"
                    },
                    "sub_59": {
                        "id": 59,
                        "mode": "video",
                        "name_original": "Channel 59",
                        "name": "Radio Tropical Tarapoto",
                        "sub_name": "",
                        "stream_video_url": "https://videoserver.tmcreativos.com:19360/raditropical/raditropical.m3u8",
                        "thumbnail_url": "https://gitlab.com/bitcodingsolutions/TVGram/-/raw/master/TVGram/ChannelsLogo/TvGram.png",
                        "thumbnail_url_original": "https://raw.githubusercontent.com/tvgram-inc/tvgram-inc.github.io/master/images/logo.png"
                    },
                    "sub_60": {
                        "id": 60,
                        "mode": "video",
                        "name_original": "Channel 60",
                        "name": "Radio TV Tendencias [Not 24/7]",
                        "sub_name": "",
                        "stream_video_url": "https://s1.tvdatta.com:3950/multi_web/play.m3u8",
                        "thumbnail_url": "https://gitlab.com/bitcodingsolutions/TVGram/-/raw/master/TVGram/ChannelsLogo/TvGram.png",
                        "thumbnail_url_original": "https://raw.githubusercontent.com/tvgram-inc/tvgram-inc.github.io/master/images/logo.png"
                    },
                    "sub_61": {
                        "id": 61,
                        "mode": "video",
                        "name_original": "Channel 61",
                        "name": "RadioInka",
                        "sub_name": "",
                        "stream_video_url": "https://tv.portalexpress.es:3175/hybrid/play.m3u8",
                        "thumbnail_url": "https://gitlab.com/bitcodingsolutions/TVGram/-/raw/master/TVGram/ChannelsLogo/TvGram.png",
                        "thumbnail_url_original": "https://raw.githubusercontent.com/tvgram-inc/tvgram-inc.github.io/master/images/logo.png"
                    },
                    "sub_62": {
                        "id": 62,
                        "mode": "video",
                        "name_original": "Channel 62",
                        "name": "Red Bull TV",
                        "sub_name": "",
                        "stream_video_url": "https://rbmn-live.akamaized.net/hls/live/590964/BoRB-AT/master.m3u8",
                        "thumbnail_url": "https://gitlab.com/bitcodingsolutions/TVGram/-/raw/master/TVGram/ChannelsLogo/TvGram.png",
                        "thumbnail_url_original": "https://raw.githubusercontent.com/tvgram-inc/tvgram-inc.github.io/master/images/logo.png"
                    },
                    "sub_63": {
                        "id": 63,
                        "mode": "video",
                        "name_original": "Channel 63",
                        "name": "Regi\u00f3n TV",
                        "sub_name": "",
                        "stream_video_url": "https://servilive.com:3757/live/regiontvlive.m3u8",
                        "thumbnail_url": "https://gitlab.com/bitcodingsolutions/TVGram/-/raw/master/TVGram/ChannelsLogo/TvGram.png",
                        "thumbnail_url_original": "https://raw.githubusercontent.com/tvgram-inc/tvgram-inc.github.io/master/images/logo.png"
                    },
                    "sub_64": {
                        "id": 64,
                        "mode": "video",
                        "name_original": "Channel 64",
                        "name": "Retro Plus 3",
                        "sub_name": "",
                        "stream_video_url": "https://59f1cbe63db89.streamlock.net:1443/retroplussenal3/retroplussenal3/playlist.m3u8",
                        "thumbnail_url": "https://gitlab.com/bitcodingsolutions/TVGram/-/raw/master/TVGram/ChannelsLogo/TvGram.png",
                        "thumbnail_url_original": "https://raw.githubusercontent.com/tvgram-inc/tvgram-inc.github.io/master/images/logo.png"
                    },
                    "sub_65": {
                        "id": 65,
                        "mode": "video",
                        "name_original": "Channel 65",
                        "name": "RN Televisi\u00f3n",
                        "sub_name": "",
                        "stream_video_url": "https://multimedia.tmcreativos.com:1936/wsgzmqbxse/wsgzmqbxse/playlist.m3u8",
                        "thumbnail_url": "https://gitlab.com/bitcodingsolutions/TVGram/-/raw/master/TVGram/ChannelsLogo/TvGram.png",
                        "thumbnail_url_original": "https://raw.githubusercontent.com/tvgram-inc/tvgram-inc.github.io/master/images/logo.png"
                    },
                    "sub_66": {
                        "id": 66,
                        "mode": "video",
                        "name_original": "Channel 66",
                        "name": "RSelvaTV",
                        "sub_name": "",
                        "stream_video_url": "https://live.obslivestream.com/selvatv/index.m3u8",
                        "thumbnail_url": "https://gitlab.com/bitcodingsolutions/TVGram/-/raw/master/TVGram/ChannelsLogo/TvGram.png",
                        "thumbnail_url_original": "https://raw.githubusercontent.com/tvgram-inc/tvgram-inc.github.io/master/images/logo.png"
                    },
                    "sub_67": {
                        "id": 67,
                        "mode": "video",
                        "name_original": "Channel 67",
                        "name": "RT Documentary Russian",
                        "sub_name": "",
                        "stream_video_url": "http://uiptv.do.am/1ufc/300663722/playlist.m3u8",
                        "thumbnail_url": "https://gitlab.com/bitcodingsolutions/TVGram/-/raw/master/TVGram/ChannelsLogo/TvGram.png",
                        "thumbnail_url_original": "https://raw.githubusercontent.com/tvgram-inc/tvgram-inc.github.io/master/images/logo.png"
                    },
                    "sub_68": {
                        "id": 68,
                        "mode": "video",
                        "name_original": "Channel 68",
                        "name": "RT en Espa\u00f1ol",
                        "sub_name": "",
                        "stream_video_url": "https://rt-esp.rttv.com/live/rtesp/playlist.m3u8",
                        "thumbnail_url": "https://gitlab.com/bitcodingsolutions/TVGram/-/raw/master/TVGram/ChannelsLogo/TvGram.png",
                        "thumbnail_url_original": "https://raw.githubusercontent.com/tvgram-inc/tvgram-inc.github.io/master/images/logo.png"
                    },
                    "sub_69": {
                        "id": 69,
                        "mode": "video",
                        "name_original": "Channel 69",
                        "name": "RTV Total",
                        "sub_name": "",
                        "stream_video_url": "https://7.innovatestream.pe:19360/rtvtotal/rtvtotal.m3u8",
                        "thumbnail_url": "https://gitlab.com/bitcodingsolutions/TVGram/-/raw/master/TVGram/ChannelsLogo/TvGram.png",
                        "thumbnail_url_original": "https://raw.githubusercontent.com/tvgram-inc/tvgram-inc.github.io/master/images/logo.png"
                    },
                    "sub_70": {
                        "id": 70,
                        "mode": "video",
                        "name_original": "Channel 70",
                        "name": "SanjuaneraTV [Not 24/7]",
                        "sub_name": "",
                        "stream_video_url": "https://live.obslivestream.com/sanjuanera/index.m3u8",
                        "thumbnail_url": "https://gitlab.com/bitcodingsolutions/TVGram/-/raw/master/TVGram/ChannelsLogo/TvGram.png",
                        "thumbnail_url_original": "https://raw.githubusercontent.com/tvgram-inc/tvgram-inc.github.io/master/images/logo.png"
                    },
                    "sub_71": {
                        "id": 71,
                        "mode": "video",
                        "name_original": "Channel 71",
                        "name": "Ski TV",
                        "sub_name": "",
                        "stream_video_url": "https://d2xeo83q8fcni6.cloudfront.net/v1/master/9d062541f2ff39b5c0f48b743c6411d25f62fc25/SkiTV-SynapseTV/193.m3u8",
                        "thumbnail_url": "https://gitlab.com/bitcodingsolutions/TVGram/-/raw/master/TVGram/ChannelsLogo/TvGram.png",
                        "thumbnail_url_original": "https://raw.githubusercontent.com/tvgram-inc/tvgram-inc.github.io/master/images/logo.png"
                    },
                    "sub_72": {
                        "id": 72,
                        "mode": "video",
                        "name_original": "Channel 72",
                        "name": "Sol Televisi\u00f3n",
                        "sub_name": "",
                        "stream_video_url": "http://190.211.140.89:8081/SVTranscoder/SOLTVabr.stream/playlist.m3u8",
                        "thumbnail_url": "https://gitlab.com/bitcodingsolutions/TVGram/-/raw/master/TVGram/ChannelsLogo/TvGram.png",
                        "thumbnail_url_original": "https://raw.githubusercontent.com/tvgram-inc/tvgram-inc.github.io/master/images/logo.png"
                    },
                    "sub_73": {
                        "id": 73,
                        "mode": "video",
                        "name_original": "Channel 73",
                        "name": "SoloStandUp",
                        "sub_name": "",
                        "stream_video_url": "https://paneltv.online:1936/8116/8116/playlist.m3u8",
                        "thumbnail_url": "https://gitlab.com/bitcodingsolutions/TVGram/-/raw/master/TVGram/ChannelsLogo/TvGram.png",
                        "thumbnail_url_original": "https://raw.githubusercontent.com/tvgram-inc/tvgram-inc.github.io/master/images/logo.png"
                    },
                    "sub_74": {
                        "id": 74,
                        "mode": "video",
                        "name_original": "Channel 74",
                        "name": "Tastemade en Espa\u00f1ol",
                        "sub_name": "",
                        "stream_video_url": "https://tastemade-es8intl-roku.amagi.tv/playlist.m3u8",
                        "thumbnail_url": "https://gitlab.com/bitcodingsolutions/TVGram/-/raw/master/TVGram/ChannelsLogo/TvGram.png",
                        "thumbnail_url_original": "https://raw.githubusercontent.com/tvgram-inc/tvgram-inc.github.io/master/images/logo.png"
                    },
                    "sub_75": {
                        "id": 75,
                        "mode": "video",
                        "name_original": "Channel 75",
                        "name": "Telecolor",
                        "sub_name": "",
                        "stream_video_url": "https://live.obslivestream.com/telecolormux/index.m3u8",
                        "thumbnail_url": "https://gitlab.com/bitcodingsolutions/TVGram/-/raw/master/TVGram/ChannelsLogo/TvGram.png",
                        "thumbnail_url_original": "https://raw.githubusercontent.com/tvgram-inc/tvgram-inc.github.io/master/images/logo.png"
                    },
                    "sub_76": {
                        "id": 76,
                        "mode": "video",
                        "name_original": "Channel 76",
                        "name": "teleSUR",
                        "sub_name": "",
                        "stream_video_url": "https://github.com/LaneSh4d0w/IPTV_Exception/raw/master/channels/ve/telesur.m3u8",
                        "thumbnail_url": "https://gitlab.com/bitcodingsolutions/TVGram/-/raw/master/TVGram/ChannelsLogo/TvGram.png",
                        "thumbnail_url_original": "https://raw.githubusercontent.com/tvgram-inc/tvgram-inc.github.io/master/images/logo.png"
                    },
                    "sub_77": {
                        "id": 77,
                        "mode": "video",
                        "name_original": "Channel 77",
                        "name": "Telesur",
                        "sub_name": "",
                        "stream_video_url": "https://1667517699.rsc.cdn77.org/hls/ilo.m3u8",
                        "thumbnail_url": "https://gitlab.com/bitcodingsolutions/TVGram/-/raw/master/TVGram/ChannelsLogo/TvGram.png",
                        "thumbnail_url_original": "https://raw.githubusercontent.com/tvgram-inc/tvgram-inc.github.io/master/images/logo.png"
                    },
                    "sub_78": {
                        "id": 78,
                        "mode": "video",
                        "name_original": "Channel 78",
                        "name": "Telesur",
                        "sub_name": "",
                        "stream_video_url": "https://1667517699.rsc.cdn77.org/hls/mollendo.m3u8",
                        "thumbnail_url": "https://gitlab.com/bitcodingsolutions/TVGram/-/raw/master/TVGram/ChannelsLogo/TvGram.png",
                        "thumbnail_url_original": "https://raw.githubusercontent.com/tvgram-inc/tvgram-inc.github.io/master/images/logo.png"
                    },
                    "sub_79": {
                        "id": 79,
                        "mode": "video",
                        "name_original": "Channel 79",
                        "name": "Telesur",
                        "sub_name": "",
                        "stream_video_url": "https://1667517699.rsc.cdn77.org/hls/moquegua.m3u8",
                        "thumbnail_url": "https://gitlab.com/bitcodingsolutions/TVGram/-/raw/master/TVGram/ChannelsLogo/TvGram.png",
                        "thumbnail_url_original": "https://raw.githubusercontent.com/tvgram-inc/tvgram-inc.github.io/master/images/logo.png"
                    },
                    "sub_80": {
                        "id": 80,
                        "mode": "video",
                        "name_original": "Channel 80",
                        "name": "Telesur",
                        "sub_name": "",
                        "stream_video_url": "https://1667517699.rsc.cdn77.org/hls/tacna.m3u8",
                        "thumbnail_url": "https://gitlab.com/bitcodingsolutions/TVGram/-/raw/master/TVGram/ChannelsLogo/TvGram.png",
                        "thumbnail_url_original": "https://raw.githubusercontent.com/tvgram-inc/tvgram-inc.github.io/master/images/logo.png"
                    },
                    "sub_81": {
                        "id": 81,
                        "mode": "video",
                        "name_original": "Channel 81",
                        "name": "Tevex",
                        "sub_name": "",
                        "stream_video_url": "https://v4.tustreaming.cl/tevexinter/index.m3u8",
                        "thumbnail_url": "https://gitlab.com/bitcodingsolutions/TVGram/-/raw/master/TVGram/ChannelsLogo/TvGram.png",
                        "thumbnail_url_original": "https://raw.githubusercontent.com/tvgram-inc/tvgram-inc.github.io/master/images/logo.png"
                    },
                    "sub_82": {
                        "id": 82,
                        "mode": "video",
                        "name_original": "Channel 82",
                        "name": "Top FM TV",
                        "sub_name": "",
                        "stream_video_url": "https://tvdatta.com:3084/live/toptvaguaytialive.m3u8",
                        "thumbnail_url": "https://gitlab.com/bitcodingsolutions/TVGram/-/raw/master/TVGram/ChannelsLogo/TvGram.png",
                        "thumbnail_url_original": "https://raw.githubusercontent.com/tvgram-inc/tvgram-inc.github.io/master/images/logo.png"
                    },
                    "sub_83": {
                        "id": 83,
                        "mode": "video",
                        "name_original": "Channel 83",
                        "name": "Trivu",
                        "sub_name": "",
                        "stream_video_url": "https://servilive.com:3244/live/trivutvlive.m3u8",
                        "thumbnail_url": "https://gitlab.com/bitcodingsolutions/TVGram/-/raw/master/TVGram/ChannelsLogo/TvGram.png",
                        "thumbnail_url_original": "https://raw.githubusercontent.com/tvgram-inc/tvgram-inc.github.io/master/images/logo.png"
                    },
                    "sub_84": {
                        "id": 84,
                        "mode": "video",
                        "name_original": "Channel 84",
                        "name": "TRT World",
                        "sub_name": "",
                        "stream_video_url": "https://tv-trtworld.live.trt.com.tr/master.m3u8",
                        "thumbnail_url": "https://gitlab.com/bitcodingsolutions/TVGram/-/raw/master/TVGram/ChannelsLogo/TvGram.png",
                        "thumbnail_url_original": "https://raw.githubusercontent.com/tvgram-inc/tvgram-inc.github.io/master/images/logo.png"
                    },
                    "sub_85": {
                        "id": 85,
                        "mode": "video",
                        "name_original": "Channel 85",
                        "name": "Turbo Mix Radio TV",
                        "sub_name": "",
                        "stream_video_url": "https://7.innovatestream.pe:19360/turbomixoficial/turbomixoficial.m3u8",
                        "thumbnail_url": "https://gitlab.com/bitcodingsolutions/TVGram/-/raw/master/TVGram/ChannelsLogo/TvGram.png",
                        "thumbnail_url_original": "https://raw.githubusercontent.com/tvgram-inc/tvgram-inc.github.io/master/images/logo.png"
                    },
                    "sub_86": {
                        "id": 86,
                        "mode": "video",
                        "name_original": "Channel 86",
                        "name": "TV Cosmos",
                        "sub_name": "",
                        "stream_video_url": "https://5790d294af2dc.streamlock.net/8134/8134/playlist.m3u8",
                        "thumbnail_url": "https://gitlab.com/bitcodingsolutions/TVGram/-/raw/master/TVGram/ChannelsLogo/TvGram.png",
                        "thumbnail_url_original": "https://raw.githubusercontent.com/tvgram-inc/tvgram-inc.github.io/master/images/logo.png"
                    },
                    "sub_87": {
                        "id": 87,
                        "mode": "video",
                        "name_original": "Channel 87",
                        "name": "TV Sistemas Cuzco",
                        "sub_name": "",
                        "stream_video_url": "https://stmv1.voxhdnet.com/sistemascusco/sistemascusco/playlist.m3u8",
                        "thumbnail_url": "https://gitlab.com/bitcodingsolutions/TVGram/-/raw/master/TVGram/ChannelsLogo/TvGram.png",
                        "thumbnail_url_original": "https://raw.githubusercontent.com/tvgram-inc/tvgram-inc.github.io/master/images/logo.png"
                    },
                    "sub_88": {
                        "id": 88,
                        "mode": "video",
                        "name_original": "Channel 88",
                        "name": "TVG Am\u00e9rica",
                        "sub_name": "",
                        "stream_video_url": "https://america-crtvg.flumotion.com/playlist.m3u8",
                        "thumbnail_url": "https://gitlab.com/bitcodingsolutions/TVGram/-/raw/master/TVGram/ChannelsLogo/TvGram.png",
                        "thumbnail_url_original": "https://raw.githubusercontent.com/tvgram-inc/tvgram-inc.github.io/master/images/logo.png"
                    },
                    "sub_89": {
                        "id": 89,
                        "mode": "video",
                        "name_original": "Channel 89",
                        "name": "TVM Internacional",
                        "sub_name": "",
                        "stream_video_url": "http://online.tvm.co.mz:1935/live/smil:Channel2.smil/playlist.m3u8",
                        "thumbnail_url": "https://gitlab.com/bitcodingsolutions/TVGram/-/raw/master/TVGram/ChannelsLogo/TvGram.png",
                        "thumbnail_url_original": "https://raw.githubusercontent.com/tvgram-inc/tvgram-inc.github.io/master/images/logo.png"
                    },
                    "sub_90": {
                        "id": 90,
                        "mode": "video",
                        "name_original": "Channel 90",
                        "name": "UCL",
                        "sub_name": "",
                        "stream_video_url": "http://162.246.18.122:8081/telepuerto-master/ucl-abr/playlist.m3u8",
                        "thumbnail_url": "https://gitlab.com/bitcodingsolutions/TVGram/-/raw/master/TVGram/ChannelsLogo/TvGram.png",
                        "thumbnail_url_original": "https://raw.githubusercontent.com/tvgram-inc/tvgram-inc.github.io/master/images/logo.png"
                    },
                    "sub_91": {
                        "id": 91,
                        "mode": "video",
                        "name_original": "Channel 91",
                        "name": "UN Web TV",
                        "sub_name": "",
                        "stream_video_url": "https://cdnapi.kaltura.com/p/2503451/sp/250345100/playManifest/entryId/1_gb6tjmle/protocol/https/format/applehttp/a.m3u8",
                        "thumbnail_url": "https://gitlab.com/bitcodingsolutions/TVGram/-/raw/master/TVGram/ChannelsLogo/TvGram.png",
                        "thumbnail_url_original": "https://raw.githubusercontent.com/tvgram-inc/tvgram-inc.github.io/master/images/logo.png"
                    },
                    "sub_92": {
                        "id": 92,
                        "mode": "video",
                        "name_original": "Channel 92",
                        "name": "Uranio TV",
                        "sub_name": "",
                        "stream_video_url": "https://live.obslivestream.com/uraniotv/index.m3u8",
                        "thumbnail_url": "https://gitlab.com/bitcodingsolutions/TVGram/-/raw/master/TVGram/ChannelsLogo/TvGram.png",
                        "thumbnail_url_original": "https://raw.githubusercontent.com/tvgram-inc/tvgram-inc.github.io/master/images/logo.png"
                    },
                    "sub_93": {
                        "id": 93,
                        "mode": "video",
                        "name_original": "Channel 93",
                        "name": "Vallenato Internacional",
                        "sub_name": "",
                        "stream_video_url": "https://59a564764e2b6.streamlock.net/vallenato/Vallenato2/playlist.m3u8",
                        "thumbnail_url": "https://gitlab.com/bitcodingsolutions/TVGram/-/raw/master/TVGram/ChannelsLogo/TvGram.png",
                        "thumbnail_url_original": "https://raw.githubusercontent.com/tvgram-inc/tvgram-inc.github.io/master/images/logo.png"
                    },
                    "sub_94": {
                        "id": 94,
                        "mode": "video",
                        "name_original": "Channel 94",
                        "name": "V\u00eda Televisi\u00f3n",
                        "sub_name": "",
                        "stream_video_url": "https://multimedia.tmcreativos.com:1936/viatelevision/viatelevision/playlist.m3u8",
                        "thumbnail_url": "https://gitlab.com/bitcodingsolutions/TVGram/-/raw/master/TVGram/ChannelsLogo/TvGram.png",
                        "thumbnail_url_original": "https://raw.githubusercontent.com/tvgram-inc/tvgram-inc.github.io/master/images/logo.png"
                    },
                    "sub_95": {
                        "id": 95,
                        "mode": "video",
                        "name_original": "Channel 95",
                        "name": "Visi\u00f3n Noticias Per\u00fa",
                        "sub_name": "",
                        "stream_video_url": "https://multimedia.tmcreativos.com:1936/visionnoticias/visionnoticias/playlist.m3u8",
                        "thumbnail_url": "https://gitlab.com/bitcodingsolutions/TVGram/-/raw/master/TVGram/ChannelsLogo/TvGram.png",
                        "thumbnail_url_original": "https://raw.githubusercontent.com/tvgram-inc/tvgram-inc.github.io/master/images/logo.png"
                    },
                    "sub_96": {
                        "id": 96,
                        "mode": "video",
                        "name_original": "Channel 96",
                        "name": "World Poker Tour",
                        "sub_name": "",
                        "stream_video_url": "https://d3w4n3hhseniak.cloudfront.net/v1/master/9d062541f2ff39b5c0f48b743c6411d25f62fc25/WPT-DistroTV/150.m3u8",
                        "thumbnail_url": "https://gitlab.com/bitcodingsolutions/TVGram/-/raw/master/TVGram/ChannelsLogo/TvGram.png",
                        "thumbnail_url_original": "https://raw.githubusercontent.com/tvgram-inc/tvgram-inc.github.io/master/images/logo.png"
                    },
                    "sub_97": {
                        "id": 97,
                        "mode": "video",
                        "name_original": "Channel 97",
                        "name": "WOW TV",
                        "sub_name": "",
                        "stream_video_url": "https://cdn.elsalvadordigital.com:1936/wowtv/smil:wowtv.smil/playlist.m3u8",
                        "thumbnail_url": "https://gitlab.com/bitcodingsolutions/TVGram/-/raw/master/TVGram/ChannelsLogo/TvGram.png",
                        "thumbnail_url_original": "https://raw.githubusercontent.com/tvgram-inc/tvgram-inc.github.io/master/images/logo.png"
                    },
                    "sub_98": {
                        "id": 98,
                        "mode": "video",
                        "name_original": "Channel 1",
                        "name": "Agro TV",
                        "sub_name": "",
                        "stream_video_url": "https://ed21ov.live.opencaster.com/pAtGzcAnwziC/index.m3u8",
                        "thumbnail_url": "https://gitlab.com/bitcodingsolutions/TVGram/-/raw/master/TVGram/ChannelsLogo/TvGram.png",
                        "thumbnail_url_original": "https://raw.githubusercontent.com/tvgram-inc/tvgram-inc.github.io/master/images/logo.png"
                    },
                    "sub_99": {
                        "id": 99,
                        "mode": "video",
                        "name_original": "Channel 2",
                        "name": "Agrotendencia TV",
                        "sub_name": "",
                        "stream_video_url": "https://5fc584f3f19c9.streamlock.net/agrotendencia/videoagrotendencia_hls1/playlist.m3u8",
                        "thumbnail_url": "https://gitlab.com/bitcodingsolutions/TVGram/-/raw/master/TVGram/ChannelsLogo/TvGram.png",
                        "thumbnail_url_original": "https://raw.githubusercontent.com/tvgram-inc/tvgram-inc.github.io/master/images/logo.png"
                    },
                    "sub_100": {
                        "id": 100,
                        "mode": "video",
                        "name_original": "Channel 3",
                        "name": "Antares Televisi\u00f3n",
                        "sub_name": "",
                        "stream_video_url": "https://5c3fb01839654.streamlock.net:1963/iptvantares/liveantarestv/playlist.m3u8",
                        "thumbnail_url": "https://gitlab.com/bitcodingsolutions/TVGram/-/raw/master/TVGram/ChannelsLogo/TvGram.png",
                        "thumbnail_url_original": "https://raw.githubusercontent.com/tvgram-inc/tvgram-inc.github.io/master/images/logo.png"
                    },
                    "sub_101": {
                        "id": 101,
                        "mode": "video",
                        "name_original": "Channel 4",
                        "name": "AsiriTV",
                        "sub_name": "",
                        "stream_video_url": "https://video2.lhdserver.es/asiritv/live.m3u8",
                        "thumbnail_url": "https://gitlab.com/bitcodingsolutions/TVGram/-/raw/master/TVGram/ChannelsLogo/TvGram.png",
                        "thumbnail_url_original": "https://raw.githubusercontent.com/tvgram-inc/tvgram-inc.github.io/master/images/logo.png"
                    }
                }
            }
        }
    }
}