{
    "TV_Data": {
        "Channel_List": {
            "is_channel_list": true,
            "is_override": true,
            "thumb_width": 150,
            "all_Channels_Tab_Name": "",
            "main": {
                "id": 1,
                "name": "Russia Channels",
                "sub_name": "Channels",
                "thumbnail_url": "https://flagpedia.net/data/flags/h80/ru.png",
                "sub": {
                    "sub_1": {
                        "id": 1,
                        "mode": "video",
                        "name_original": "Channel 1",
                        "name": "2x2",
                        "sub_name": "",
                        "stream_video_url": "https://bl.uma.media/live/317805/HLS/4614144_3,2883584_2,1153024_1/1613019214/3754dbee773afc02014172ca26d3bb79/playlist.m3u8",
                        "thumbnail_url": "https://gitlab.com/bitcodingsolutions/TVGram/-/raw/master/TVGram/ChannelsLogo/TvGram.png",
                        "thumbnail_url_original": "https://raw.githubusercontent.com/tvgram-inc/tvgram-inc.github.io/master/images/logo.png"
                    },
                    "sub_2": {
                        "id": 2,
                        "mode": "video",
                        "name_original": "Channel 2",
                        "name": "24 \u041a\u0430\u043d\u0430\u043b",
                        "sub_name": "",
                        "stream_video_url": "http://streamvideol1.luxnet.ua/news24/smil:news24.stream.smil/playlist.m3u8",
                        "thumbnail_url": "https://gitlab.com/bitcodingsolutions/TVGram/-/raw/master/TVGram/ChannelsLogo/TvGram.png",
                        "thumbnail_url_original": "https://raw.githubusercontent.com/tvgram-inc/tvgram-inc.github.io/master/images/logo.png"
                    },
                    "sub_3": {
                        "id": 3,
                        "mode": "video",
                        "name_original": "Channel 3",
                        "name": "43 \u043a\u0430\u043d\u0430\u043b",
                        "sub_name": "",
                        "stream_video_url": "http://sochinskayatrk.ru/hdtv/hls/43Channel_hd/playlist.m3u8",
                        "thumbnail_url": "https://gitlab.com/bitcodingsolutions/TVGram/-/raw/master/TVGram/ChannelsLogo/TvGram.png",
                        "thumbnail_url_original": "https://raw.githubusercontent.com/tvgram-inc/tvgram-inc.github.io/master/images/logo.png"
                    },
                    "sub_4": {
                        "id": 4,
                        "mode": "video",
                        "name_original": "Channel 4",
                        "name": "100% News",
                        "sub_name": "",
                        "stream_video_url": "http://85.238.112.40:8810/hls_sec/239.33.16.32-.m3u8",
                        "thumbnail_url": "https://gitlab.com/bitcodingsolutions/TVGram/-/raw/master/TVGram/ChannelsLogo/TvGram.png",
                        "thumbnail_url_original": "https://raw.githubusercontent.com/tvgram-inc/tvgram-inc.github.io/master/images/logo.png"
                    },
                    "sub_5": {
                        "id": 5,
                        "mode": "video",
                        "name_original": "Channel 5",
                        "name": "360\u00b0",
                        "sub_name": "",
                        "stream_video_url": "https://edge2-tv-ll.facecast.io/evacoder_hls_hi/CkxfR1xNUAJwTgtXTBZTAJli/index.m3u8",
                        "thumbnail_url": "https://gitlab.com/bitcodingsolutions/TVGram/-/raw/master/TVGram/ChannelsLogo/TvGram.png",
                        "thumbnail_url_original": "https://raw.githubusercontent.com/tvgram-inc/tvgram-inc.github.io/master/images/logo.png"
                    },
                    "sub_6": {
                        "id": 6,
                        "mode": "video",
                        "name_original": "Channel 6",
                        "name": "Abaza TV",
                        "sub_name": "",
                        "stream_video_url": "http://clients.apsny.camera/tv_abaza_tv/index.m3u8",
                        "thumbnail_url": "https://gitlab.com/bitcodingsolutions/TVGram/-/raw/master/TVGram/ChannelsLogo/TvGram.png",
                        "thumbnail_url_original": "https://raw.githubusercontent.com/tvgram-inc/tvgram-inc.github.io/master/images/logo.png"
                    },
                    "sub_7": {
                        "id": 7,
                        "mode": "video",
                        "name_original": "Channel 7",
                        "name": "Al Jazeera Documentary",
                        "sub_name": "",
                        "stream_video_url": "https://live-hls-web-ajd.getaj.net/AJD/index.m3u8",
                        "thumbnail_url": "https://gitlab.com/bitcodingsolutions/TVGram/-/raw/master/TVGram/ChannelsLogo/TvGram.png",
                        "thumbnail_url_original": "https://raw.githubusercontent.com/tvgram-inc/tvgram-inc.github.io/master/images/logo.png"
                    },
                    "sub_8": {
                        "id": 8,
                        "mode": "video",
                        "name_original": "Channel 8",
                        "name": "Bahrain International",
                        "sub_name": "",
                        "stream_video_url": "https://5c7b683162943.streamlock.net/live/ngrp:bahraininternational_all/playlist.m3u8",
                        "thumbnail_url": "https://gitlab.com/bitcodingsolutions/TVGram/-/raw/master/TVGram/ChannelsLogo/TvGram.png",
                        "thumbnail_url_original": "https://raw.githubusercontent.com/tvgram-inc/tvgram-inc.github.io/master/images/logo.png"
                    },
                    "sub_9": {
                        "id": 9,
                        "mode": "video",
                        "name_original": "Channel 9",
                        "name": "BeritaSatu World",
                        "sub_name": "",
                        "stream_video_url": "https://b1world.beritasatumedia.com/Beritasatu/B1World_manifest.m3u8",
                        "thumbnail_url": "https://gitlab.com/bitcodingsolutions/TVGram/-/raw/master/TVGram/ChannelsLogo/TvGram.png",
                        "thumbnail_url_original": "https://raw.githubusercontent.com/tvgram-inc/tvgram-inc.github.io/master/images/logo.png"
                    },
                    "sub_10": {
                        "id": 10,
                        "mode": "video",
                        "name_original": "Channel 10",
                        "name": "Bloomberg TV EMEA Live Event",
                        "sub_name": "",
                        "stream_video_url": "https://bloomberg.com/media-manifest/streams/eu-event.m3u8",
                        "thumbnail_url": "https://gitlab.com/bitcodingsolutions/TVGram/-/raw/master/TVGram/ChannelsLogo/TvGram.png",
                        "thumbnail_url_original": "https://raw.githubusercontent.com/tvgram-inc/tvgram-inc.github.io/master/images/logo.png"
                    },
                    "sub_11": {
                        "id": 11,
                        "mode": "video",
                        "name_original": "Channel 11",
                        "name": "Bloomberg TV Europe",
                        "sub_name": "",
                        "stream_video_url": "https://bloomberg.com/media-manifest/streams/eu.m3u8",
                        "thumbnail_url": "https://gitlab.com/bitcodingsolutions/TVGram/-/raw/master/TVGram/ChannelsLogo/TvGram.png",
                        "thumbnail_url_original": "https://raw.githubusercontent.com/tvgram-inc/tvgram-inc.github.io/master/images/logo.png"
                    },
                    "sub_12": {
                        "id": 12,
                        "mode": "video",
                        "name_original": "Channel 12",
                        "name": "CGTN",
                        "sub_name": "",
                        "stream_video_url": "https://news.cgtn.com/resource/live/english/cgtn-news.m3u8",
                        "thumbnail_url": "https://gitlab.com/bitcodingsolutions/TVGram/-/raw/master/TVGram/ChannelsLogo/TvGram.png",
                        "thumbnail_url_original": "https://raw.githubusercontent.com/tvgram-inc/tvgram-inc.github.io/master/images/logo.png"
                    },
                    "sub_13": {
                        "id": 13,
                        "mode": "video",
                        "name_original": "Channel 13",
                        "name": "CGTN \u0420\u0443\u0441\u0441\u043a\u0438\u0439",
                        "sub_name": "",
                        "stream_video_url": "https://news.cgtn.com/resource/live/russian/cgtn-r.m3u8",
                        "thumbnail_url": "https://gitlab.com/bitcodingsolutions/TVGram/-/raw/master/TVGram/ChannelsLogo/TvGram.png",
                        "thumbnail_url_original": "https://raw.githubusercontent.com/tvgram-inc/tvgram-inc.github.io/master/images/logo.png"
                    },
                    "sub_14": {
                        "id": 14,
                        "mode": "video",
                        "name_original": "Channel 14",
                        "name": "Classic Arts Showcase",
                        "sub_name": "",
                        "stream_video_url": "https://classicarts.akamaized.net/hls/live/1024257/CAS/master.m3u8",
                        "thumbnail_url": "https://gitlab.com/bitcodingsolutions/TVGram/-/raw/master/TVGram/ChannelsLogo/TvGram.png",
                        "thumbnail_url_original": "https://raw.githubusercontent.com/tvgram-inc/tvgram-inc.github.io/master/images/logo.png"
                    },
                    "sub_15": {
                        "id": 15,
                        "mode": "video",
                        "name_original": "Channel 15",
                        "name": "CNA International",
                        "sub_name": "",
                        "stream_video_url": "https://d2e1asnsl7br7b.cloudfront.net/7782e205e72f43aeb4a48ec97f66ebbe/index.m3u8",
                        "thumbnail_url": "https://gitlab.com/bitcodingsolutions/TVGram/-/raw/master/TVGram/ChannelsLogo/TvGram.png",
                        "thumbnail_url_original": "https://raw.githubusercontent.com/tvgram-inc/tvgram-inc.github.io/master/images/logo.png"
                    },
                    "sub_16": {
                        "id": 16,
                        "mode": "video",
                        "name_original": "Channel 16",
                        "name": "DW English",
                        "sub_name": "",
                        "stream_video_url": "https://dwamdstream102.akamaized.net/hls/live/2015525/dwstream102/index.m3u8",
                        "thumbnail_url": "https://gitlab.com/bitcodingsolutions/TVGram/-/raw/master/TVGram/ChannelsLogo/TvGram.png",
                        "thumbnail_url_original": "https://raw.githubusercontent.com/tvgram-inc/tvgram-inc.github.io/master/images/logo.png"
                    },
                    "sub_17": {
                        "id": 17,
                        "mode": "video",
                        "name_original": "Channel 17",
                        "name": "EbS Live",
                        "sub_name": "",
                        "stream_video_url": "https://euc-live.fl.freecaster.net/live/eucom/ebs.m3u8",
                        "thumbnail_url": "https://gitlab.com/bitcodingsolutions/TVGram/-/raw/master/TVGram/ChannelsLogo/TvGram.png",
                        "thumbnail_url_original": "https://raw.githubusercontent.com/tvgram-inc/tvgram-inc.github.io/master/images/logo.png"
                    },
                    "sub_18": {
                        "id": 18,
                        "mode": "video",
                        "name_original": "Channel 18",
                        "name": "EbS+ Live",
                        "sub_name": "",
                        "stream_video_url": "https://euc-live.fl.freecaster.net/live/eucom/ebsp.m3u8",
                        "thumbnail_url": "https://gitlab.com/bitcodingsolutions/TVGram/-/raw/master/TVGram/ChannelsLogo/TvGram.png",
                        "thumbnail_url_original": "https://raw.githubusercontent.com/tvgram-inc/tvgram-inc.github.io/master/images/logo.png"
                    },
                    "sub_19": {
                        "id": 19,
                        "mode": "video",
                        "name_original": "Channel 19",
                        "name": "ERT World",
                        "sub_name": "",
                        "stream_video_url": "http://wpso.com:1936/hls/wzra.m3u8",
                        "thumbnail_url": "https://gitlab.com/bitcodingsolutions/TVGram/-/raw/master/TVGram/ChannelsLogo/TvGram.png",
                        "thumbnail_url_original": "https://raw.githubusercontent.com/tvgram-inc/tvgram-inc.github.io/master/images/logo.png"
                    },
                    "sub_20": {
                        "id": 20,
                        "mode": "video",
                        "name_original": "Channel 20",
                        "name": "ETB Basque",
                        "sub_name": "",
                        "stream_video_url": "https://multimedia.eitb.eus/live-content/eitbbasque-hls/master.m3u8",
                        "thumbnail_url": "https://gitlab.com/bitcodingsolutions/TVGram/-/raw/master/TVGram/ChannelsLogo/TvGram.png",
                        "thumbnail_url_original": "https://raw.githubusercontent.com/tvgram-inc/tvgram-inc.github.io/master/images/logo.png"
                    },
                    "sub_21": {
                        "id": 21,
                        "mode": "video",
                        "name_original": "Channel 21",
                        "name": "Euro Indie Music Chart TV",
                        "sub_name": "",
                        "stream_video_url": "http://178.33.224.197:1935/euroindiemusic/euroindiemusic/playlist.m3u8",
                        "thumbnail_url": "https://gitlab.com/bitcodingsolutions/TVGram/-/raw/master/TVGram/ChannelsLogo/TvGram.png",
                        "thumbnail_url_original": "https://raw.githubusercontent.com/tvgram-inc/tvgram-inc.github.io/master/images/logo.png"
                    },
                    "sub_22": {
                        "id": 22,
                        "mode": "video",
                        "name_original": "Channel 22",
                        "name": "Eurodance 90 HD",
                        "sub_name": "",
                        "stream_video_url": "https://eurodance90.catcast.tv/content/36987/index.m3u8",
                        "thumbnail_url": "https://gitlab.com/bitcodingsolutions/TVGram/-/raw/master/TVGram/ChannelsLogo/TvGram.png",
                        "thumbnail_url_original": "https://raw.githubusercontent.com/tvgram-inc/tvgram-inc.github.io/master/images/logo.png"
                    },
                    "sub_23": {
                        "id": 23,
                        "mode": "video",
                        "name_original": "Channel 23",
                        "name": "Fashion TV",
                        "sub_name": "",
                        "stream_video_url": "https://fashiontv-fashiontv-1-eu.rakuten.wurl.tv/playlist.m3u8",
                        "thumbnail_url": "https://gitlab.com/bitcodingsolutions/TVGram/-/raw/master/TVGram/ChannelsLogo/TvGram.png",
                        "thumbnail_url_original": "https://raw.githubusercontent.com/tvgram-inc/tvgram-inc.github.io/master/images/logo.png"
                    },
                    "sub_24": {
                        "id": 24,
                        "mode": "video",
                        "name_original": "Channel 24",
                        "name": "Freedom",
                        "sub_name": "",
                        "stream_video_url": "https://freedom.cdn-01.cosmonova.net.ua/mobile-app/main/freedom/master.m3u8",
                        "thumbnail_url": "https://gitlab.com/bitcodingsolutions/TVGram/-/raw/master/TVGram/ChannelsLogo/TvGram.png",
                        "thumbnail_url_original": "https://raw.githubusercontent.com/tvgram-inc/tvgram-inc.github.io/master/images/logo.png"
                    },
                    "sub_25": {
                        "id": 25,
                        "mode": "video",
                        "name_original": "Channel 25",
                        "name": "Galicia TV Europa",
                        "sub_name": "",
                        "stream_video_url": "http://europa-crtvg.flumotion.com/playlist.m3u8",
                        "thumbnail_url": "https://gitlab.com/bitcodingsolutions/TVGram/-/raw/master/TVGram/ChannelsLogo/TvGram.png",
                        "thumbnail_url_original": "https://raw.githubusercontent.com/tvgram-inc/tvgram-inc.github.io/master/images/logo.png"
                    },
                    "sub_26": {
                        "id": 26,
                        "mode": "video",
                        "name_original": "Channel 26",
                        "name": "GIT",
                        "sub_name": "",
                        "stream_video_url": "https://stream.uagit.tv/gittv.m3u8",
                        "thumbnail_url": "https://gitlab.com/bitcodingsolutions/TVGram/-/raw/master/TVGram/ChannelsLogo/TvGram.png",
                        "thumbnail_url_original": "https://raw.githubusercontent.com/tvgram-inc/tvgram-inc.github.io/master/images/logo.png"
                    },
                    "sub_27": {
                        "id": 27,
                        "mode": "video",
                        "name_original": "Channel 27",
                        "name": "KBS World",
                        "sub_name": "",
                        "stream_video_url": "https://kbsworld-ott.akamaized.net/hls/live/2002341/kbsworld/master.m3u8",
                        "thumbnail_url": "https://gitlab.com/bitcodingsolutions/TVGram/-/raw/master/TVGram/ChannelsLogo/TvGram.png",
                        "thumbnail_url_original": "https://raw.githubusercontent.com/tvgram-inc/tvgram-inc.github.io/master/images/logo.png"
                    },
                    "sub_28": {
                        "id": 28,
                        "mode": "video",
                        "name_original": "Channel 28",
                        "name": "Leomax 24",
                        "sub_name": "",
                        "stream_video_url": "https://tvshops.bonus-tv.ru/cdn/shop24/playlist.m3u8",
                        "thumbnail_url": "https://gitlab.com/bitcodingsolutions/TVGram/-/raw/master/TVGram/ChannelsLogo/TvGram.png",
                        "thumbnail_url_original": "https://raw.githubusercontent.com/tvgram-inc/tvgram-inc.github.io/master/images/logo.png"
                    },
                    "sub_29": {
                        "id": 29,
                        "mode": "video",
                        "name_original": "Channel 29",
                        "name": "M2",
                        "sub_name": "",
                        "stream_video_url": "http://live.m2.tv/hls3/stream.m3u8",
                        "thumbnail_url": "https://gitlab.com/bitcodingsolutions/TVGram/-/raw/master/TVGram/ChannelsLogo/TvGram.png",
                        "thumbnail_url_original": "https://raw.githubusercontent.com/tvgram-inc/tvgram-inc.github.io/master/images/logo.png"
                    },
                    "sub_30": {
                        "id": 30,
                        "mode": "video",
                        "name_original": "Channel 30",
                        "name": "MavTV Select",
                        "sub_name": "",
                        "stream_video_url": "https://mavtv-mavtvglobal-1-eu.rakuten.wurl.tv/playlist.m3u8",
                        "thumbnail_url": "https://gitlab.com/bitcodingsolutions/TVGram/-/raw/master/TVGram/ChannelsLogo/TvGram.png",
                        "thumbnail_url_original": "https://raw.githubusercontent.com/tvgram-inc/tvgram-inc.github.io/master/images/logo.png"
                    },
                    "sub_31": {
                        "id": 31,
                        "mode": "video",
                        "name_original": "Channel 31",
                        "name": "Metro Globe Network",
                        "sub_name": "",
                        "stream_video_url": "https://edge.medcom.id/live-edge/smil:mgnch.smil/playlist.m3u8",
                        "thumbnail_url": "https://gitlab.com/bitcodingsolutions/TVGram/-/raw/master/TVGram/ChannelsLogo/TvGram.png",
                        "thumbnail_url_original": "https://raw.githubusercontent.com/tvgram-inc/tvgram-inc.github.io/master/images/logo.png"
                    },
                    "sub_32": {
                        "id": 32,
                        "mode": "video",
                        "name_original": "Channel 32",
                        "name": "Music Box Russia",
                        "sub_name": "",
                        "stream_video_url": "https://strm.yandex.ru/kal/rmbox/rmbox0.m3u8",
                        "thumbnail_url": "https://gitlab.com/bitcodingsolutions/TVGram/-/raw/master/TVGram/ChannelsLogo/TvGram.png",
                        "thumbnail_url_original": "https://raw.githubusercontent.com/tvgram-inc/tvgram-inc.github.io/master/images/logo.png"
                    },
                    "sub_33": {
                        "id": 33,
                        "mode": "video",
                        "name_original": "Channel 33",
                        "name": "Myanmar International TV",
                        "sub_name": "",
                        "stream_video_url": "https://5a13fe32ef748.streamlock.net/mmplay/mitv/playlist.m3u8",
                        "thumbnail_url": "https://gitlab.com/bitcodingsolutions/TVGram/-/raw/master/TVGram/ChannelsLogo/TvGram.png",
                        "thumbnail_url_original": "https://raw.githubusercontent.com/tvgram-inc/tvgram-inc.github.io/master/images/logo.png"
                    },
                    "sub_34": {
                        "id": 34,
                        "mode": "video",
                        "name_original": "Channel 34",
                        "name": "NASA TV",
                        "sub_name": "",
                        "stream_video_url": "https://uplynkcontent.sinclairstoryline.com/channel/ddd76fdc1c0a456ba537e4f48e827d3e.m3u8",
                        "thumbnail_url": "https://gitlab.com/bitcodingsolutions/TVGram/-/raw/master/TVGram/ChannelsLogo/TvGram.png",
                        "thumbnail_url_original": "https://raw.githubusercontent.com/tvgram-inc/tvgram-inc.github.io/master/images/logo.png"
                    },
                    "sub_35": {
                        "id": 35,
                        "mode": "video",
                        "name_original": "Channel 35",
                        "name": "NHK World Japan",
                        "sub_name": "",
                        "stream_video_url": "https://nhkwlive-ojp.akamaized.net/hls/live/2003459/nhkwlive-ojp-en/index.m3u8",
                        "thumbnail_url": "https://gitlab.com/bitcodingsolutions/TVGram/-/raw/master/TVGram/ChannelsLogo/TvGram.png",
                        "thumbnail_url_original": "https://raw.githubusercontent.com/tvgram-inc/tvgram-inc.github.io/master/images/logo.png"
                    },
                    "sub_36": {
                        "id": 36,
                        "mode": "video",
                        "name_original": "Channel 36",
                        "name": "Red Bull TV",
                        "sub_name": "",
                        "stream_video_url": "https://rbmn-live.akamaized.net/hls/live/590964/BoRB-AT/master.m3u8",
                        "thumbnail_url": "https://gitlab.com/bitcodingsolutions/TVGram/-/raw/master/TVGram/ChannelsLogo/TvGram.png",
                        "thumbnail_url_original": "https://raw.githubusercontent.com/tvgram-inc/tvgram-inc.github.io/master/images/logo.png"
                    },
                    "sub_37": {
                        "id": 37,
                        "mode": "video",
                        "name_original": "Channel 37",
                        "name": "RT Documentary",
                        "sub_name": "",
                        "stream_video_url": "https://rt-rtd.rttv.com/live/rtdoc/playlist.m3u8",
                        "thumbnail_url": "https://gitlab.com/bitcodingsolutions/TVGram/-/raw/master/TVGram/ChannelsLogo/TvGram.png",
                        "thumbnail_url_original": "https://raw.githubusercontent.com/tvgram-inc/tvgram-inc.github.io/master/images/logo.png"
                    },
                    "sub_38": {
                        "id": 38,
                        "mode": "video",
                        "name_original": "Channel 38",
                        "name": "RT Documentary Russian",
                        "sub_name": "",
                        "stream_video_url": "http://uiptv.do.am/1ufc/300663722/playlist.m3u8",
                        "thumbnail_url": "https://gitlab.com/bitcodingsolutions/TVGram/-/raw/master/TVGram/ChannelsLogo/TvGram.png",
                        "thumbnail_url_original": "https://raw.githubusercontent.com/tvgram-inc/tvgram-inc.github.io/master/images/logo.png"
                    },
                    "sub_39": {
                        "id": 39,
                        "mode": "video",
                        "name_original": "Channel 39",
                        "name": "RT en Espa\u00f1ol",
                        "sub_name": "",
                        "stream_video_url": "https://rt-esp.rttv.com/live/rtesp/playlist.m3u8",
                        "thumbnail_url": "https://gitlab.com/bitcodingsolutions/TVGram/-/raw/master/TVGram/ChannelsLogo/TvGram.png",
                        "thumbnail_url_original": "https://raw.githubusercontent.com/tvgram-inc/tvgram-inc.github.io/master/images/logo.png"
                    },
                    "sub_40": {
                        "id": 40,
                        "mode": "video",
                        "name_original": "Channel 40",
                        "name": "RT News",
                        "sub_name": "",
                        "stream_video_url": "https://rt-glb.rttv.com/live/rtnews/playlist.m3u8",
                        "thumbnail_url": "https://gitlab.com/bitcodingsolutions/TVGram/-/raw/master/TVGram/ChannelsLogo/TvGram.png",
                        "thumbnail_url_original": "https://raw.githubusercontent.com/tvgram-inc/tvgram-inc.github.io/master/images/logo.png"
                    },
                    "sub_41": {
                        "id": 41,
                        "mode": "video",
                        "name_original": "Channel 41",
                        "name": "RU.TV",
                        "sub_name": "",
                        "stream_video_url": "https://strm.yandex.ru/kal/rutv_cv/rutv_cv0.m3u8",
                        "thumbnail_url": "https://gitlab.com/bitcodingsolutions/TVGram/-/raw/master/TVGram/ChannelsLogo/TvGram.png",
                        "thumbnail_url_original": "https://raw.githubusercontent.com/tvgram-inc/tvgram-inc.github.io/master/images/logo.png"
                    },
                    "sub_42": {
                        "id": 42,
                        "mode": "video",
                        "name_original": "Channel 42",
                        "name": "Shopping Live",
                        "sub_name": "",
                        "stream_video_url": "http://serv30.vintera.tv:8081/shoppinglive/shoppinglive_stream/playlist.m3u8",
                        "thumbnail_url": "https://gitlab.com/bitcodingsolutions/TVGram/-/raw/master/TVGram/ChannelsLogo/TvGram.png",
                        "thumbnail_url_original": "https://raw.githubusercontent.com/tvgram-inc/tvgram-inc.github.io/master/images/logo.png"
                    },
                    "sub_43": {
                        "id": 43,
                        "mode": "video",
                        "name_original": "Channel 43",
                        "name": "Ski TV",
                        "sub_name": "",
                        "stream_video_url": "https://d2xeo83q8fcni6.cloudfront.net/v1/master/9d062541f2ff39b5c0f48b743c6411d25f62fc25/SkiTV-SynapseTV/193.m3u8",
                        "thumbnail_url": "https://gitlab.com/bitcodingsolutions/TVGram/-/raw/master/TVGram/ChannelsLogo/TvGram.png",
                        "thumbnail_url_original": "https://raw.githubusercontent.com/tvgram-inc/tvgram-inc.github.io/master/images/logo.png"
                    },
                    "sub_44": {
                        "id": 44,
                        "mode": "video",
                        "name_original": "Channel 44",
                        "name": "Skrypin.ua",
                        "sub_name": "",
                        "stream_video_url": "https://open-cdn.lanet.tv/play/skrypin.m3u8",
                        "thumbnail_url": "https://gitlab.com/bitcodingsolutions/TVGram/-/raw/master/TVGram/ChannelsLogo/TvGram.png",
                        "thumbnail_url_original": "https://raw.githubusercontent.com/tvgram-inc/tvgram-inc.github.io/master/images/logo.png"
                    },
                    "sub_45": {
                        "id": 45,
                        "mode": "video",
                        "name_original": "Channel 45",
                        "name": "Sochi Live HD",
                        "sub_name": "",
                        "stream_video_url": "http://serv30.vintera.tv:8081/sochi/sochi_stream/playlist.m3u8",
                        "thumbnail_url": "https://gitlab.com/bitcodingsolutions/TVGram/-/raw/master/TVGram/ChannelsLogo/TvGram.png",
                        "thumbnail_url_original": "https://raw.githubusercontent.com/tvgram-inc/tvgram-inc.github.io/master/images/logo.png"
                    },
                    "sub_46": {
                        "id": 46,
                        "mode": "video",
                        "name_original": "Channel 46",
                        "name": "Three Angels Broadcasting Network International",
                        "sub_name": "",
                        "stream_video_url": "https://3abn-live.akamaized.net/hls/live/2010544/International/master.m3u8",
                        "thumbnail_url": "https://gitlab.com/bitcodingsolutions/TVGram/-/raw/master/TVGram/ChannelsLogo/TvGram.png",
                        "thumbnail_url_original": "https://raw.githubusercontent.com/tvgram-inc/tvgram-inc.github.io/master/images/logo.png"
                    },
                    "sub_47": {
                        "id": 47,
                        "mode": "video",
                        "name_original": "Channel 47",
                        "name": "TRT World",
                        "sub_name": "",
                        "stream_video_url": "https://tv-trtworld.live.trt.com.tr/master.m3u8",
                        "thumbnail_url": "https://gitlab.com/bitcodingsolutions/TVGram/-/raw/master/TVGram/ChannelsLogo/TvGram.png",
                        "thumbnail_url_original": "https://raw.githubusercontent.com/tvgram-inc/tvgram-inc.github.io/master/images/logo.png"
                    },
                    "sub_48": {
                        "id": 48,
                        "mode": "video",
                        "name_original": "Channel 48",
                        "name": "TV3CAT",
                        "sub_name": "",
                        "stream_video_url": "https://directes-tv-int.ccma.cat/live-origin/tvi-hls/master.m3u8",
                        "thumbnail_url": "https://gitlab.com/bitcodingsolutions/TVGram/-/raw/master/TVGram/ChannelsLogo/TvGram.png",
                        "thumbnail_url_original": "https://raw.githubusercontent.com/tvgram-inc/tvgram-inc.github.io/master/images/logo.png"
                    },
                    "sub_49": {
                        "id": 49,
                        "mode": "video",
                        "name_original": "Channel 49",
                        "name": "TVM Internacional",
                        "sub_name": "",
                        "stream_video_url": "http://online.tvm.co.mz:1935/live/smil:Channel2.smil/playlist.m3u8",
                        "thumbnail_url": "https://gitlab.com/bitcodingsolutions/TVGram/-/raw/master/TVGram/ChannelsLogo/TvGram.png",
                        "thumbnail_url_original": "https://raw.githubusercontent.com/tvgram-inc/tvgram-inc.github.io/master/images/logo.png"
                    },
                    "sub_50": {
                        "id": 50,
                        "mode": "video",
                        "name_original": "Channel 50",
                        "name": "UN Web TV",
                        "sub_name": "",
                        "stream_video_url": "https://cdnapi.kaltura.com/p/2503451/sp/250345100/playManifest/entryId/1_gb6tjmle/protocol/https/format/applehttp/a.m3u8",
                        "thumbnail_url": "https://gitlab.com/bitcodingsolutions/TVGram/-/raw/master/TVGram/ChannelsLogo/TvGram.png",
                        "thumbnail_url_original": "https://raw.githubusercontent.com/tvgram-inc/tvgram-inc.github.io/master/images/logo.png"
                    },
                    "sub_51": {
                        "id": 51,
                        "mode": "video",
                        "name_original": "Channel 51",
                        "name": "Univer TV",
                        "sub_name": "",
                        "stream_video_url": "https://cdn.universmotri.ru/live/smil:mbr.smil/playlist.m3u8",
                        "thumbnail_url": "https://gitlab.com/bitcodingsolutions/TVGram/-/raw/master/TVGram/ChannelsLogo/TvGram.png",
                        "thumbnail_url_original": "https://raw.githubusercontent.com/tvgram-inc/tvgram-inc.github.io/master/images/logo.png"
                    },
                    "sub_52": {
                        "id": 52,
                        "mode": "video",
                        "name_original": "Channel 52",
                        "name": "VIVA Russia",
                        "sub_name": "",
                        "stream_video_url": "https://live.prd.dlive.tv/hls/live/viva-russia.m3u8",
                        "thumbnail_url": "https://gitlab.com/bitcodingsolutions/TVGram/-/raw/master/TVGram/ChannelsLogo/TvGram.png",
                        "thumbnail_url_original": "https://raw.githubusercontent.com/tvgram-inc/tvgram-inc.github.io/master/images/logo.png"
                    },
                    "sub_53": {
                        "id": 53,
                        "mode": "video",
                        "name_original": "Channel 53",
                        "name": "WeatherSpy Europe",
                        "sub_name": "",
                        "stream_video_url": "https://jukin-weatherspy-2-eu.rakuten.wurl.tv/playlist.m3u8",
                        "thumbnail_url": "https://gitlab.com/bitcodingsolutions/TVGram/-/raw/master/TVGram/ChannelsLogo/TvGram.png",
                        "thumbnail_url_original": "https://raw.githubusercontent.com/tvgram-inc/tvgram-inc.github.io/master/images/logo.png"
                    },
                    "sub_54": {
                        "id": 54,
                        "mode": "video",
                        "name_original": "Channel 54",
                        "name": "World Poker Tour",
                        "sub_name": "",
                        "stream_video_url": "https://d3w4n3hhseniak.cloudfront.net/v1/master/9d062541f2ff39b5c0f48b743c6411d25f62fc25/WPT-DistroTV/150.m3u8",
                        "thumbnail_url": "https://gitlab.com/bitcodingsolutions/TVGram/-/raw/master/TVGram/ChannelsLogo/TvGram.png",
                        "thumbnail_url_original": "https://raw.githubusercontent.com/tvgram-inc/tvgram-inc.github.io/master/images/logo.png"
                    },
                    "sub_55": {
                        "id": 55,
                        "mode": "video",
                        "name_original": "Channel 55",
                        "name": "\u0410\u0440\u0438\u0441 24",
                        "sub_name": "",
                        "stream_video_url": "http://serv25.vintera.tv:8081/test/aris/playlist.m3u8",
                        "thumbnail_url": "https://gitlab.com/bitcodingsolutions/TVGram/-/raw/master/TVGram/ChannelsLogo/TvGram.png",
                        "thumbnail_url_original": "https://raw.githubusercontent.com/tvgram-inc/tvgram-inc.github.io/master/images/logo.png"
                    },
                    "sub_56": {
                        "id": 56,
                        "mode": "video",
                        "name_original": "Channel 56",
                        "name": "\u0410\u0440\u0445\u044b\u0437 24",
                        "sub_name": "",
                        "stream_video_url": "https://live.mediacdn.ru/sr1/arhis24/playlist.m3u8",
                        "thumbnail_url": "https://gitlab.com/bitcodingsolutions/TVGram/-/raw/master/TVGram/ChannelsLogo/TvGram.png",
                        "thumbnail_url_original": "https://raw.githubusercontent.com/tvgram-inc/tvgram-inc.github.io/master/images/logo.png"
                    },
                    "sub_57": {
                        "id": 57,
                        "mode": "video",
                        "name_original": "Channel 57",
                        "name": "\u0410\u0441\u0442\u0440\u0430\u0445\u0430\u043d\u044c 24",
                        "sub_name": "",
                        "stream_video_url": "https://streaming.astrakhan.ru/astrakhan24/playlist.m3u8",
                        "thumbnail_url": "https://gitlab.com/bitcodingsolutions/TVGram/-/raw/master/TVGram/ChannelsLogo/TvGram.png",
                        "thumbnail_url_original": "https://raw.githubusercontent.com/tvgram-inc/tvgram-inc.github.io/master/images/logo.png"
                    },
                    "sub_58": {
                        "id": 58,
                        "mode": "video",
                        "name_original": "Channel 58",
                        "name": "\u0410\u0441\u0442\u0440\u0430\u0445\u0430\u043d\u044c.Ru TV",
                        "sub_name": "",
                        "stream_video_url": "https://streaming.astrakhan.ru/astrakhanrulivehd/playlist.m3u8",
                        "thumbnail_url": "https://gitlab.com/bitcodingsolutions/TVGram/-/raw/master/TVGram/ChannelsLogo/TvGram.png",
                        "thumbnail_url_original": "https://raw.githubusercontent.com/tvgram-inc/tvgram-inc.github.io/master/images/logo.png"
                    },
                    "sub_59": {
                        "id": 59,
                        "mode": "video",
                        "name_original": "Channel 59",
                        "name": "\u0411\u0435\u043b\u0433\u043e\u0440\u043e\u0434 24",
                        "sub_name": "",
                        "stream_video_url": "http://belnovosti.cdn.easyhoster.ru:8080/stream.m3u8",
                        "thumbnail_url": "https://gitlab.com/bitcodingsolutions/TVGram/-/raw/master/TVGram/ChannelsLogo/TvGram.png",
                        "thumbnail_url_original": "https://raw.githubusercontent.com/tvgram-inc/tvgram-inc.github.io/master/images/logo.png"
                    },
                    "sub_60": {
                        "id": 60,
                        "mode": "video",
                        "name_original": "Channel 60",
                        "name": "\u0411\u0435\u043b\u0420\u043e\u0441",
                        "sub_name": "",
                        "stream_video_url": "http://live2.mediacdn.ru/sr1/tro/playlist.m3u8",
                        "thumbnail_url": "https://gitlab.com/bitcodingsolutions/TVGram/-/raw/master/TVGram/ChannelsLogo/TvGram.png",
                        "thumbnail_url_original": "https://raw.githubusercontent.com/tvgram-inc/tvgram-inc.github.io/master/images/logo.png"
                    },
                    "sub_61": {
                        "id": 61,
                        "mode": "video",
                        "name_original": "Channel 61",
                        "name": "\u0411\u0421\u0422",
                        "sub_name": "",
                        "stream_video_url": "https://bsttv.bonus-tv.ru/cdn/bst/playlist.m3u8",
                        "thumbnail_url": "https://gitlab.com/bitcodingsolutions/TVGram/-/raw/master/TVGram/ChannelsLogo/TvGram.png",
                        "thumbnail_url_original": "https://raw.githubusercontent.com/tvgram-inc/tvgram-inc.github.io/master/images/logo.png"
                    },
                    "sub_62": {
                        "id": 62,
                        "mode": "video",
                        "name_original": "Channel 62",
                        "name": "\u0412\u0435\u0442\u0442\u0430 24",
                        "sub_name": "",
                        "stream_video_url": "http://serv24.vintera.tv:8081/vetta/vetta_office/playlist.m3u8",
                        "thumbnail_url": "https://gitlab.com/bitcodingsolutions/TVGram/-/raw/master/TVGram/ChannelsLogo/TvGram.png",
                        "thumbnail_url_original": "https://raw.githubusercontent.com/tvgram-inc/tvgram-inc.github.io/master/images/logo.png"
                    },
                    "sub_63": {
                        "id": 63,
                        "mode": "video",
                        "name_original": "Channel 63",
                        "name": "\u0413\u043b\u0430\u0441",
                        "sub_name": "",
                        "stream_video_url": "http://85.238.112.69:8811/hls_sec/239.0.4.18-.m3u8",
                        "thumbnail_url": "https://gitlab.com/bitcodingsolutions/TVGram/-/raw/master/TVGram/ChannelsLogo/TvGram.png",
                        "thumbnail_url_original": "https://raw.githubusercontent.com/tvgram-inc/tvgram-inc.github.io/master/images/logo.png"
                    },
                    "sub_64": {
                        "id": 64,
                        "mode": "video",
                        "name_original": "Channel 64",
                        "name": "\u0413\u043e\u0440\u043e\u0434\u0441\u043a\u043e\u0439 \u0442\u0435\u043b\u0435\u043a\u0430\u043d\u0430\u043b",
                        "sub_name": "",
                        "stream_video_url": "http://www.gtk.tv/hls/gtyar.m3u8",
                        "thumbnail_url": "https://gitlab.com/bitcodingsolutions/TVGram/-/raw/master/TVGram/ChannelsLogo/TvGram.png",
                        "thumbnail_url_original": "https://raw.githubusercontent.com/tvgram-inc/tvgram-inc.github.io/master/images/logo.png"
                    },
                    "sub_65": {
                        "id": 65,
                        "mode": "video",
                        "name_original": "Channel 65",
                        "name": "\u0413\u0443\u0431\u0435\u0440\u043d\u0438\u044f",
                        "sub_name": "",
                        "stream_video_url": "http://live.guberniatv.cdnvideo.ru/guberniatv/guberniatv.sdp/playlist.m3u8",
                        "thumbnail_url": "https://gitlab.com/bitcodingsolutions/TVGram/-/raw/master/TVGram/ChannelsLogo/TvGram.png",
                        "thumbnail_url_original": "https://raw.githubusercontent.com/tvgram-inc/tvgram-inc.github.io/master/images/logo.png"
                    },
                    "sub_66": {
                        "id": 66,
                        "mode": "video",
                        "name_original": "Channel 66",
                        "name": "\u0414\u0430\u0433\u0435\u0441\u0442\u0430\u043d",
                        "sub_name": "",
                        "stream_video_url": "https://dagestan.mediacdn.ru/cdn/dagestan/playlist.m3u8",
                        "thumbnail_url": "https://gitlab.com/bitcodingsolutions/TVGram/-/raw/master/TVGram/ChannelsLogo/TvGram.png",
                        "thumbnail_url_original": "https://raw.githubusercontent.com/tvgram-inc/tvgram-inc.github.io/master/images/logo.png"
                    },
                    "sub_67": {
                        "id": 67,
                        "mode": "video",
                        "name_original": "Channel 67",
                        "name": "\u0414\u0438\u0430\u043b\u043e\u0433\u0438 \u043e \u0440\u044b\u0431\u0430\u043b\u043a\u0435",
                        "sub_name": "",
                        "stream_video_url": "http://strm.yandex.ru/kal/dialogi/dialogi0.m3u8",
                        "thumbnail_url": "https://gitlab.com/bitcodingsolutions/TVGram/-/raw/master/TVGram/ChannelsLogo/TvGram.png",
                        "thumbnail_url_original": "https://raw.githubusercontent.com/tvgram-inc/tvgram-inc.github.io/master/images/logo.png"
                    },
                    "sub_68": {
                        "id": 68,
                        "mode": "video",
                        "name_original": "Channel 68",
                        "name": "\u0414\u043e\u043a\u0442\u043e\u0440",
                        "sub_name": "",
                        "stream_video_url": "http://88b9da48.kazmazpaz.ru/iptv/D7M94NBVB5DLFS/512/index.m3u8",
                        "thumbnail_url": "https://gitlab.com/bitcodingsolutions/TVGram/-/raw/master/TVGram/ChannelsLogo/TvGram.png",
                        "thumbnail_url_original": "https://raw.githubusercontent.com/tvgram-inc/tvgram-inc.github.io/master/images/logo.png"
                    },
                    "sub_69": {
                        "id": 69,
                        "mode": "video",
                        "name_original": "Channel 69",
                        "name": "\u0415\u0432\u0440\u0430\u0437\u0438\u044f",
                        "sub_name": "",
                        "stream_video_url": "http://infochhdcdn.trkeurasia.ru/orsk-infochhd/infochhd/playlist.m3u8",
                        "thumbnail_url": "https://gitlab.com/bitcodingsolutions/TVGram/-/raw/master/TVGram/ChannelsLogo/TvGram.png",
                        "thumbnail_url_original": "https://raw.githubusercontent.com/tvgram-inc/tvgram-inc.github.io/master/images/logo.png"
                    },
                    "sub_70": {
                        "id": 70,
                        "mode": "video",
                        "name_original": "Channel 70",
                        "name": "\u0415\u0432\u0440\u0430\u0437\u0438\u044f",
                        "sub_name": "",
                        "stream_video_url": "https://infochh.trkeurasia.ru/hlsinfoch/infochhd.m3u8",
                        "thumbnail_url": "https://gitlab.com/bitcodingsolutions/TVGram/-/raw/master/TVGram/ChannelsLogo/TvGram.png",
                        "thumbnail_url_original": "https://raw.githubusercontent.com/tvgram-inc/tvgram-inc.github.io/master/images/logo.png"
                    },
                    "sub_71": {
                        "id": 71,
                        "mode": "video",
                        "name_original": "Channel 71",
                        "name": "\u0415\u043d\u0438\u0441\u0435\u0439",
                        "sub_name": "",
                        "stream_video_url": "http://hls-eniseytv.cdnvideo.ru/eniseytv/stream1/playlist.m3u8",
                        "thumbnail_url": "https://gitlab.com/bitcodingsolutions/TVGram/-/raw/master/TVGram/ChannelsLogo/TvGram.png",
                        "thumbnail_url_original": "https://raw.githubusercontent.com/tvgram-inc/tvgram-inc.github.io/master/images/logo.png"
                    },
                    "sub_72": {
                        "id": 72,
                        "mode": "video",
                        "name_original": "Channel 72",
                        "name": "\u0416\u0430\u0440 \u041f\u0442\u0438\u0446\u0430",
                        "sub_name": "",
                        "stream_video_url": "http://streamer.rtcommufa.ru:1935/ptica/ptica1/playlist.m3u8",
                        "thumbnail_url": "https://gitlab.com/bitcodingsolutions/TVGram/-/raw/master/TVGram/ChannelsLogo/TvGram.png",
                        "thumbnail_url_original": "https://raw.githubusercontent.com/tvgram-inc/tvgram-inc.github.io/master/images/logo.png"
                    },
                    "sub_73": {
                        "id": 73,
                        "mode": "video",
                        "name_original": "Channel 73",
                        "name": "\u0417\u0432\u0435\u0437\u0434\u0430",
                        "sub_name": "",
                        "stream_video_url": "https://tvchannelstream1.tvzvezda.ru/cdn/tvzvezda/playlist.m3u8",
                        "thumbnail_url": "https://gitlab.com/bitcodingsolutions/TVGram/-/raw/master/TVGram/ChannelsLogo/TvGram.png",
                        "thumbnail_url_original": "https://raw.githubusercontent.com/tvgram-inc/tvgram-inc.github.io/master/images/logo.png"
                    },
                    "sub_74": {
                        "id": 74,
                        "mode": "video",
                        "name_original": "Channel 74",
                        "name": "\u041a16",
                        "sub_name": "",
                        "stream_video_url": "http://serv25.vintera.tv:8081/test/k16/playlist.m3u8",
                        "thumbnail_url": "https://gitlab.com/bitcodingsolutions/TVGram/-/raw/master/TVGram/ChannelsLogo/TvGram.png",
                        "thumbnail_url_original": "https://raw.githubusercontent.com/tvgram-inc/tvgram-inc.github.io/master/images/logo.png"
                    },
                    "sub_75": {
                        "id": 75,
                        "mode": "video",
                        "name_original": "Channel 75",
                        "name": "\u041a\u0438\u043d\u043e\u0437\u0430\u043b",
                        "sub_name": "",
                        "stream_video_url": "https://v2.catcast.tv/content/37925/index.m3u8",
                        "thumbnail_url": "https://gitlab.com/bitcodingsolutions/TVGram/-/raw/master/TVGram/ChannelsLogo/TvGram.png",
                        "thumbnail_url_original": "https://raw.githubusercontent.com/tvgram-inc/tvgram-inc.github.io/master/images/logo.png"
                    },
                    "sub_76": {
                        "id": 76,
                        "mode": "video",
                        "name_original": "Channel 76",
                        "name": "\u041a\u043e\u043d\u043d\u044b\u0439 \u041c\u0438\u0440",
                        "sub_name": "",
                        "stream_video_url": "http://cdn-01.bonus-tv.ru/konnyimir/playlist.m3u8",
                        "thumbnail_url": "https://gitlab.com/bitcodingsolutions/TVGram/-/raw/master/TVGram/ChannelsLogo/TvGram.png",
                        "thumbnail_url_original": "https://raw.githubusercontent.com/tvgram-inc/tvgram-inc.github.io/master/images/logo.png"
                    },
                    "sub_77": {
                        "id": 77,
                        "mode": "video",
                        "name_original": "Channel 77",
                        "name": "\u041a\u0443\u0440\u0430\u0439",
                        "sub_name": "",
                        "stream_video_url": "https://bsttv.bonus-tv.ru/cdn/kurai/playlist.m3u8",
                        "thumbnail_url": "https://gitlab.com/bitcodingsolutions/TVGram/-/raw/master/TVGram/ChannelsLogo/TvGram.png",
                        "thumbnail_url_original": "https://raw.githubusercontent.com/tvgram-inc/tvgram-inc.github.io/master/images/logo.png"
                    },
                    "sub_78": {
                        "id": 78,
                        "mode": "video",
                        "name_original": "Channel 78",
                        "name": "\u041a\u0424\u0423 \u0422\u0412",
                        "sub_name": "",
                        "stream_video_url": "https://cdn.universmotri.ru/live/kfu.sdp/playlist.m3u8",
                        "thumbnail_url": "https://gitlab.com/bitcodingsolutions/TVGram/-/raw/master/TVGram/ChannelsLogo/TvGram.png",
                        "thumbnail_url_original": "https://raw.githubusercontent.com/tvgram-inc/tvgram-inc.github.io/master/images/logo.png"
                    },
                    "sub_79": {
                        "id": 79,
                        "mode": "video",
                        "name_original": "Channel 79",
                        "name": "\u041b\u0430\u043d\u0435\u0442.TV",
                        "sub_name": "",
                        "stream_video_url": "http://kiev1-cdn.lanet.tv/live/1008.m3u8",
                        "thumbnail_url": "https://gitlab.com/bitcodingsolutions/TVGram/-/raw/master/TVGram/ChannelsLogo/TvGram.png",
                        "thumbnail_url_original": "https://raw.githubusercontent.com/tvgram-inc/tvgram-inc.github.io/master/images/logo.png"
                    },
                    "sub_80": {
                        "id": 80,
                        "mode": "video",
                        "name_original": "Channel 80",
                        "name": "\u041b\u0414\u041f\u0420 \u0422\u0412",
                        "sub_name": "",
                        "stream_video_url": "http://46.46.143.222:1935/live/mp4:ldpr.stream/playlist.m3u8",
                        "thumbnail_url": "https://gitlab.com/bitcodingsolutions/TVGram/-/raw/master/TVGram/ChannelsLogo/TvGram.png",
                        "thumbnail_url_original": "https://raw.githubusercontent.com/tvgram-inc/tvgram-inc.github.io/master/images/logo.png"
                    },
                    "sub_81": {
                        "id": 81,
                        "mode": "video",
                        "name_original": "Channel 81",
                        "name": "\u041c\u0438\u043b\u043b\u0435\u0442",
                        "sub_name": "",
                        "stream_video_url": "http://live.trkmillet.ru/millet/index.m3u8",
                        "thumbnail_url": "https://gitlab.com/bitcodingsolutions/TVGram/-/raw/master/TVGram/ChannelsLogo/TvGram.png",
                        "thumbnail_url_original": "https://raw.githubusercontent.com/tvgram-inc/tvgram-inc.github.io/master/images/logo.png"
                    },
                    "sub_82": {
                        "id": 82,
                        "mode": "video",
                        "name_original": "Channel 82",
                        "name": "\u041c\u0438\u043d\u0438\u0441\u0442\u0435\u0440\u0441\u0442\u0432\u043e \u0438\u0434\u0435\u0439",
                        "sub_name": "",
                        "stream_video_url": "http://live-minidey.cdnvideo.ru/minidey/minidey.sdp/playlist.m3u8",
                        "thumbnail_url": "https://gitlab.com/bitcodingsolutions/TVGram/-/raw/master/TVGram/ChannelsLogo/TvGram.png",
                        "thumbnail_url_original": "https://raw.githubusercontent.com/tvgram-inc/tvgram-inc.github.io/master/images/logo.png"
                    },
                    "sub_83": {
                        "id": 83,
                        "mode": "video",
                        "name_original": "Channel 83",
                        "name": "\u041c\u0438\u0440",
                        "sub_name": "",
                        "stream_video_url": "http://hls.mirtv.cdnvideo.ru/mirtv-parampublish/mirtv_2500/playlist.m3u8",
                        "thumbnail_url": "https://gitlab.com/bitcodingsolutions/TVGram/-/raw/master/TVGram/ChannelsLogo/TvGram.png",
                        "thumbnail_url_original": "https://raw.githubusercontent.com/tvgram-inc/tvgram-inc.github.io/master/images/logo.png"
                    },
                    "sub_84": {
                        "id": 84,
                        "mode": "video",
                        "name_original": "Channel 84",
                        "name": "\u041c\u0438\u0440 \u0411\u0435\u043b\u0430\u0433\u043e\u0440\u044c\u044f",
                        "sub_name": "",
                        "stream_video_url": "http://mirbelogorya.ru:8080/mirbelogorya/index.m3u8",
                        "thumbnail_url": "https://gitlab.com/bitcodingsolutions/TVGram/-/raw/master/TVGram/ChannelsLogo/TvGram.png",
                        "thumbnail_url_original": "https://raw.githubusercontent.com/tvgram-inc/tvgram-inc.github.io/master/images/logo.png"
                    },
                    "sub_85": {
                        "id": 85,
                        "mode": "video",
                        "name_original": "Channel 85",
                        "name": "\u041c\u0438\u0440 \u0411\u0435\u043b\u043e\u0433\u043e\u0440\u044c\u044f",
                        "sub_name": "",
                        "stream_video_url": "http://stream.tvbelgorod.ru:8080/mirbelogorya/index.m3u8",
                        "thumbnail_url": "https://gitlab.com/bitcodingsolutions/TVGram/-/raw/master/TVGram/ChannelsLogo/TvGram.png",
                        "thumbnail_url_original": "https://raw.githubusercontent.com/tvgram-inc/tvgram-inc.github.io/master/images/logo.png"
                    },
                    "sub_86": {
                        "id": 86,
                        "mode": "video",
                        "name_original": "Channel 86",
                        "name": "\u041c\u043e\u0440\u0441\u043a\u043e\u0439",
                        "sub_name": "",
                        "stream_video_url": "http://88b9da48.kazmazpaz.ru/iptv/D7M94NBVB5DLFS/742/index.m3u8",
                        "thumbnail_url": "https://gitlab.com/bitcodingsolutions/TVGram/-/raw/master/TVGram/ChannelsLogo/TvGram.png",
                        "thumbnail_url_original": "https://raw.githubusercontent.com/tvgram-inc/tvgram-inc.github.io/master/images/logo.png"
                    },
                    "sub_87": {
                        "id": 87,
                        "mode": "video",
                        "name_original": "Channel 87",
                        "name": "\u041c\u0422\u0412",
                        "sub_name": "",
                        "stream_video_url": "http://hls.volgograd1vtv.cdnvideo.ru/volgograd1vtv/volgograd1vtv.sdp/playlist.m3u8",
                        "thumbnail_url": "https://gitlab.com/bitcodingsolutions/TVGram/-/raw/master/TVGram/ChannelsLogo/TvGram.png",
                        "thumbnail_url_original": "https://raw.githubusercontent.com/tvgram-inc/tvgram-inc.github.io/master/images/logo.png"
                    },
                    "sub_88": {
                        "id": 88,
                        "mode": "video",
                        "name_original": "Channel 88",
                        "name": "\u041c\u0443\u0437 \u0441\u043e\u044e\u0437",
                        "sub_name": "",
                        "stream_video_url": "http://hls-tvsoyuz.cdnvideo.ru/tvsoyuz2/muzsoyuz.6fw0-58xp-acts-esy0/playlist.m3u8",
                        "thumbnail_url": "https://gitlab.com/bitcodingsolutions/TVGram/-/raw/master/TVGram/ChannelsLogo/TvGram.png",
                        "thumbnail_url_original": "https://raw.githubusercontent.com/tvgram-inc/tvgram-inc.github.io/master/images/logo.png"
                    },
                    "sub_89": {
                        "id": 89,
                        "mode": "video",
                        "name_original": "Channel 89",
                        "name": "\u041d\u0430\u0434\u0435\u0436\u0434\u0430",
                        "sub_name": "",
                        "stream_video_url": "https://live-tvhope.cdnvideo.ru/tvhope-pull/tvhope_1/playlist.m3u8",
                        "thumbnail_url": "https://gitlab.com/bitcodingsolutions/TVGram/-/raw/master/TVGram/ChannelsLogo/TvGram.png",
                        "thumbnail_url_original": "https://raw.githubusercontent.com/tvgram-inc/tvgram-inc.github.io/master/images/logo.png"
                    },
                    "sub_90": {
                        "id": 90,
                        "mode": "video",
                        "name_original": "Channel 90",
                        "name": "\u041d\u0430\u0434\u0438\u044f/\u041d\u043e\u0432\u044b\u0439 \u043a\u0430\u043d\u0430\u043b",
                        "sub_name": "",
                        "stream_video_url": "http://nadiya.home-net.com.ua/mob/mystream.m3u8",
                        "thumbnail_url": "https://gitlab.com/bitcodingsolutions/TVGram/-/raw/master/TVGram/ChannelsLogo/TvGram.png",
                        "thumbnail_url_original": "https://raw.githubusercontent.com/tvgram-inc/tvgram-inc.github.io/master/images/logo.png"
                    },
                    "sub_91": {
                        "id": 91,
                        "mode": "video",
                        "name_original": "Channel 91",
                        "name": "\u041d\u0430\u0448\u0430 \u0421\u0438\u0431\u0438\u0440\u044c / \u041a\u0435\u043c\u0435\u0440\u043e\u0432\u043e",
                        "sub_name": "",
                        "stream_video_url": "https://strm.yandex.ru/kal/sibir/sibir0.m3u8",
                        "thumbnail_url": "https://gitlab.com/bitcodingsolutions/TVGram/-/raw/master/TVGram/ChannelsLogo/TvGram.png",
                        "thumbnail_url_original": "https://raw.githubusercontent.com/tvgram-inc/tvgram-inc.github.io/master/images/logo.png"
                    },
                    "sub_92": {
                        "id": 92,
                        "mode": "video",
                        "name_original": "Channel 92",
                        "name": "\u041d\u0430\u0448\u0435 \u041a\u0440\u0443\u0442\u043e\u0435 HD",
                        "sub_name": "",
                        "stream_video_url": "http://ba5729d5.krasnafhg.ru/iptv/EAEWFFWBXPVVLY/915/index.m3u8",
                        "thumbnail_url": "https://gitlab.com/bitcodingsolutions/TVGram/-/raw/master/TVGram/ChannelsLogo/TvGram.png",
                        "thumbnail_url_original": "https://raw.githubusercontent.com/tvgram-inc/tvgram-inc.github.io/master/images/logo.png"
                    },
                    "sub_93": {
                        "id": 93,
                        "mode": "video",
                        "name_original": "Channel 93",
                        "name": "\u041d\u0435\u0431\u0435\u0441\u0430 \u0422\u04127",
                        "sub_name": "",
                        "stream_video_url": "https://vod.tv7.fi/tv7-ru/tv7-ru.smil/playlist.m3u8",
                        "thumbnail_url": "https://gitlab.com/bitcodingsolutions/TVGram/-/raw/master/TVGram/ChannelsLogo/TvGram.png",
                        "thumbnail_url_original": "https://raw.githubusercontent.com/tvgram-inc/tvgram-inc.github.io/master/images/logo.png"
                    },
                    "sub_94": {
                        "id": 94,
                        "mode": "video",
                        "name_original": "Channel 94",
                        "name": "\u041d\u0438\u0436\u043d\u0438\u0439 \u041d\u043e\u0432\u0433\u043e\u0440\u043e\u0434 24",
                        "sub_name": "",
                        "stream_video_url": "https://live-vestinn.cdnvideo.ru/vestinn/nn24-khl/playlist.m3u8",
                        "thumbnail_url": "https://gitlab.com/bitcodingsolutions/TVGram/-/raw/master/TVGram/ChannelsLogo/TvGram.png",
                        "thumbnail_url_original": "https://raw.githubusercontent.com/tvgram-inc/tvgram-inc.github.io/master/images/logo.png"
                    },
                    "sub_95": {
                        "id": 95,
                        "mode": "video",
                        "name_original": "Channel 95",
                        "name": "\u041d\u0438\u043a\u0430 \u0422\u0412",
                        "sub_name": "",
                        "stream_video_url": "https://live-nikatv.cdnvideo.ru/nikatv/nikatv.sdp/playlist.m3u8",
                        "thumbnail_url": "https://gitlab.com/bitcodingsolutions/TVGram/-/raw/master/TVGram/ChannelsLogo/TvGram.png",
                        "thumbnail_url_original": "https://raw.githubusercontent.com/tvgram-inc/tvgram-inc.github.io/master/images/logo.png"
                    },
                    "sub_96": {
                        "id": 96,
                        "mode": "video",
                        "name_original": "Channel 96",
                        "name": "\u041d\u043e\u0432\u043e\u0440\u043e\u0441\u0441\u0438\u044f \u0422\u0412",
                        "sub_name": "",
                        "stream_video_url": "http://ott.inmart.tv:8081/19/index.m3u8",
                        "thumbnail_url": "https://gitlab.com/bitcodingsolutions/TVGram/-/raw/master/TVGram/ChannelsLogo/TvGram.png",
                        "thumbnail_url_original": "https://raw.githubusercontent.com/tvgram-inc/tvgram-inc.github.io/master/images/logo.png"
                    },
                    "sub_97": {
                        "id": 97,
                        "mode": "video",
                        "name_original": "Channel 97",
                        "name": "\u041d\u0422\u041c",
                        "sub_name": "",
                        "stream_video_url": "https://live-ntm13.cdnvideo.ru/ntm13/smil:ntm13.smil/playlist.m3u8",
                        "thumbnail_url": "https://gitlab.com/bitcodingsolutions/TVGram/-/raw/master/TVGram/ChannelsLogo/TvGram.png",
                        "thumbnail_url_original": "https://raw.githubusercontent.com/tvgram-inc/tvgram-inc.github.io/master/images/logo.png"
                    },
                    "sub_98": {
                        "id": 98,
                        "mode": "video",
                        "name_original": "Channel 98",
                        "name": "\u041d\u0422\u0421",
                        "sub_name": "",
                        "stream_video_url": "https://peqk71plnjy.a.trbcdn.net/livemaster/w4kz7pki62_nts_tv/playlist.m3u8",
                        "thumbnail_url": "https://gitlab.com/bitcodingsolutions/TVGram/-/raw/master/TVGram/ChannelsLogo/TvGram.png",
                        "thumbnail_url_original": "https://raw.githubusercontent.com/tvgram-inc/tvgram-inc.github.io/master/images/logo.png"
                    },
                    "sub_99": {
                        "id": 99,
                        "mode": "video",
                        "name_original": "Channel 99",
                        "name": "\u041e\u0431\u0449\u0435\u0441\u0442\u0432\u0435\u043d\u043d\u043e\u0435 \u041d\u0435\u0437\u0430\u0432\u0438\u0441\u0438\u043c\u043e\u0435 \u0422\u0435\u043b\u0435\u0432\u0438\u0434\u0435\u043d\u0438\u0435",
                        "sub_name": "",
                        "stream_video_url": "http://85.238.112.40:8810/hls_sec/239.33.75.33-.m3u8",
                        "thumbnail_url": "https://gitlab.com/bitcodingsolutions/TVGram/-/raw/master/TVGram/ChannelsLogo/TvGram.png",
                        "thumbnail_url_original": "https://raw.githubusercontent.com/tvgram-inc/tvgram-inc.github.io/master/images/logo.png"
                    },
                    "sub_100": {
                        "id": 100,
                        "mode": "video",
                        "name_original": "Channel 100",
                        "name": "\u041e\u043f\u043b\u043e\u0442 \u0422\u0412",
                        "sub_name": "",
                        "stream_video_url": "http://ott.inmart.tv:8081/54/index.m3u8",
                        "thumbnail_url": "https://gitlab.com/bitcodingsolutions/TVGram/-/raw/master/TVGram/ChannelsLogo/TvGram.png",
                        "thumbnail_url_original": "https://raw.githubusercontent.com/tvgram-inc/tvgram-inc.github.io/master/images/logo.png"
                    },
                    "sub_101": {
                        "id": 101,
                        "mode": "video",
                        "name_original": "Channel 101",
                        "name": "\u041e\u0422\u0420",
                        "sub_name": "",
                        "stream_video_url": "https://strm.yandex.ru/kal/otr/otr0.m3u8",
                        "thumbnail_url": "https://gitlab.com/bitcodingsolutions/TVGram/-/raw/master/TVGram/ChannelsLogo/TvGram.png",
                        "thumbnail_url_original": "https://raw.githubusercontent.com/tvgram-inc/tvgram-inc.github.io/master/images/logo.png"
                    },
                    "sub_102": {
                        "id": 102,
                        "mode": "video",
                        "name_original": "Channel 102",
                        "name": "\u041f\u0435\u0440\u0432\u044b\u0439 \u041c\u0443\u0437\u044b\u043a\u0430\u043b\u044c\u043d\u044b\u0439 \u041a\u0430\u043d\u0430\u043b",
                        "sub_name": "",
                        "stream_video_url": "http://hz1.teleport.cc/HLS/SD.m3u8",
                        "thumbnail_url": "https://gitlab.com/bitcodingsolutions/TVGram/-/raw/master/TVGram/ChannelsLogo/TvGram.png",
                        "thumbnail_url_original": "https://raw.githubusercontent.com/tvgram-inc/tvgram-inc.github.io/master/images/logo.png"
                    },
                    "sub_103": {
                        "id": 103,
                        "mode": "video",
                        "name_original": "Channel 103",
                        "name": "\u041f\u0435\u0440\u0432\u044b\u0439 \u0422\u0443\u043b\u044c\u0441\u043a\u0438\u0439",
                        "sub_name": "",
                        "stream_video_url": "http://5.164.24.83/tula/1tv_low/index.m3u8",
                        "thumbnail_url": "https://gitlab.com/bitcodingsolutions/TVGram/-/raw/master/TVGram/ChannelsLogo/TvGram.png",
                        "thumbnail_url_original": "https://raw.githubusercontent.com/tvgram-inc/tvgram-inc.github.io/master/images/logo.png"
                    },
                    "sub_104": {
                        "id": 104,
                        "mode": "video",
                        "name_original": "Channel 104",
                        "name": "\u041f\u0440\u043e\u0441\u0432\u0435\u0449\u0435\u043d\u0438\u0435",
                        "sub_name": "",
                        "stream_video_url": "https://cdn-01.bonus-tv.ru/prosveschenie_edge/playlist.m3u8",
                        "thumbnail_url": "https://gitlab.com/bitcodingsolutions/TVGram/-/raw/master/TVGram/ChannelsLogo/TvGram.png",
                        "thumbnail_url_original": "https://raw.githubusercontent.com/tvgram-inc/tvgram-inc.github.io/master/images/logo.png"
                    },
                    "sub_105": {
                        "id": 105,
                        "mode": "video",
                        "name_original": "Channel 105",
                        "name": "\u0420\u0430\u0434\u0438\u043e \u0413\u043e\u0432\u043e\u0440\u0438\u0442 \u041c\u043e\u0441\u043a\u0432\u0430",
                        "sub_name": "",
                        "stream_video_url": "http://video.govoritmoskva.ru:8080/live/rufmbk-1/index.m3u8",
                        "thumbnail_url": "https://gitlab.com/bitcodingsolutions/TVGram/-/raw/master/TVGram/ChannelsLogo/TvGram.png",
                        "thumbnail_url_original": "https://raw.githubusercontent.com/tvgram-inc/tvgram-inc.github.io/master/images/logo.png"
                    },
                    "sub_106": {
                        "id": 106,
                        "mode": "video",
                        "name_original": "Channel 106",
                        "name": "\u0420\u0430\u0434\u0438\u043e \u0413\u043e\u0432\u043e\u0440\u0438\u0442 \u041c\u043e\u0441\u043a\u0432\u0430",
                        "sub_name": "",
                        "stream_video_url": "https://video.govoritmoskva.ru/rufm/index.m3u8",
                        "thumbnail_url": "https://gitlab.com/bitcodingsolutions/TVGram/-/raw/master/TVGram/ChannelsLogo/TvGram.png",
                        "thumbnail_url_original": "https://raw.githubusercontent.com/tvgram-inc/tvgram-inc.github.io/master/images/logo.png"
                    },
                    "sub_107": {
                        "id": 107,
                        "mode": "video",
                        "name_original": "Channel 107",
                        "name": "\u0420\u0430\u0434\u0438\u043e \u041f\u0438\u043b\u043e\u0442",
                        "sub_name": "",
                        "stream_video_url": "https://pilotfm.ru/cam/hls/pilothd.m3u8",
                        "thumbnail_url": "https://gitlab.com/bitcodingsolutions/TVGram/-/raw/master/TVGram/ChannelsLogo/TvGram.png",
                        "thumbnail_url_original": "https://raw.githubusercontent.com/tvgram-inc/tvgram-inc.github.io/master/images/logo.png"
                    },
                    "sub_108": {
                        "id": 108,
                        "mode": "video",
                        "name_original": "Channel 108",
                        "name": "\u0420\u0430\u0434\u0438\u043e \u0425\u0438\u0442",
                        "sub_name": "",
                        "stream_video_url": "http://lova.me/hls/hithd.m3u8",
                        "thumbnail_url": "https://gitlab.com/bitcodingsolutions/TVGram/-/raw/master/TVGram/ChannelsLogo/TvGram.png",
                        "thumbnail_url_original": "https://raw.githubusercontent.com/tvgram-inc/tvgram-inc.github.io/master/images/logo.png"
                    },
                    "sub_109": {
                        "id": 109,
                        "mode": "video",
                        "name_original": "Channel 109",
                        "name": "\u0420\u0430\u0434\u0438\u043e \u0428\u0430\u043d\u0441\u043e\u043d",
                        "sub_name": "",
                        "stream_video_url": "http://chanson-video.hostingradio.ru:8080/hls/chansonabr/live.m3u8",
                        "thumbnail_url": "https://gitlab.com/bitcodingsolutions/TVGram/-/raw/master/TVGram/ChannelsLogo/TvGram.png",
                        "thumbnail_url_original": "https://raw.githubusercontent.com/tvgram-inc/tvgram-inc.github.io/master/images/logo.png"
                    },
                    "sub_110": {
                        "id": 110,
                        "mode": "video",
                        "name_original": "Channel 110",
                        "name": "\u0420\u0411\u041a",
                        "sub_name": "",
                        "stream_video_url": "http://uiptv.do.am/1ufc/701293058/playlist.m3u8",
                        "thumbnail_url": "https://gitlab.com/bitcodingsolutions/TVGram/-/raw/master/TVGram/ChannelsLogo/TvGram.png",
                        "thumbnail_url_original": "https://raw.githubusercontent.com/tvgram-inc/tvgram-inc.github.io/master/images/logo.png"
                    },
                    "sub_111": {
                        "id": 111,
                        "mode": "video",
                        "name_original": "Channel 111",
                        "name": "\u0420\u043e\u0441\u0442\u043e\u0432-\u043f\u0430\u043f\u0430",
                        "sub_name": "",
                        "stream_video_url": "http://live-rostovpapa.cdnvideo.ru/rostovpapa/rostovpapa.sdp/playlist.m3u8",
                        "thumbnail_url": "https://gitlab.com/bitcodingsolutions/TVGram/-/raw/master/TVGram/ChannelsLogo/TvGram.png",
                        "thumbnail_url_original": "https://raw.githubusercontent.com/tvgram-inc/tvgram-inc.github.io/master/images/logo.png"
                    },
                    "sub_112": {
                        "id": 112,
                        "mode": "video",
                        "name_original": "Channel 112",
                        "name": "\u0420\u0443\u0441\u0441\u043a\u0438\u0439 \u0421\u0435\u0432\u0435\u0440",
                        "sub_name": "",
                        "stream_video_url": "http://185.186.142.16/streams.rs.m3u8",
                        "thumbnail_url": "https://gitlab.com/bitcodingsolutions/TVGram/-/raw/master/TVGram/ChannelsLogo/TvGram.png",
                        "thumbnail_url_original": "https://raw.githubusercontent.com/tvgram-inc/tvgram-inc.github.io/master/images/logo.png"
                    },
                    "sub_113": {
                        "id": 113,
                        "mode": "video",
                        "name_original": "Channel 113",
                        "name": "\u0421\u0430\u043b\u044f\u043c",
                        "sub_name": "",
                        "stream_video_url": "https://bsttv.bonus-tv.ru/cdn/salyam/playlist.m3u8",
                        "thumbnail_url": "https://gitlab.com/bitcodingsolutions/TVGram/-/raw/master/TVGram/ChannelsLogo/TvGram.png",
                        "thumbnail_url_original": "https://raw.githubusercontent.com/tvgram-inc/tvgram-inc.github.io/master/images/logo.png"
                    },
                    "sub_114": {
                        "id": 114,
                        "mode": "video",
                        "name_original": "Channel 114",
                        "name": "\u0421\u0430\u043c\u0430\u0440\u0430 \u0413\u0418\u0421",
                        "sub_name": "",
                        "stream_video_url": "http://45.67.57.9:8080/new/new/playlist.m3u8",
                        "thumbnail_url": "https://gitlab.com/bitcodingsolutions/TVGram/-/raw/master/TVGram/ChannelsLogo/TvGram.png",
                        "thumbnail_url_original": "https://raw.githubusercontent.com/tvgram-inc/tvgram-inc.github.io/master/images/logo.png"
                    },
                    "sub_115": {
                        "id": 115,
                        "mode": "video",
                        "name_original": "Channel 115",
                        "name": "\u0421\u0432\u0430\u0440\u043e\u0436\u0438\u0447\u0438",
                        "sub_name": "",
                        "stream_video_url": "http://80.91.177.102:1935/live/live1/playlist.m3u8",
                        "thumbnail_url": "https://gitlab.com/bitcodingsolutions/TVGram/-/raw/master/TVGram/ChannelsLogo/TvGram.png",
                        "thumbnail_url_original": "https://raw.githubusercontent.com/tvgram-inc/tvgram-inc.github.io/master/images/logo.png"
                    },
                    "sub_116": {
                        "id": 116,
                        "mode": "video",
                        "name_original": "Channel 116",
                        "name": "\u0421\u0435\u0432\u0435\u0440",
                        "sub_name": "",
                        "stream_video_url": "https://live2.mediacdn.ru/sr1/sever-mobile/playlist.m3u8",
                        "thumbnail_url": "https://gitlab.com/bitcodingsolutions/TVGram/-/raw/master/TVGram/ChannelsLogo/TvGram.png",
                        "thumbnail_url_original": "https://raw.githubusercontent.com/tvgram-inc/tvgram-inc.github.io/master/images/logo.png"
                    },
                    "sub_117": {
                        "id": 117,
                        "mode": "video",
                        "name_original": "Channel 117",
                        "name": "\u0421\u0435\u043b\u0435\u043d\u0433\u0430 \u0422\u0412",
                        "sub_name": "",
                        "stream_video_url": "http://90.188.37.86/live/playlist.m3u8",
                        "thumbnail_url": "https://gitlab.com/bitcodingsolutions/TVGram/-/raw/master/TVGram/ChannelsLogo/TvGram.png",
                        "thumbnail_url_original": "https://raw.githubusercontent.com/tvgram-inc/tvgram-inc.github.io/master/images/logo.png"
                    },
                    "sub_118": {
                        "id": 118,
                        "mode": "video",
                        "name_original": "Channel 118",
                        "name": "\u0421\u043e\u044e\u0437",
                        "sub_name": "",
                        "stream_video_url": "http://hls-tvsoyuz.cdnvideo.ru/tvsoyuz/soyuz/playlist.m3u8",
                        "thumbnail_url": "https://gitlab.com/bitcodingsolutions/TVGram/-/raw/master/TVGram/ChannelsLogo/TvGram.png",
                        "thumbnail_url_original": "https://raw.githubusercontent.com/tvgram-inc/tvgram-inc.github.io/master/images/logo.png"
                    },
                    "sub_119": {
                        "id": 119,
                        "mode": "video",
                        "name_original": "Channel 119",
                        "name": "\u0421\u041f\u0410\u0421",
                        "sub_name": "",
                        "stream_video_url": "http://spas.mediacdn.ru/cdn/spas/playlist.m3u8",
                        "thumbnail_url": "https://gitlab.com/bitcodingsolutions/TVGram/-/raw/master/TVGram/ChannelsLogo/TvGram.png",
                        "thumbnail_url_original": "https://raw.githubusercontent.com/tvgram-inc/tvgram-inc.github.io/master/images/logo.png"
                    },
                    "sub_120": {
                        "id": 120,
                        "mode": "video",
                        "name_original": "Channel 120",
                        "name": "\u0421\u0442\u0430\u0440\u0442",
                        "sub_name": "",
                        "stream_video_url": "https://strm.yandex.ru/kal/start/start0.m3u8",
                        "thumbnail_url": "https://gitlab.com/bitcodingsolutions/TVGram/-/raw/master/TVGram/ChannelsLogo/TvGram.png",
                        "thumbnail_url_original": "https://raw.githubusercontent.com/tvgram-inc/tvgram-inc.github.io/master/images/logo.png"
                    },
                    "sub_121": {
                        "id": 121,
                        "mode": "video",
                        "name_original": "Channel 121",
                        "name": "\u0421\u0442\u0440\u0430\u043d\u0430 FM",
                        "sub_name": "",
                        "stream_video_url": "http://live.stranafm.cdnvideo.ru/stranafm/stranafm_hd.sdp/playlist.m3u8",
                        "thumbnail_url": "https://gitlab.com/bitcodingsolutions/TVGram/-/raw/master/TVGram/ChannelsLogo/TvGram.png",
                        "thumbnail_url_original": "https://raw.githubusercontent.com/tvgram-inc/tvgram-inc.github.io/master/images/logo.png"
                    },
                    "sub_122": {
                        "id": 122,
                        "mode": "video",
                        "name_original": "Channel 122",
                        "name": "\u0421\u0422\u0420\u041a",
                        "sub_name": "",
                        "stream_video_url": "http://sochinskayatrk.ru/hdtv/hls/strc_hd/playlist.m3u8",
                        "thumbnail_url": "https://gitlab.com/bitcodingsolutions/TVGram/-/raw/master/TVGram/ChannelsLogo/TvGram.png",
                        "thumbnail_url_original": "https://raw.githubusercontent.com/tvgram-inc/tvgram-inc.github.io/master/images/logo.png"
                    },
                    "sub_123": {
                        "id": 123,
                        "mode": "video",
                        "name_original": "Channel 123",
                        "name": "\u0422\u0430\u043c\u044b\u0440",
                        "sub_name": "",
                        "stream_video_url": "https://bsttv.bonus-tv.ru/cdn/tamyr/playlist.m3u8",
                        "thumbnail_url": "https://gitlab.com/bitcodingsolutions/TVGram/-/raw/master/TVGram/ChannelsLogo/TvGram.png",
                        "thumbnail_url_original": "https://raw.githubusercontent.com/tvgram-inc/tvgram-inc.github.io/master/images/logo.png"
                    },
                    "sub_124": {
                        "id": 124,
                        "mode": "video",
                        "name_original": "Channel 124",
                        "name": "\u0422\u0412\u041a 24",
                        "sub_name": "",
                        "stream_video_url": "http://air.tvk6.ru/tvk24/playlist.m3u8",
                        "thumbnail_url": "https://gitlab.com/bitcodingsolutions/TVGram/-/raw/master/TVGram/ChannelsLogo/TvGram.png",
                        "thumbnail_url_original": "https://raw.githubusercontent.com/tvgram-inc/tvgram-inc.github.io/master/images/logo.png"
                    },
                    "sub_125": {
                        "id": 125,
                        "mode": "video",
                        "name_original": "Channel 125",
                        "name": "\u0422\u0435\u043b\u0435\u043a\u0430\u043d\u0430\u043b 86",
                        "sub_name": "",
                        "stream_video_url": "https://sitv.ru/hls/s86.m3u8",
                        "thumbnail_url": "https://gitlab.com/bitcodingsolutions/TVGram/-/raw/master/TVGram/ChannelsLogo/TvGram.png",
                        "thumbnail_url_original": "https://raw.githubusercontent.com/tvgram-inc/tvgram-inc.github.io/master/images/logo.png"
                    },
                    "sub_126": {
                        "id": 126,
                        "mode": "video",
                        "name_original": "Channel 126",
                        "name": "\u0422\u0435\u043b\u043f\u043b\u044e\u0441 \u0422\u0412",
                        "sub_name": "",
                        "stream_video_url": "http://streaming.astrakhan.ru/telplushd/playlist.m3u8",
                        "thumbnail_url": "https://gitlab.com/bitcodingsolutions/TVGram/-/raw/master/TVGram/ChannelsLogo/TvGram.png",
                        "thumbnail_url_original": "https://raw.githubusercontent.com/tvgram-inc/tvgram-inc.github.io/master/images/logo.png"
                    },
                    "sub_127": {
                        "id": 127,
                        "mode": "video",
                        "name_original": "Channel 127",
                        "name": "\u0422\u0438\u0432\u0438\u043a\u043e\u043c",
                        "sub_name": "",
                        "stream_video_url": "http://tvcom.stream.intelema.ru/tvcom/studio/playlist.m3u8",
                        "thumbnail_url": "https://gitlab.com/bitcodingsolutions/TVGram/-/raw/master/TVGram/ChannelsLogo/TvGram.png",
                        "thumbnail_url_original": "https://raw.githubusercontent.com/tvgram-inc/tvgram-inc.github.io/master/images/logo.png"
                    },
                    "sub_128": {
                        "id": 128,
                        "mode": "video",
                        "name_original": "Channel 128",
                        "name": "\u0422\u041a \u0410\u043b\u043c\u0430\u0437\u043d\u044b\u0439 \u043a\u0440\u0430\u0439",
                        "sub_name": "",
                        "stream_video_url": "https://stream.almaz-media.tv:8080/hls/576.m3u8",
                        "thumbnail_url": "https://gitlab.com/bitcodingsolutions/TVGram/-/raw/master/TVGram/ChannelsLogo/TvGram.png",
                        "thumbnail_url_original": "https://raw.githubusercontent.com/tvgram-inc/tvgram-inc.github.io/master/images/logo.png"
                    },
                    "sub_129": {
                        "id": 129,
                        "mode": "video",
                        "name_original": "Channel 129",
                        "name": "\u0422\u041a\u0420",
                        "sub_name": "",
                        "stream_video_url": "http://live.tkr.cdnvideo.ru/tkr/tkr.sdp/playlist.m3u8",
                        "thumbnail_url": "https://gitlab.com/bitcodingsolutions/TVGram/-/raw/master/TVGram/ChannelsLogo/TvGram.png",
                        "thumbnail_url_original": "https://raw.githubusercontent.com/tvgram-inc/tvgram-inc.github.io/master/images/logo.png"
                    },
                    "sub_130": {
                        "id": 130,
                        "mode": "video",
                        "name_original": "Channel 130",
                        "name": "\u0422\u041d\u0422 Music",
                        "sub_name": "",
                        "stream_video_url": "http://strm.yandex.ru/kal/tntmusic/tntmusic0.m3u8",
                        "thumbnail_url": "https://gitlab.com/bitcodingsolutions/TVGram/-/raw/master/TVGram/ChannelsLogo/TvGram.png",
                        "thumbnail_url_original": "https://raw.githubusercontent.com/tvgram-inc/tvgram-inc.github.io/master/images/logo.png"
                    },
                    "sub_131": {
                        "id": 131,
                        "mode": "video",
                        "name_original": "Channel 131",
                        "name": "\u0422\u0440\u0438 \u0410\u043d\u0433\u0435\u043b\u0430",
                        "sub_name": "",
                        "stream_video_url": "https://hls.tv.3angels.ru/stream.m3u8",
                        "thumbnail_url": "https://gitlab.com/bitcodingsolutions/TVGram/-/raw/master/TVGram/ChannelsLogo/TvGram.png",
                        "thumbnail_url_original": "https://raw.githubusercontent.com/tvgram-inc/tvgram-inc.github.io/master/images/logo.png"
                    },
                    "sub_132": {
                        "id": 132,
                        "mode": "video",
                        "name_original": "Channel 132",
                        "name": "\u0429\u0451\u043b\u043a\u043e\u0432\u0441\u043a\u043e\u0435 \u0422\u0412",
                        "sub_name": "",
                        "stream_video_url": "http://stream0.tv41.ru/live.m3u8",
                        "thumbnail_url": "https://gitlab.com/bitcodingsolutions/TVGram/-/raw/master/TVGram/ChannelsLogo/TvGram.png",
                        "thumbnail_url_original": "https://raw.githubusercontent.com/tvgram-inc/tvgram-inc.github.io/master/images/logo.png"
                    },
                    "sub_133": {
                        "id": 133,
                        "mode": "video",
                        "name_original": "Channel 133",
                        "name": "\u042d\u0445\u043e TV",
                        "sub_name": "",
                        "stream_video_url": "https://live-echotv.cdnvideo.ru/echotv/echotv.sdp/playlist.m3u8",
                        "thumbnail_url": "https://gitlab.com/bitcodingsolutions/TVGram/-/raw/master/TVGram/ChannelsLogo/TvGram.png",
                        "thumbnail_url_original": "https://raw.githubusercontent.com/tvgram-inc/tvgram-inc.github.io/master/images/logo.png"
                    },
                    "sub_134": {
                        "id": 134,
                        "mode": "video",
                        "name_original": "Channel 134",
                        "name": "\u042e\u0432\u0435\u043b\u0438\u0440\u043e\u0447\u043a\u0430 \u0422\u0412",
                        "sub_name": "",
                        "stream_video_url": "http://live-uvelirochka.cdnvideo.ru/uvelirochka/uvelirochka_720p3/playlist.m3u8",
                        "thumbnail_url": "https://gitlab.com/bitcodingsolutions/TVGram/-/raw/master/TVGram/ChannelsLogo/TvGram.png",
                        "thumbnail_url_original": "https://raw.githubusercontent.com/tvgram-inc/tvgram-inc.github.io/master/images/logo.png"
                    }
                }
            }
        }
    }
}