{
    "TV_Data": {
        "Channel_List": {
            "is_channel_list": true,
            "is_override": true,
            "thumb_width": 150,
            "all_Channels_Tab_Name": "",
            "main": {
                "id": 1,
                "name": "Honduras Channels",
                "sub_name": "Channels",
                "thumbnail_url": "https://flagpedia.net/data/flags/h80/hn.png",
                "sub": {
                    "sub_1": {
                        "id": 1,
                        "mode": "video",
                        "name_original": "Channel 1",
                        "name": "Agrotendencia TV",
                        "sub_name": "",
                        "stream_video_url": "https://5fc584f3f19c9.streamlock.net/agrotendencia/videoagrotendencia_hls1/playlist.m3u8",
                        "thumbnail_url": "https://i.imgur.com/frd60hR.png",
                        "thumbnail_url_original": "https://raw.githubusercontent.com/tvgram-inc/tvgram-inc.github.io/master/images/logo.png"
                    },
                    "sub_2": {
                        "id": 2,
                        "mode": "video",
                        "name_original": "Channel 2",
                        "name": "Aviva TV",
                        "sub_name": "",
                        "stream_video_url": "https://video.misistemareseller.com/atvhonduras/atvhonduras/playlist.m3u8",
                        "thumbnail_url": "https://i.imgur.com/GN3jTFu.png",
                        "thumbnail_url_original": "https://raw.githubusercontent.com/tvgram-inc/tvgram-inc.github.io/master/images/logo.png"
                    },
                    "sub_3": {
                        "id": 3,
                        "mode": "video",
                        "name_original": "Channel 3",
                        "name": "Bahrain International",
                        "sub_name": "",
                        "stream_video_url": "https://5c7b683162943.streamlock.net/live/ngrp:bahraininternational_all/playlist.m3u8",
                        "thumbnail_url": "https://www.lyngsat.com/logo/tv/bb/bahrain_tv_international.png",
                        "thumbnail_url_original": "https://raw.githubusercontent.com/tvgram-inc/tvgram-inc.github.io/master/images/logo.png"
                    },
                    "sub_4": {
                        "id": 4,
                        "mode": "video",
                        "name_original": "Channel 4",
                        "name": "BeritaSatu World",
                        "sub_name": "",
                        "stream_video_url": "https://b1world.beritasatumedia.com/Beritasatu/B1World_manifest.m3u8",
                        "thumbnail_url": "https://upload.wikimedia.org/wikipedia/commons/thumb/f/f1/BeritaSatuWorld.png/512px-BeritaSatuWorld.png",
                        "thumbnail_url_original": "https://raw.githubusercontent.com/tvgram-inc/tvgram-inc.github.io/master/images/logo.png"
                    },
                    "sub_5": {
                        "id": 5,
                        "mode": "video",
                        "name_original": "Channel 5",
                        "name": "Canal 26",
                        "sub_name": "",
                        "stream_video_url": "http://200.115.193.177/live/26hd-720/playlist.m3u8",
                        "thumbnail_url": "https://upload.wikimedia.org/wikipedia/commons/thumb/c/c5/Canal_26_logo_%282022%29.svg/512px-Canal_26_logo_%282022%29.svg.png",
                        "thumbnail_url_original": "https://raw.githubusercontent.com/tvgram-inc/tvgram-inc.github.io/master/images/logo.png"
                    },
                    "sub_6": {
                        "id": 6,
                        "mode": "video",
                        "name_original": "Channel 6",
                        "name": "CGTN",
                        "sub_name": "",
                        "stream_video_url": "https://news.cgtn.com/resource/live/english/cgtn-news.m3u8",
                        "thumbnail_url": "https://upload.wikimedia.org/wikipedia/commons/thumb/8/81/CGTN.svg/512px-CGTN.svg.png",
                        "thumbnail_url_original": "https://raw.githubusercontent.com/tvgram-inc/tvgram-inc.github.io/master/images/logo.png"
                    },
                    "sub_7": {
                        "id": 7,
                        "mode": "video",
                        "name_original": "Channel 7",
                        "name": "CGTN Espa\u00f1ol",
                        "sub_name": "",
                        "stream_video_url": "https://news.cgtn.com/resource/live/espanol/cgtn-e.m3u8",
                        "thumbnail_url": "https://upload.wikimedia.org/wikipedia/commons/thumb/9/9c/CGTN_Espanol.png/512px-CGTN_Espanol.png",
                        "thumbnail_url_original": "https://raw.githubusercontent.com/tvgram-inc/tvgram-inc.github.io/master/images/logo.png"
                    },
                    "sub_8": {
                        "id": 8,
                        "mode": "video",
                        "name_original": "Channel 8",
                        "name": "Cholusat Sur 36",
                        "sub_name": "",
                        "stream_video_url": "http://audiotvserver.net:1935/livemedia/cholusat/playlist.m3u8",
                        "thumbnail_url": "https://i.imgur.com/qRHwhND.png",
                        "thumbnail_url_original": "https://raw.githubusercontent.com/tvgram-inc/tvgram-inc.github.io/master/images/logo.png"
                    },
                    "sub_9": {
                        "id": 9,
                        "mode": "video",
                        "name_original": "Channel 9",
                        "name": "Choluteca TV",
                        "sub_name": "",
                        "stream_video_url": "https://emisoras.hn:8081/cholutecatv/playlist.m3u8",
                        "thumbnail_url": "https://i.imgur.com/4ECjM4R.png",
                        "thumbnail_url_original": "https://raw.githubusercontent.com/tvgram-inc/tvgram-inc.github.io/master/images/logo.png"
                    },
                    "sub_10": {
                        "id": 10,
                        "mode": "video",
                        "name_original": "Channel 10",
                        "name": "Classic Arts Showcase",
                        "sub_name": "",
                        "stream_video_url": "https://classicarts.akamaized.net/hls/live/1024257/CAS/master.m3u8",
                        "thumbnail_url": "https://i.imgur.com/M6FFkc3.png",
                        "thumbnail_url_original": "https://raw.githubusercontent.com/tvgram-inc/tvgram-inc.github.io/master/images/logo.png"
                    },
                    "sub_11": {
                        "id": 11,
                        "mode": "video",
                        "name_original": "Channel 11",
                        "name": "CNA International",
                        "sub_name": "",
                        "stream_video_url": "https://d2e1asnsl7br7b.cloudfront.net/7782e205e72f43aeb4a48ec97f66ebbe/index.m3u8",
                        "thumbnail_url": "https://upload.wikimedia.org/wikipedia/commons/thumb/8/83/CNA_new_logo.svg/512px-CNA_new_logo.svg.png",
                        "thumbnail_url_original": "https://raw.githubusercontent.com/tvgram-inc/tvgram-inc.github.io/master/images/logo.png"
                    },
                    "sub_12": {
                        "id": 12,
                        "mode": "video",
                        "name_original": "Channel 12",
                        "name": "Dios Te Ve Infantil",
                        "sub_name": "",
                        "stream_video_url": "https://emisoras.hn:8081/diostevekids/playlist.m3u8",
                        "thumbnail_url": "https://i.imgur.com/nk2nLBH.png",
                        "thumbnail_url_original": "https://raw.githubusercontent.com/tvgram-inc/tvgram-inc.github.io/master/images/logo.png"
                    },
                    "sub_13": {
                        "id": 13,
                        "mode": "video",
                        "name_original": "Channel 13",
                        "name": "DW English",
                        "sub_name": "",
                        "stream_video_url": "https://dwamdstream102.akamaized.net/hls/live/2015525/dwstream102/index.m3u8",
                        "thumbnail_url": "https://i.imgur.com/A1xzjOI.png",
                        "thumbnail_url_original": "https://raw.githubusercontent.com/tvgram-inc/tvgram-inc.github.io/master/images/logo.png"
                    },
                    "sub_14": {
                        "id": 14,
                        "mode": "video",
                        "name_original": "Channel 14",
                        "name": "DW Espa\u00f1ol",
                        "sub_name": "",
                        "stream_video_url": "https://dwamdstream104.akamaized.net/hls/live/2015530/dwstream104/index.m3u8",
                        "thumbnail_url": "https://i.imgur.com/A1xzjOI.png",
                        "thumbnail_url_original": "https://raw.githubusercontent.com/tvgram-inc/tvgram-inc.github.io/master/images/logo.png"
                    },
                    "sub_15": {
                        "id": 15,
                        "mode": "video",
                        "name_original": "Channel 15",
                        "name": "EDN TV",
                        "sub_name": "",
                        "stream_video_url": "https://60417ddeaf0d9.streamlock.net/edntv/videoedntv/playlist.m3u8",
                        "thumbnail_url": "https://i.imgur.com/Dq9we3E.png",
                        "thumbnail_url_original": "https://raw.githubusercontent.com/tvgram-inc/tvgram-inc.github.io/master/images/logo.png"
                    },
                    "sub_16": {
                        "id": 16,
                        "mode": "video",
                        "name_original": "Channel 16",
                        "name": "EnerGeek Fanpop",
                        "sub_name": "",
                        "stream_video_url": "https://stream.wifispeed.cl:3247/live/energeek2live.m3u8",
                        "thumbnail_url": "https://i.imgur.com/AdsItgE.png",
                        "thumbnail_url_original": "https://raw.githubusercontent.com/tvgram-inc/tvgram-inc.github.io/master/images/logo.png"
                    },
                    "sub_17": {
                        "id": 17,
                        "mode": "video",
                        "name_original": "Channel 17",
                        "name": "EnerGeek Se\u00f1al 1",
                        "sub_name": "",
                        "stream_video_url": "https://stream.wifispeed.cl:3103/live/energeek1live.m3u8",
                        "thumbnail_url": "https://i.imgur.com/sFYhUs5.png",
                        "thumbnail_url_original": "https://raw.githubusercontent.com/tvgram-inc/tvgram-inc.github.io/master/images/logo.png"
                    },
                    "sub_18": {
                        "id": 18,
                        "mode": "video",
                        "name_original": "Channel 18",
                        "name": "EnerGeek Se\u00f1al 3",
                        "sub_name": "",
                        "stream_video_url": "https://stream.wifispeed.cl:3852/live/energeeklive.m3u8",
                        "thumbnail_url": "https://i2.paste.pics/2bf75a344d4cf7c2530247f14e101d84.png",
                        "thumbnail_url_original": "https://raw.githubusercontent.com/tvgram-inc/tvgram-inc.github.io/master/images/logo.png"
                    },
                    "sub_19": {
                        "id": 19,
                        "mode": "video",
                        "name_original": "Channel 19",
                        "name": "ERT World",
                        "sub_name": "",
                        "stream_video_url": "http://wpso.com:1936/hls/wzra.m3u8",
                        "thumbnail_url": "https://upload.wikimedia.org/wikipedia/commons/thumb/b/bc/ChannelLogo-ERTWORLD1.png/512px-ChannelLogo-ERTWORLD1.png",
                        "thumbnail_url_original": "https://raw.githubusercontent.com/tvgram-inc/tvgram-inc.github.io/master/images/logo.png"
                    },
                    "sub_20": {
                        "id": 20,
                        "mode": "video",
                        "name_original": "Channel 20",
                        "name": "Esports Max [Not 24/7]",
                        "sub_name": "",
                        "stream_video_url": "http://vcpar.myplaytv.com/esportsmax/live/playlist.m3u8",
                        "thumbnail_url": "https://i.imgur.com/mvNLE8f.png",
                        "thumbnail_url_original": "https://raw.githubusercontent.com/tvgram-inc/tvgram-inc.github.io/master/images/logo.png"
                    },
                    "sub_21": {
                        "id": 21,
                        "mode": "video",
                        "name_original": "Channel 21",
                        "name": "ETB Basque",
                        "sub_name": "",
                        "stream_video_url": "https://multimedia.eitb.eus/live-content/eitbbasque-hls/master.m3u8",
                        "thumbnail_url": "https://upload.wikimedia.org/wikipedia/commons/thumb/c/ca/ETB_Basque_2022_logo.svg/512px-ETB_Basque_2022_logo.svg.png",
                        "thumbnail_url_original": "https://raw.githubusercontent.com/tvgram-inc/tvgram-inc.github.io/master/images/logo.png"
                    },
                    "sub_22": {
                        "id": 22,
                        "mode": "video",
                        "name_original": "Channel 22",
                        "name": "Euro Indie Music Chart TV",
                        "sub_name": "",
                        "stream_video_url": "http://178.33.224.197:1935/euroindiemusic/euroindiemusic/playlist.m3u8",
                        "thumbnail_url": "https://i.imgur.com/UDFBYpN.png",
                        "thumbnail_url_original": "https://raw.githubusercontent.com/tvgram-inc/tvgram-inc.github.io/master/images/logo.png"
                    },
                    "sub_23": {
                        "id": 23,
                        "mode": "video",
                        "name_original": "Channel 23",
                        "name": "Galicia TV Am\u00e9rica",
                        "sub_name": "",
                        "stream_video_url": "http://america-crtvg.flumotion.com/playlist.m3u8",
                        "thumbnail_url": "https://cdn.mitvstatic.com/channels/ar_galicia-tv_m.png",
                        "thumbnail_url_original": "https://raw.githubusercontent.com/tvgram-inc/tvgram-inc.github.io/master/images/logo.png"
                    },
                    "sub_24": {
                        "id": 24,
                        "mode": "video",
                        "name_original": "Channel 24",
                        "name": "HispanTV",
                        "sub_name": "",
                        "stream_video_url": "https://live1.presstv.ir/live/hispan.m3u8",
                        "thumbnail_url": "https://upload.wikimedia.org/wikipedia/commons/thumb/a/ad/HispanTv_logo.svg/512px-HispanTv_logo.svg.png",
                        "thumbnail_url_original": "https://raw.githubusercontent.com/tvgram-inc/tvgram-inc.github.io/master/images/logo.png"
                    },
                    "sub_25": {
                        "id": 25,
                        "mode": "video",
                        "name_original": "Channel 25",
                        "name": "KBS World",
                        "sub_name": "",
                        "stream_video_url": "https://kbsworld-ott.akamaized.net/hls/live/2002341/kbsworld/master.m3u8",
                        "thumbnail_url": "https://upload.wikimedia.org/wikipedia/commons/thumb/1/1b/KBS_World_%282009%29.svg/512px-KBS_World_%282009%29.svg.png",
                        "thumbnail_url_original": "https://raw.githubusercontent.com/tvgram-inc/tvgram-inc.github.io/master/images/logo.png"
                    },
                    "sub_26": {
                        "id": 26,
                        "mode": "video",
                        "name_original": "Channel 26",
                        "name": "Kerusso TV",
                        "sub_name": "",
                        "stream_video_url": "https://emisoras.hn:8081/kerussotv/index.m3u8",
                        "thumbnail_url": "https://i.imgur.com/rrHwnop.png",
                        "thumbnail_url_original": "https://raw.githubusercontent.com/tvgram-inc/tvgram-inc.github.io/master/images/logo.png"
                    },
                    "sub_27": {
                        "id": 27,
                        "mode": "video",
                        "name_original": "Channel 27",
                        "name": "La Metro TV",
                        "sub_name": "",
                        "stream_video_url": "https://emisoras.hn:8081/metrotv/index.m3u8",
                        "thumbnail_url": "https://i.imgur.com/JakF3rx.png",
                        "thumbnail_url_original": "https://raw.githubusercontent.com/tvgram-inc/tvgram-inc.github.io/master/images/logo.png"
                    },
                    "sub_28": {
                        "id": 28,
                        "mode": "video",
                        "name_original": "Channel 28",
                        "name": "LTV",
                        "sub_name": "",
                        "stream_video_url": "https://5e85d90130e77.streamlock.net/6022/6022/playlist.m3u8",
                        "thumbnail_url": "https://i.imgur.com/dprA1P7.png",
                        "thumbnail_url_original": "https://raw.githubusercontent.com/tvgram-inc/tvgram-inc.github.io/master/images/logo.png"
                    },
                    "sub_29": {
                        "id": 29,
                        "mode": "video",
                        "name_original": "Channel 29",
                        "name": "Metro Globe Network",
                        "sub_name": "",
                        "stream_video_url": "https://edge.medcom.id/live-edge/smil:mgnch.smil/playlist.m3u8",
                        "thumbnail_url": "https://i.imgur.com/NTCI3lf.png",
                        "thumbnail_url_original": "https://raw.githubusercontent.com/tvgram-inc/tvgram-inc.github.io/master/images/logo.png"
                    },
                    "sub_30": {
                        "id": 30,
                        "mode": "video",
                        "name_original": "Channel 30",
                        "name": "Myanmar International TV",
                        "sub_name": "",
                        "stream_video_url": "https://5a13fe32ef748.streamlock.net/mmplay/mitv/playlist.m3u8",
                        "thumbnail_url": "https://www.lyngsat.com/logo/tv/mm/myanmar-international-tv-mm.png",
                        "thumbnail_url_original": "https://raw.githubusercontent.com/tvgram-inc/tvgram-inc.github.io/master/images/logo.png"
                    },
                    "sub_31": {
                        "id": 31,
                        "mode": "video",
                        "name_original": "Channel 31",
                        "name": "NASA TV",
                        "sub_name": "",
                        "stream_video_url": "https://uplynkcontent.sinclairstoryline.com/channel/ddd76fdc1c0a456ba537e4f48e827d3e.m3u8",
                        "thumbnail_url": "https://upload.wikimedia.org/wikipedia/commons/thumb/b/b4/NASA_TV.svg/512px-NASA_TV.svg.png",
                        "thumbnail_url_original": "https://raw.githubusercontent.com/tvgram-inc/tvgram-inc.github.io/master/images/logo.png"
                    },
                    "sub_32": {
                        "id": 32,
                        "mode": "video",
                        "name_original": "Channel 32",
                        "name": "Nuevo Tiempo",
                        "sub_name": "",
                        "stream_video_url": "https://stream.live.novotempo.com/tv/smil:tvnuevotiempo.smil/playlist.m3u8",
                        "thumbnail_url": "https://i.imgur.com/exdDHml.png",
                        "thumbnail_url_original": "https://raw.githubusercontent.com/tvgram-inc/tvgram-inc.github.io/master/images/logo.png"
                    },
                    "sub_33": {
                        "id": 33,
                        "mode": "video",
                        "name_original": "Channel 33",
                        "name": "Platzi TV",
                        "sub_name": "",
                        "stream_video_url": "https://mdstrm.com/live-stream-playlist/629a63ae8df27c082901f78b.m3u8",
                        "thumbnail_url": "https://platform-static.cdn.mdstrm.com/player/logo/s-live-5b9076d18ef7b22560354649.png?184",
                        "thumbnail_url_original": "https://raw.githubusercontent.com/tvgram-inc/tvgram-inc.github.io/master/images/logo.png"
                    },
                    "sub_34": {
                        "id": 34,
                        "mode": "video",
                        "name_original": "Channel 34",
                        "name": "Q'hubo TV",
                        "sub_name": "",
                        "stream_video_url": "https://5e85d90130e77.streamlock.net/6024/6024/playlist.m3u8",
                        "thumbnail_url": "https://www.lyngsat.com/logo/tv/qq/qhubo-tv-hn.png",
                        "thumbnail_url_original": "https://raw.githubusercontent.com/tvgram-inc/tvgram-inc.github.io/master/images/logo.png"
                    },
                    "sub_35": {
                        "id": 35,
                        "mode": "video",
                        "name_original": "Channel 35",
                        "name": "Radio San Borja TV",
                        "sub_name": "",
                        "stream_video_url": "https://5c3fb01839654.streamlock.net:1963/iptvsanborja/livesanborjatv/playlist.m3u8",
                        "thumbnail_url": "https://i.imgur.com/xvMDTe9.png",
                        "thumbnail_url_original": "https://raw.githubusercontent.com/tvgram-inc/tvgram-inc.github.io/master/images/logo.png"
                    },
                    "sub_36": {
                        "id": 36,
                        "mode": "video",
                        "name_original": "Channel 36",
                        "name": "Red Bull TV",
                        "sub_name": "",
                        "stream_video_url": "https://rbmn-live.akamaized.net/hls/live/590964/BoRB-AT/master.m3u8",
                        "thumbnail_url": "https://i.imgur.com/7NeBmWX.jpg",
                        "thumbnail_url_original": "https://raw.githubusercontent.com/tvgram-inc/tvgram-inc.github.io/master/images/logo.png"
                    },
                    "sub_37": {
                        "id": 37,
                        "mode": "video",
                        "name_original": "Channel 37",
                        "name": "RT Documentary Russian",
                        "sub_name": "",
                        "stream_video_url": "http://uiptv.do.am/1ufc/300663722/playlist.m3u8",
                        "thumbnail_url": "https://i.imgur.com/rli3c7T.png",
                        "thumbnail_url_original": "https://raw.githubusercontent.com/tvgram-inc/tvgram-inc.github.io/master/images/logo.png"
                    },
                    "sub_38": {
                        "id": 38,
                        "mode": "video",
                        "name_original": "Channel 38",
                        "name": "Sercano TV",
                        "sub_name": "",
                        "stream_video_url": "http://stream.grupoabchn.com:1935/SERCANOHD/SERCANOLive.smil/playlist.m3u8",
                        "thumbnail_url": "https://pbs.twimg.com/profile_images/972873782972076032/6cacahDX_400x400.jpg",
                        "thumbnail_url_original": "https://raw.githubusercontent.com/tvgram-inc/tvgram-inc.github.io/master/images/logo.png"
                    },
                    "sub_39": {
                        "id": 39,
                        "mode": "video",
                        "name_original": "Channel 39",
                        "name": "Ski TV",
                        "sub_name": "",
                        "stream_video_url": "https://d2xeo83q8fcni6.cloudfront.net/v1/master/9d062541f2ff39b5c0f48b743c6411d25f62fc25/SkiTV-SynapseTV/193.m3u8",
                        "thumbnail_url": "https://i.imgur.com/idKogRi.png",
                        "thumbnail_url_original": "https://raw.githubusercontent.com/tvgram-inc/tvgram-inc.github.io/master/images/logo.png"
                    },
                    "sub_40": {
                        "id": 40,
                        "mode": "video",
                        "name_original": "Channel 40",
                        "name": "Sofy TV",
                        "sub_name": "",
                        "stream_video_url": "https://sofy-ger-samsung.amagi.tv/playlist.m3u8",
                        "thumbnail_url": "https://i.imgur.com/Srxa6cR.png",
                        "thumbnail_url_original": "https://raw.githubusercontent.com/tvgram-inc/tvgram-inc.github.io/master/images/logo.png"
                    },
                    "sub_41": {
                        "id": 41,
                        "mode": "video",
                        "name_original": "Channel 41",
                        "name": "SoloStandUp",
                        "sub_name": "",
                        "stream_video_url": "https://paneltv.online:1936/8116/8116/playlist.m3u8",
                        "thumbnail_url": "https://i.imgur.com/U872KLT.png",
                        "thumbnail_url_original": "https://raw.githubusercontent.com/tvgram-inc/tvgram-inc.github.io/master/images/logo.png"
                    },
                    "sub_42": {
                        "id": 42,
                        "mode": "video",
                        "name_original": "Channel 42",
                        "name": "Tastemade en Espa\u00f1ol",
                        "sub_name": "",
                        "stream_video_url": "https://tastemade-es8intl-roku.amagi.tv/playlist.m3u8",
                        "thumbnail_url": "https://i.imgur.com/8s6aRwv.png",
                        "thumbnail_url_original": "https://raw.githubusercontent.com/tvgram-inc/tvgram-inc.github.io/master/images/logo.png"
                    },
                    "sub_43": {
                        "id": 43,
                        "mode": "video",
                        "name_original": "Channel 43",
                        "name": "TeleDanl\u00ed",
                        "sub_name": "",
                        "stream_video_url": "https://cloud2.streaminglivehd.com:1936/8224/8224/playlist.m3u8",
                        "thumbnail_url": "https://i.imgur.com/hHK8W3t.png",
                        "thumbnail_url_original": "https://raw.githubusercontent.com/tvgram-inc/tvgram-inc.github.io/master/images/logo.png"
                    },
                    "sub_44": {
                        "id": 44,
                        "mode": "video",
                        "name_original": "Channel 44",
                        "name": "teleSUR",
                        "sub_name": "",
                        "stream_video_url": "https://github.com/LaneSh4d0w/IPTV_Exception/raw/master/channels/ve/telesur.m3u8",
                        "thumbnail_url": "https://upload.wikimedia.org/wikipedia/commons/thumb/b/bf/TeleSUR-Logo.svg/512px-TeleSUR-Logo.svg.png",
                        "thumbnail_url_original": "https://raw.githubusercontent.com/tvgram-inc/tvgram-inc.github.io/master/images/logo.png"
                    },
                    "sub_45": {
                        "id": 45,
                        "mode": "video",
                        "name_original": "Channel 45",
                        "name": "TEN Canal 10",
                        "sub_name": "",
                        "stream_video_url": "http://stream.grupoabchn.com:1935/TENHD/TENLive.smil/playlist.m3u8",
                        "thumbnail_url": "https://i.imgur.com/HQiKyHy.jpg",
                        "thumbnail_url_original": "https://raw.githubusercontent.com/tvgram-inc/tvgram-inc.github.io/master/images/logo.png"
                    },
                    "sub_46": {
                        "id": 46,
                        "mode": "video",
                        "name_original": "Channel 46",
                        "name": "Tevex",
                        "sub_name": "",
                        "stream_video_url": "https://v4.tustreaming.cl/tevexinter/index.m3u8",
                        "thumbnail_url": "https://i.imgur.com/sj4sEaN.png",
                        "thumbnail_url_original": "https://raw.githubusercontent.com/tvgram-inc/tvgram-inc.github.io/master/images/logo.png"
                    },
                    "sub_47": {
                        "id": 47,
                        "mode": "video",
                        "name_original": "Channel 47",
                        "name": "TRT World",
                        "sub_name": "",
                        "stream_video_url": "https://tv-trtworld.live.trt.com.tr/master.m3u8",
                        "thumbnail_url": "https://upload.wikimedia.org/wikipedia/commons/thumb/2/27/TRT_World.svg/512px-TRT_World.svg.png",
                        "thumbnail_url_original": "https://raw.githubusercontent.com/tvgram-inc/tvgram-inc.github.io/master/images/logo.png"
                    },
                    "sub_48": {
                        "id": 48,
                        "mode": "video",
                        "name_original": "Channel 48",
                        "name": "TV Cop\u00e1n",
                        "sub_name": "",
                        "stream_video_url": "https://emisoras.hn:8081/tvcopan/index.m3u8",
                        "thumbnail_url": "https://i.imgur.com/koUN5oJ.png",
                        "thumbnail_url_original": "https://raw.githubusercontent.com/tvgram-inc/tvgram-inc.github.io/master/images/logo.png"
                    },
                    "sub_49": {
                        "id": 49,
                        "mode": "video",
                        "name_original": "Channel 49",
                        "name": "TV Daja",
                        "sub_name": "",
                        "stream_video_url": "https://cm.hostlagarto.com:4445/Dajatv/Dajatv.myStream/playlist.m3u8",
                        "thumbnail_url": "https://dajatv.com/wp-content/uploads/2021/09/logo_daja_2.png",
                        "thumbnail_url_original": "https://raw.githubusercontent.com/tvgram-inc/tvgram-inc.github.io/master/images/logo.png"
                    },
                    "sub_50": {
                        "id": 50,
                        "mode": "video",
                        "name_original": "Channel 50",
                        "name": "TVG Am\u00e9rica",
                        "sub_name": "",
                        "stream_video_url": "https://america-crtvg.flumotion.com/playlist.m3u8",
                        "thumbnail_url": "https://i.imgur.com/1Z6svKc.jpg",
                        "thumbnail_url_original": "https://raw.githubusercontent.com/tvgram-inc/tvgram-inc.github.io/master/images/logo.png"
                    },
                    "sub_51": {
                        "id": 51,
                        "mode": "video",
                        "name_original": "Channel 51",
                        "name": "TVM Internacional",
                        "sub_name": "",
                        "stream_video_url": "http://online.tvm.co.mz:1935/live/smil:Channel2.smil/playlist.m3u8",
                        "thumbnail_url": "https://i.imgur.com/Ns3WrOQ.png",
                        "thumbnail_url_original": "https://raw.githubusercontent.com/tvgram-inc/tvgram-inc.github.io/master/images/logo.png"
                    },
                    "sub_52": {
                        "id": 52,
                        "mode": "video",
                        "name_original": "Channel 52",
                        "name": "UN Web TV",
                        "sub_name": "",
                        "stream_video_url": "https://cdnapi.kaltura.com/p/2503451/sp/250345100/playManifest/entryId/1_gb6tjmle/protocol/https/format/applehttp/a.m3u8",
                        "thumbnail_url": "https://i.imgur.com/lPyJhBN.png",
                        "thumbnail_url_original": "https://raw.githubusercontent.com/tvgram-inc/tvgram-inc.github.io/master/images/logo.png"
                    },
                    "sub_53": {
                        "id": 53,
                        "mode": "video",
                        "name_original": "Channel 53",
                        "name": "UNAH UTV",
                        "sub_name": "",
                        "stream_video_url": "https://live-utv.unah.edu.hn/web/salida.m3u8",
                        "thumbnail_url": "https://i.imgur.com/De5CSD3.png",
                        "thumbnail_url_original": "https://raw.githubusercontent.com/tvgram-inc/tvgram-inc.github.io/master/images/logo.png"
                    },
                    "sub_54": {
                        "id": 54,
                        "mode": "video",
                        "name_original": "Channel 54",
                        "name": "Vallenato Internacional",
                        "sub_name": "",
                        "stream_video_url": "https://59a564764e2b6.streamlock.net/vallenato/Vallenato2/playlist.m3u8",
                        "thumbnail_url": "https://i.imgur.com/svgW3Fr.png",
                        "thumbnail_url_original": "https://raw.githubusercontent.com/tvgram-inc/tvgram-inc.github.io/master/images/logo.png"
                    },
                    "sub_55": {
                        "id": 55,
                        "mode": "video",
                        "name_original": "Channel 55",
                        "name": "World Poker Tour",
                        "sub_name": "",
                        "stream_video_url": "https://d3w4n3hhseniak.cloudfront.net/v1/master/9d062541f2ff39b5c0f48b743c6411d25f62fc25/WPT-DistroTV/150.m3u8",
                        "thumbnail_url": "https://images.pluto.tv/channels/5f8ecfb9db6c180007a6d1b0/colorLogoPNG.png",
                        "thumbnail_url_original": "https://raw.githubusercontent.com/tvgram-inc/tvgram-inc.github.io/master/images/logo.png"
                    },
                    "sub_56": {
                        "id": 56,
                        "mode": "video",
                        "name_original": "Channel 1",
                        "name": "Agrotendencia TV",
                        "sub_name": "",
                        "stream_video_url": "https://5fc584f3f19c9.streamlock.net/agrotendencia/videoagrotendencia_hls1/playlist.m3u8",
                        "thumbnail_url": "https://i.imgur.com/frd60hR.png",
                        "thumbnail_url_original": "https://raw.githubusercontent.com/tvgram-inc/tvgram-inc.github.io/master/images/logo.png"
                    },
                    "sub_57": {
                        "id": 57,
                        "mode": "video",
                        "name_original": "Channel 2",
                        "name": "Aviva TV",
                        "sub_name": "",
                        "stream_video_url": "https://video.misistemareseller.com/atvhonduras/atvhonduras/playlist.m3u8",
                        "thumbnail_url": "https://i.imgur.com/GN3jTFu.png",
                        "thumbnail_url_original": "https://raw.githubusercontent.com/tvgram-inc/tvgram-inc.github.io/master/images/logo.png"
                    },
                    "sub_58": {
                        "id": 58,
                        "mode": "video",
                        "name_original": "Channel 3",
                        "name": "Bahrain International",
                        "sub_name": "",
                        "stream_video_url": "https://5c7b683162943.streamlock.net/live/ngrp:bahraininternational_all/playlist.m3u8",
                        "thumbnail_url": "https://www.lyngsat.com/logo/tv/bb/bahrain_tv_international.png",
                        "thumbnail_url_original": "https://raw.githubusercontent.com/tvgram-inc/tvgram-inc.github.io/master/images/logo.png"
                    },
                    "sub_59": {
                        "id": 59,
                        "mode": "video",
                        "name_original": "Channel 4",
                        "name": "BeritaSatu World",
                        "sub_name": "",
                        "stream_video_url": "https://b1world.beritasatumedia.com/Beritasatu/B1World_manifest.m3u8",
                        "thumbnail_url": "https://upload.wikimedia.org/wikipedia/commons/thumb/f/f1/BeritaSatuWorld.png/512px-BeritaSatuWorld.png",
                        "thumbnail_url_original": "https://raw.githubusercontent.com/tvgram-inc/tvgram-inc.github.io/master/images/logo.png"
                    },
                    "sub_60": {
                        "id": 60,
                        "mode": "video",
                        "name_original": "Channel 5",
                        "name": "Canal 26",
                        "sub_name": "",
                        "stream_video_url": "http://200.115.193.177/live/26hd-720/playlist.m3u8",
                        "thumbnail_url": "https://upload.wikimedia.org/wikipedia/commons/thumb/c/c5/Canal_26_logo_%282022%29.svg/512px-Canal_26_logo_%282022%29.svg.png",
                        "thumbnail_url_original": "https://raw.githubusercontent.com/tvgram-inc/tvgram-inc.github.io/master/images/logo.png"
                    },
                    "sub_61": {
                        "id": 61,
                        "mode": "video",
                        "name_original": "Channel 6",
                        "name": "CGTN",
                        "sub_name": "",
                        "stream_video_url": "https://news.cgtn.com/resource/live/english/cgtn-news.m3u8",
                        "thumbnail_url": "https://upload.wikimedia.org/wikipedia/commons/thumb/8/81/CGTN.svg/512px-CGTN.svg.png",
                        "thumbnail_url_original": "https://raw.githubusercontent.com/tvgram-inc/tvgram-inc.github.io/master/images/logo.png"
                    },
                    "sub_62": {
                        "id": 62,
                        "mode": "video",
                        "name_original": "Channel 7",
                        "name": "CGTN Espa\u00f1ol",
                        "sub_name": "",
                        "stream_video_url": "https://news.cgtn.com/resource/live/espanol/cgtn-e.m3u8",
                        "thumbnail_url": "https://upload.wikimedia.org/wikipedia/commons/thumb/9/9c/CGTN_Espanol.png/512px-CGTN_Espanol.png",
                        "thumbnail_url_original": "https://raw.githubusercontent.com/tvgram-inc/tvgram-inc.github.io/master/images/logo.png"
                    },
                    "sub_63": {
                        "id": 63,
                        "mode": "video",
                        "name_original": "Channel 8",
                        "name": "Cholusat Sur 36",
                        "sub_name": "",
                        "stream_video_url": "http://audiotvserver.net:1935/livemedia/cholusat/playlist.m3u8",
                        "thumbnail_url": "https://i.imgur.com/qRHwhND.png",
                        "thumbnail_url_original": "https://raw.githubusercontent.com/tvgram-inc/tvgram-inc.github.io/master/images/logo.png"
                    },
                    "sub_64": {
                        "id": 64,
                        "mode": "video",
                        "name_original": "Channel 9",
                        "name": "Choluteca TV",
                        "sub_name": "",
                        "stream_video_url": "https://emisoras.hn:8081/cholutecatv/playlist.m3u8",
                        "thumbnail_url": "https://i.imgur.com/4ECjM4R.png",
                        "thumbnail_url_original": "https://raw.githubusercontent.com/tvgram-inc/tvgram-inc.github.io/master/images/logo.png"
                    },
                    "sub_65": {
                        "id": 65,
                        "mode": "video",
                        "name_original": "Channel 10",
                        "name": "Classic Arts Showcase",
                        "sub_name": "",
                        "stream_video_url": "https://classicarts.akamaized.net/hls/live/1024257/CAS/master.m3u8",
                        "thumbnail_url": "https://i.imgur.com/M6FFkc3.png",
                        "thumbnail_url_original": "https://raw.githubusercontent.com/tvgram-inc/tvgram-inc.github.io/master/images/logo.png"
                    },
                    "sub_66": {
                        "id": 66,
                        "mode": "video",
                        "name_original": "Channel 11",
                        "name": "CNA International",
                        "sub_name": "",
                        "stream_video_url": "https://d2e1asnsl7br7b.cloudfront.net/7782e205e72f43aeb4a48ec97f66ebbe/index.m3u8",
                        "thumbnail_url": "https://upload.wikimedia.org/wikipedia/commons/thumb/8/83/CNA_new_logo.svg/512px-CNA_new_logo.svg.png",
                        "thumbnail_url_original": "https://raw.githubusercontent.com/tvgram-inc/tvgram-inc.github.io/master/images/logo.png"
                    },
                    "sub_67": {
                        "id": 67,
                        "mode": "video",
                        "name_original": "Channel 12",
                        "name": "Dios Te Ve Infantil",
                        "sub_name": "",
                        "stream_video_url": "https://emisoras.hn:8081/diostevekids/playlist.m3u8",
                        "thumbnail_url": "https://i.imgur.com/nk2nLBH.png",
                        "thumbnail_url_original": "https://raw.githubusercontent.com/tvgram-inc/tvgram-inc.github.io/master/images/logo.png"
                    },
                    "sub_68": {
                        "id": 68,
                        "mode": "video",
                        "name_original": "Channel 13",
                        "name": "DW English",
                        "sub_name": "",
                        "stream_video_url": "https://dwamdstream102.akamaized.net/hls/live/2015525/dwstream102/index.m3u8",
                        "thumbnail_url": "https://i.imgur.com/A1xzjOI.png",
                        "thumbnail_url_original": "https://raw.githubusercontent.com/tvgram-inc/tvgram-inc.github.io/master/images/logo.png"
                    },
                    "sub_69": {
                        "id": 69,
                        "mode": "video",
                        "name_original": "Channel 14",
                        "name": "DW Espa\u00f1ol",
                        "sub_name": "",
                        "stream_video_url": "https://dwamdstream104.akamaized.net/hls/live/2015530/dwstream104/index.m3u8",
                        "thumbnail_url": "https://i.imgur.com/A1xzjOI.png",
                        "thumbnail_url_original": "https://raw.githubusercontent.com/tvgram-inc/tvgram-inc.github.io/master/images/logo.png"
                    },
                    "sub_70": {
                        "id": 70,
                        "mode": "video",
                        "name_original": "Channel 15",
                        "name": "EDN TV",
                        "sub_name": "",
                        "stream_video_url": "https://60417ddeaf0d9.streamlock.net/edntv/videoedntv/playlist.m3u8",
                        "thumbnail_url": "https://i.imgur.com/Dq9we3E.png",
                        "thumbnail_url_original": "https://raw.githubusercontent.com/tvgram-inc/tvgram-inc.github.io/master/images/logo.png"
                    },
                    "sub_71": {
                        "id": 71,
                        "mode": "video",
                        "name_original": "Channel 16",
                        "name": "EnerGeek Fanpop",
                        "sub_name": "",
                        "stream_video_url": "https://stream.wifispeed.cl:3247/live/energeek2live.m3u8",
                        "thumbnail_url": "https://i.imgur.com/AdsItgE.png",
                        "thumbnail_url_original": "https://raw.githubusercontent.com/tvgram-inc/tvgram-inc.github.io/master/images/logo.png"
                    },
                    "sub_72": {
                        "id": 72,
                        "mode": "video",
                        "name_original": "Channel 17",
                        "name": "EnerGeek Se\u00f1al 1",
                        "sub_name": "",
                        "stream_video_url": "https://stream.wifispeed.cl:3103/live/energeek1live.m3u8",
                        "thumbnail_url": "https://i.imgur.com/sFYhUs5.png",
                        "thumbnail_url_original": "https://raw.githubusercontent.com/tvgram-inc/tvgram-inc.github.io/master/images/logo.png"
                    },
                    "sub_73": {
                        "id": 73,
                        "mode": "video",
                        "name_original": "Channel 18",
                        "name": "EnerGeek Se\u00f1al 3",
                        "sub_name": "",
                        "stream_video_url": "https://stream.wifispeed.cl:3852/live/energeeklive.m3u8",
                        "thumbnail_url": "https://i2.paste.pics/2bf75a344d4cf7c2530247f14e101d84.png",
                        "thumbnail_url_original": "https://raw.githubusercontent.com/tvgram-inc/tvgram-inc.github.io/master/images/logo.png"
                    },
                    "sub_74": {
                        "id": 74,
                        "mode": "video",
                        "name_original": "Channel 19",
                        "name": "ERT World",
                        "sub_name": "",
                        "stream_video_url": "http://wpso.com:1936/hls/wzra.m3u8",
                        "thumbnail_url": "https://upload.wikimedia.org/wikipedia/commons/thumb/b/bc/ChannelLogo-ERTWORLD1.png/512px-ChannelLogo-ERTWORLD1.png",
                        "thumbnail_url_original": "https://raw.githubusercontent.com/tvgram-inc/tvgram-inc.github.io/master/images/logo.png"
                    },
                    "sub_75": {
                        "id": 75,
                        "mode": "video",
                        "name_original": "Channel 20",
                        "name": "Esports Max [Not 24/7]",
                        "sub_name": "",
                        "stream_video_url": "http://vcpar.myplaytv.com/esportsmax/live/playlist.m3u8",
                        "thumbnail_url": "https://i.imgur.com/mvNLE8f.png",
                        "thumbnail_url_original": "https://raw.githubusercontent.com/tvgram-inc/tvgram-inc.github.io/master/images/logo.png"
                    },
                    "sub_76": {
                        "id": 76,
                        "mode": "video",
                        "name_original": "Channel 21",
                        "name": "ETB Basque",
                        "sub_name": "",
                        "stream_video_url": "https://multimedia.eitb.eus/live-content/eitbbasque-hls/master.m3u8",
                        "thumbnail_url": "https://upload.wikimedia.org/wikipedia/commons/thumb/c/ca/ETB_Basque_2022_logo.svg/512px-ETB_Basque_2022_logo.svg.png",
                        "thumbnail_url_original": "https://raw.githubusercontent.com/tvgram-inc/tvgram-inc.github.io/master/images/logo.png"
                    },
                    "sub_77": {
                        "id": 77,
                        "mode": "video",
                        "name_original": "Channel 22",
                        "name": "Euro Indie Music Chart TV",
                        "sub_name": "",
                        "stream_video_url": "http://178.33.224.197:1935/euroindiemusic/euroindiemusic/playlist.m3u8",
                        "thumbnail_url": "https://i.imgur.com/UDFBYpN.png",
                        "thumbnail_url_original": "https://raw.githubusercontent.com/tvgram-inc/tvgram-inc.github.io/master/images/logo.png"
                    },
                    "sub_78": {
                        "id": 78,
                        "mode": "video",
                        "name_original": "Channel 23",
                        "name": "Galicia TV Am\u00e9rica",
                        "sub_name": "",
                        "stream_video_url": "http://america-crtvg.flumotion.com/playlist.m3u8",
                        "thumbnail_url": "https://cdn.mitvstatic.com/channels/ar_galicia-tv_m.png",
                        "thumbnail_url_original": "https://raw.githubusercontent.com/tvgram-inc/tvgram-inc.github.io/master/images/logo.png"
                    },
                    "sub_79": {
                        "id": 79,
                        "mode": "video",
                        "name_original": "Channel 24",
                        "name": "HispanTV",
                        "sub_name": "",
                        "stream_video_url": "https://live1.presstv.ir/live/hispan.m3u8",
                        "thumbnail_url": "https://upload.wikimedia.org/wikipedia/commons/thumb/a/ad/HispanTv_logo.svg/512px-HispanTv_logo.svg.png",
                        "thumbnail_url_original": "https://raw.githubusercontent.com/tvgram-inc/tvgram-inc.github.io/master/images/logo.png"
                    },
                    "sub_80": {
                        "id": 80,
                        "mode": "video",
                        "name_original": "Channel 25",
                        "name": "KBS World",
                        "sub_name": "",
                        "stream_video_url": "https://kbsworld-ott.akamaized.net/hls/live/2002341/kbsworld/master.m3u8",
                        "thumbnail_url": "https://upload.wikimedia.org/wikipedia/commons/thumb/1/1b/KBS_World_%282009%29.svg/512px-KBS_World_%282009%29.svg.png",
                        "thumbnail_url_original": "https://raw.githubusercontent.com/tvgram-inc/tvgram-inc.github.io/master/images/logo.png"
                    },
                    "sub_81": {
                        "id": 81,
                        "mode": "video",
                        "name_original": "Channel 26",
                        "name": "Kerusso TV",
                        "sub_name": "",
                        "stream_video_url": "https://emisoras.hn:8081/kerussotv/index.m3u8",
                        "thumbnail_url": "https://i.imgur.com/rrHwnop.png",
                        "thumbnail_url_original": "https://raw.githubusercontent.com/tvgram-inc/tvgram-inc.github.io/master/images/logo.png"
                    },
                    "sub_82": {
                        "id": 82,
                        "mode": "video",
                        "name_original": "Channel 27",
                        "name": "La Metro TV",
                        "sub_name": "",
                        "stream_video_url": "https://emisoras.hn:8081/metrotv/index.m3u8",
                        "thumbnail_url": "https://i.imgur.com/JakF3rx.png",
                        "thumbnail_url_original": "https://raw.githubusercontent.com/tvgram-inc/tvgram-inc.github.io/master/images/logo.png"
                    },
                    "sub_83": {
                        "id": 83,
                        "mode": "video",
                        "name_original": "Channel 28",
                        "name": "LTV",
                        "sub_name": "",
                        "stream_video_url": "https://5e85d90130e77.streamlock.net/6022/6022/playlist.m3u8",
                        "thumbnail_url": "https://i.imgur.com/dprA1P7.png",
                        "thumbnail_url_original": "https://raw.githubusercontent.com/tvgram-inc/tvgram-inc.github.io/master/images/logo.png"
                    },
                    "sub_84": {
                        "id": 84,
                        "mode": "video",
                        "name_original": "Channel 29",
                        "name": "Metro Globe Network",
                        "sub_name": "",
                        "stream_video_url": "https://edge.medcom.id/live-edge/smil:mgnch.smil/playlist.m3u8",
                        "thumbnail_url": "https://i.imgur.com/NTCI3lf.png",
                        "thumbnail_url_original": "https://raw.githubusercontent.com/tvgram-inc/tvgram-inc.github.io/master/images/logo.png"
                    },
                    "sub_85": {
                        "id": 85,
                        "mode": "video",
                        "name_original": "Channel 30",
                        "name": "Myanmar International TV",
                        "sub_name": "",
                        "stream_video_url": "https://5a13fe32ef748.streamlock.net/mmplay/mitv/playlist.m3u8",
                        "thumbnail_url": "https://www.lyngsat.com/logo/tv/mm/myanmar-international-tv-mm.png",
                        "thumbnail_url_original": "https://raw.githubusercontent.com/tvgram-inc/tvgram-inc.github.io/master/images/logo.png"
                    },
                    "sub_86": {
                        "id": 86,
                        "mode": "video",
                        "name_original": "Channel 31",
                        "name": "NASA TV",
                        "sub_name": "",
                        "stream_video_url": "https://uplynkcontent.sinclairstoryline.com/channel/ddd76fdc1c0a456ba537e4f48e827d3e.m3u8",
                        "thumbnail_url": "https://upload.wikimedia.org/wikipedia/commons/thumb/b/b4/NASA_TV.svg/512px-NASA_TV.svg.png",
                        "thumbnail_url_original": "https://raw.githubusercontent.com/tvgram-inc/tvgram-inc.github.io/master/images/logo.png"
                    },
                    "sub_87": {
                        "id": 87,
                        "mode": "video",
                        "name_original": "Channel 32",
                        "name": "Nuevo Tiempo",
                        "sub_name": "",
                        "stream_video_url": "https://stream.live.novotempo.com/tv/smil:tvnuevotiempo.smil/playlist.m3u8",
                        "thumbnail_url": "https://i.imgur.com/exdDHml.png",
                        "thumbnail_url_original": "https://raw.githubusercontent.com/tvgram-inc/tvgram-inc.github.io/master/images/logo.png"
                    },
                    "sub_88": {
                        "id": 88,
                        "mode": "video",
                        "name_original": "Channel 33",
                        "name": "Platzi TV",
                        "sub_name": "",
                        "stream_video_url": "https://mdstrm.com/live-stream-playlist/629a63ae8df27c082901f78b.m3u8",
                        "thumbnail_url": "https://platform-static.cdn.mdstrm.com/player/logo/s-live-5b9076d18ef7b22560354649.png?184",
                        "thumbnail_url_original": "https://raw.githubusercontent.com/tvgram-inc/tvgram-inc.github.io/master/images/logo.png"
                    },
                    "sub_89": {
                        "id": 89,
                        "mode": "video",
                        "name_original": "Channel 34",
                        "name": "Q'hubo TV",
                        "sub_name": "",
                        "stream_video_url": "https://5e85d90130e77.streamlock.net/6024/6024/playlist.m3u8",
                        "thumbnail_url": "https://www.lyngsat.com/logo/tv/qq/qhubo-tv-hn.png",
                        "thumbnail_url_original": "https://raw.githubusercontent.com/tvgram-inc/tvgram-inc.github.io/master/images/logo.png"
                    },
                    "sub_90": {
                        "id": 90,
                        "mode": "video",
                        "name_original": "Channel 35",
                        "name": "Radio San Borja TV",
                        "sub_name": "",
                        "stream_video_url": "https://5c3fb01839654.streamlock.net:1963/iptvsanborja/livesanborjatv/playlist.m3u8",
                        "thumbnail_url": "https://i.imgur.com/xvMDTe9.png",
                        "thumbnail_url_original": "https://raw.githubusercontent.com/tvgram-inc/tvgram-inc.github.io/master/images/logo.png"
                    },
                    "sub_91": {
                        "id": 91,
                        "mode": "video",
                        "name_original": "Channel 36",
                        "name": "Red Bull TV",
                        "sub_name": "",
                        "stream_video_url": "https://rbmn-live.akamaized.net/hls/live/590964/BoRB-AT/master.m3u8",
                        "thumbnail_url": "https://i.imgur.com/7NeBmWX.jpg",
                        "thumbnail_url_original": "https://raw.githubusercontent.com/tvgram-inc/tvgram-inc.github.io/master/images/logo.png"
                    },
                    "sub_92": {
                        "id": 92,
                        "mode": "video",
                        "name_original": "Channel 37",
                        "name": "RT Documentary Russian",
                        "sub_name": "",
                        "stream_video_url": "http://uiptv.do.am/1ufc/300663722/playlist.m3u8",
                        "thumbnail_url": "https://i.imgur.com/rli3c7T.png",
                        "thumbnail_url_original": "https://raw.githubusercontent.com/tvgram-inc/tvgram-inc.github.io/master/images/logo.png"
                    },
                    "sub_93": {
                        "id": 93,
                        "mode": "video",
                        "name_original": "Channel 38",
                        "name": "Sercano TV",
                        "sub_name": "",
                        "stream_video_url": "http://stream.grupoabchn.com:1935/SERCANOHD/SERCANOLive.smil/playlist.m3u8",
                        "thumbnail_url": "https://pbs.twimg.com/profile_images/972873782972076032/6cacahDX_400x400.jpg",
                        "thumbnail_url_original": "https://raw.githubusercontent.com/tvgram-inc/tvgram-inc.github.io/master/images/logo.png"
                    },
                    "sub_94": {
                        "id": 94,
                        "mode": "video",
                        "name_original": "Channel 39",
                        "name": "Ski TV",
                        "sub_name": "",
                        "stream_video_url": "https://d2xeo83q8fcni6.cloudfront.net/v1/master/9d062541f2ff39b5c0f48b743c6411d25f62fc25/SkiTV-SynapseTV/193.m3u8",
                        "thumbnail_url": "https://i.imgur.com/idKogRi.png",
                        "thumbnail_url_original": "https://raw.githubusercontent.com/tvgram-inc/tvgram-inc.github.io/master/images/logo.png"
                    },
                    "sub_95": {
                        "id": 95,
                        "mode": "video",
                        "name_original": "Channel 40",
                        "name": "Sofy TV",
                        "sub_name": "",
                        "stream_video_url": "https://sofy-ger-samsung.amagi.tv/playlist.m3u8",
                        "thumbnail_url": "https://i.imgur.com/Srxa6cR.png",
                        "thumbnail_url_original": "https://raw.githubusercontent.com/tvgram-inc/tvgram-inc.github.io/master/images/logo.png"
                    },
                    "sub_96": {
                        "id": 96,
                        "mode": "video",
                        "name_original": "Channel 41",
                        "name": "SoloStandUp",
                        "sub_name": "",
                        "stream_video_url": "https://paneltv.online:1936/8116/8116/playlist.m3u8",
                        "thumbnail_url": "https://i.imgur.com/U872KLT.png",
                        "thumbnail_url_original": "https://raw.githubusercontent.com/tvgram-inc/tvgram-inc.github.io/master/images/logo.png"
                    },
                    "sub_97": {
                        "id": 97,
                        "mode": "video",
                        "name_original": "Channel 42",
                        "name": "Tastemade en Espa\u00f1ol",
                        "sub_name": "",
                        "stream_video_url": "https://tastemade-es8intl-roku.amagi.tv/playlist.m3u8",
                        "thumbnail_url": "https://i.imgur.com/8s6aRwv.png",
                        "thumbnail_url_original": "https://raw.githubusercontent.com/tvgram-inc/tvgram-inc.github.io/master/images/logo.png"
                    },
                    "sub_98": {
                        "id": 98,
                        "mode": "video",
                        "name_original": "Channel 43",
                        "name": "TeleDanl\u00ed",
                        "sub_name": "",
                        "stream_video_url": "https://cloud2.streaminglivehd.com:1936/8224/8224/playlist.m3u8",
                        "thumbnail_url": "https://i.imgur.com/hHK8W3t.png",
                        "thumbnail_url_original": "https://raw.githubusercontent.com/tvgram-inc/tvgram-inc.github.io/master/images/logo.png"
                    },
                    "sub_99": {
                        "id": 99,
                        "mode": "video",
                        "name_original": "Channel 44",
                        "name": "teleSUR",
                        "sub_name": "",
                        "stream_video_url": "https://github.com/LaneSh4d0w/IPTV_Exception/raw/master/channels/ve/telesur.m3u8",
                        "thumbnail_url": "https://upload.wikimedia.org/wikipedia/commons/thumb/b/bf/TeleSUR-Logo.svg/512px-TeleSUR-Logo.svg.png",
                        "thumbnail_url_original": "https://raw.githubusercontent.com/tvgram-inc/tvgram-inc.github.io/master/images/logo.png"
                    },
                    "sub_100": {
                        "id": 100,
                        "mode": "video",
                        "name_original": "Channel 45",
                        "name": "TEN Canal 10",
                        "sub_name": "",
                        "stream_video_url": "http://stream.grupoabchn.com:1935/TENHD/TENLive.smil/playlist.m3u8",
                        "thumbnail_url": "https://i.imgur.com/HQiKyHy.jpg",
                        "thumbnail_url_original": "https://raw.githubusercontent.com/tvgram-inc/tvgram-inc.github.io/master/images/logo.png"
                    },
                    "sub_101": {
                        "id": 101,
                        "mode": "video",
                        "name_original": "Channel 46",
                        "name": "Tevex",
                        "sub_name": "",
                        "stream_video_url": "https://v4.tustreaming.cl/tevexinter/index.m3u8",
                        "thumbnail_url": "https://i.imgur.com/sj4sEaN.png",
                        "thumbnail_url_original": "https://raw.githubusercontent.com/tvgram-inc/tvgram-inc.github.io/master/images/logo.png"
                    },
                    "sub_102": {
                        "id": 102,
                        "mode": "video",
                        "name_original": "Channel 47",
                        "name": "TRT World",
                        "sub_name": "",
                        "stream_video_url": "https://tv-trtworld.live.trt.com.tr/master.m3u8",
                        "thumbnail_url": "https://upload.wikimedia.org/wikipedia/commons/thumb/2/27/TRT_World.svg/512px-TRT_World.svg.png",
                        "thumbnail_url_original": "https://raw.githubusercontent.com/tvgram-inc/tvgram-inc.github.io/master/images/logo.png"
                    },
                    "sub_103": {
                        "id": 103,
                        "mode": "video",
                        "name_original": "Channel 48",
                        "name": "TV Cop\u00e1n",
                        "sub_name": "",
                        "stream_video_url": "https://emisoras.hn:8081/tvcopan/index.m3u8",
                        "thumbnail_url": "https://i.imgur.com/koUN5oJ.png",
                        "thumbnail_url_original": "https://raw.githubusercontent.com/tvgram-inc/tvgram-inc.github.io/master/images/logo.png"
                    },
                    "sub_104": {
                        "id": 104,
                        "mode": "video",
                        "name_original": "Channel 49",
                        "name": "TV Daja",
                        "sub_name": "",
                        "stream_video_url": "https://cm.hostlagarto.com:4445/Dajatv/Dajatv.myStream/playlist.m3u8",
                        "thumbnail_url": "https://dajatv.com/wp-content/uploads/2021/09/logo_daja_2.png",
                        "thumbnail_url_original": "https://raw.githubusercontent.com/tvgram-inc/tvgram-inc.github.io/master/images/logo.png"
                    },
                    "sub_105": {
                        "id": 105,
                        "mode": "video",
                        "name_original": "Channel 50",
                        "name": "TVG Am\u00e9rica",
                        "sub_name": "",
                        "stream_video_url": "https://america-crtvg.flumotion.com/playlist.m3u8",
                        "thumbnail_url": "https://i.imgur.com/1Z6svKc.jpg",
                        "thumbnail_url_original": "https://raw.githubusercontent.com/tvgram-inc/tvgram-inc.github.io/master/images/logo.png"
                    },
                    "sub_106": {
                        "id": 106,
                        "mode": "video",
                        "name_original": "Channel 51",
                        "name": "TVM Internacional",
                        "sub_name": "",
                        "stream_video_url": "http://online.tvm.co.mz:1935/live/smil:Channel2.smil/playlist.m3u8",
                        "thumbnail_url": "https://i.imgur.com/Ns3WrOQ.png",
                        "thumbnail_url_original": "https://raw.githubusercontent.com/tvgram-inc/tvgram-inc.github.io/master/images/logo.png"
                    },
                    "sub_107": {
                        "id": 107,
                        "mode": "video",
                        "name_original": "Channel 52",
                        "name": "UN Web TV",
                        "sub_name": "",
                        "stream_video_url": "https://cdnapi.kaltura.com/p/2503451/sp/250345100/playManifest/entryId/1_gb6tjmle/protocol/https/format/applehttp/a.m3u8",
                        "thumbnail_url": "https://i.imgur.com/lPyJhBN.png",
                        "thumbnail_url_original": "https://raw.githubusercontent.com/tvgram-inc/tvgram-inc.github.io/master/images/logo.png"
                    },
                    "sub_108": {
                        "id": 108,
                        "mode": "video",
                        "name_original": "Channel 53",
                        "name": "UNAH UTV",
                        "sub_name": "",
                        "stream_video_url": "https://live-utv.unah.edu.hn/web/salida.m3u8",
                        "thumbnail_url": "https://i.imgur.com/De5CSD3.png",
                        "thumbnail_url_original": "https://raw.githubusercontent.com/tvgram-inc/tvgram-inc.github.io/master/images/logo.png"
                    },
                    "sub_109": {
                        "id": 109,
                        "mode": "video",
                        "name_original": "Channel 54",
                        "name": "Vallenato Internacional",
                        "sub_name": "",
                        "stream_video_url": "https://59a564764e2b6.streamlock.net/vallenato/Vallenato2/playlist.m3u8",
                        "thumbnail_url": "https://i.imgur.com/svgW3Fr.png",
                        "thumbnail_url_original": "https://raw.githubusercontent.com/tvgram-inc/tvgram-inc.github.io/master/images/logo.png"
                    },
                    "sub_110": {
                        "id": 110,
                        "mode": "video",
                        "name_original": "Channel 55",
                        "name": "World Poker Tour",
                        "sub_name": "",
                        "stream_video_url": "https://d3w4n3hhseniak.cloudfront.net/v1/master/9d062541f2ff39b5c0f48b743c6411d25f62fc25/WPT-DistroTV/150.m3u8",
                        "thumbnail_url": "https://images.pluto.tv/channels/5f8ecfb9db6c180007a6d1b0/colorLogoPNG.png",
                        "thumbnail_url_original": "https://raw.githubusercontent.com/tvgram-inc/tvgram-inc.github.io/master/images/logo.png"
                    },
                    "sub_111": {
                        "id": 111,
                        "mode": "video",
                        "name_original": "Channel 1",
                        "name": "Agrotendencia TV",
                        "sub_name": "",
                        "stream_video_url": "https://5fc584f3f19c9.streamlock.net/agrotendencia/videoagrotendencia_hls1/playlist.m3u8",
                        "thumbnail_url": "https://i.imgur.com/frd60hR.png",
                        "thumbnail_url_original": "https://raw.githubusercontent.com/tvgram-inc/tvgram-inc.github.io/master/images/logo.png"
                    },
                    "sub_112": {
                        "id": 112,
                        "mode": "video",
                        "name_original": "Channel 2",
                        "name": "Aviva TV",
                        "sub_name": "",
                        "stream_video_url": "https://video.misistemareseller.com/atvhonduras/atvhonduras/playlist.m3u8",
                        "thumbnail_url": "https://i.imgur.com/GN3jTFu.png",
                        "thumbnail_url_original": "https://raw.githubusercontent.com/tvgram-inc/tvgram-inc.github.io/master/images/logo.png"
                    },
                    "sub_113": {
                        "id": 113,
                        "mode": "video",
                        "name_original": "Channel 3",
                        "name": "Bahrain International",
                        "sub_name": "",
                        "stream_video_url": "https://5c7b683162943.streamlock.net/live/ngrp:bahraininternational_all/playlist.m3u8",
                        "thumbnail_url": "https://www.lyngsat.com/logo/tv/bb/bahrain_tv_international.png",
                        "thumbnail_url_original": "https://raw.githubusercontent.com/tvgram-inc/tvgram-inc.github.io/master/images/logo.png"
                    },
                    "sub_114": {
                        "id": 114,
                        "mode": "video",
                        "name_original": "Channel 4",
                        "name": "BeritaSatu World",
                        "sub_name": "",
                        "stream_video_url": "https://b1world.beritasatumedia.com/Beritasatu/B1World_manifest.m3u8",
                        "thumbnail_url": "https://upload.wikimedia.org/wikipedia/commons/thumb/f/f1/BeritaSatuWorld.png/512px-BeritaSatuWorld.png",
                        "thumbnail_url_original": "https://raw.githubusercontent.com/tvgram-inc/tvgram-inc.github.io/master/images/logo.png"
                    },
                    "sub_115": {
                        "id": 115,
                        "mode": "video",
                        "name_original": "Channel 5",
                        "name": "Canal 26",
                        "sub_name": "",
                        "stream_video_url": "http://200.115.193.177/live/26hd-720/playlist.m3u8",
                        "thumbnail_url": "https://upload.wikimedia.org/wikipedia/commons/thumb/c/c5/Canal_26_logo_%282022%29.svg/512px-Canal_26_logo_%282022%29.svg.png",
                        "thumbnail_url_original": "https://raw.githubusercontent.com/tvgram-inc/tvgram-inc.github.io/master/images/logo.png"
                    },
                    "sub_116": {
                        "id": 116,
                        "mode": "video",
                        "name_original": "Channel 6",
                        "name": "CGTN",
                        "sub_name": "",
                        "stream_video_url": "https://news.cgtn.com/resource/live/english/cgtn-news.m3u8",
                        "thumbnail_url": "https://upload.wikimedia.org/wikipedia/commons/thumb/8/81/CGTN.svg/512px-CGTN.svg.png",
                        "thumbnail_url_original": "https://raw.githubusercontent.com/tvgram-inc/tvgram-inc.github.io/master/images/logo.png"
                    },
                    "sub_117": {
                        "id": 117,
                        "mode": "video",
                        "name_original": "Channel 7",
                        "name": "CGTN Espa\u00f1ol",
                        "sub_name": "",
                        "stream_video_url": "https://news.cgtn.com/resource/live/espanol/cgtn-e.m3u8",
                        "thumbnail_url": "https://upload.wikimedia.org/wikipedia/commons/thumb/9/9c/CGTN_Espanol.png/512px-CGTN_Espanol.png",
                        "thumbnail_url_original": "https://raw.githubusercontent.com/tvgram-inc/tvgram-inc.github.io/master/images/logo.png"
                    },
                    "sub_118": {
                        "id": 118,
                        "mode": "video",
                        "name_original": "Channel 8",
                        "name": "Cholusat Sur 36",
                        "sub_name": "",
                        "stream_video_url": "http://audiotvserver.net:1935/livemedia/cholusat/playlist.m3u8",
                        "thumbnail_url": "https://i.imgur.com/qRHwhND.png",
                        "thumbnail_url_original": "https://raw.githubusercontent.com/tvgram-inc/tvgram-inc.github.io/master/images/logo.png"
                    },
                    "sub_119": {
                        "id": 119,
                        "mode": "video",
                        "name_original": "Channel 9",
                        "name": "Choluteca TV",
                        "sub_name": "",
                        "stream_video_url": "https://emisoras.hn:8081/cholutecatv/playlist.m3u8",
                        "thumbnail_url": "https://i.imgur.com/4ECjM4R.png",
                        "thumbnail_url_original": "https://raw.githubusercontent.com/tvgram-inc/tvgram-inc.github.io/master/images/logo.png"
                    },
                    "sub_120": {
                        "id": 120,
                        "mode": "video",
                        "name_original": "Channel 10",
                        "name": "Classic Arts Showcase",
                        "sub_name": "",
                        "stream_video_url": "https://classicarts.akamaized.net/hls/live/1024257/CAS/master.m3u8",
                        "thumbnail_url": "https://i.imgur.com/M6FFkc3.png",
                        "thumbnail_url_original": "https://raw.githubusercontent.com/tvgram-inc/tvgram-inc.github.io/master/images/logo.png"
                    },
                    "sub_121": {
                        "id": 121,
                        "mode": "video",
                        "name_original": "Channel 11",
                        "name": "CNA International",
                        "sub_name": "",
                        "stream_video_url": "https://d2e1asnsl7br7b.cloudfront.net/7782e205e72f43aeb4a48ec97f66ebbe/index.m3u8",
                        "thumbnail_url": "https://upload.wikimedia.org/wikipedia/commons/thumb/8/83/CNA_new_logo.svg/512px-CNA_new_logo.svg.png",
                        "thumbnail_url_original": "https://raw.githubusercontent.com/tvgram-inc/tvgram-inc.github.io/master/images/logo.png"
                    },
                    "sub_122": {
                        "id": 122,
                        "mode": "video",
                        "name_original": "Channel 12",
                        "name": "Dios Te Ve Infantil",
                        "sub_name": "",
                        "stream_video_url": "https://emisoras.hn:8081/diostevekids/playlist.m3u8",
                        "thumbnail_url": "https://i.imgur.com/nk2nLBH.png",
                        "thumbnail_url_original": "https://raw.githubusercontent.com/tvgram-inc/tvgram-inc.github.io/master/images/logo.png"
                    },
                    "sub_123": {
                        "id": 123,
                        "mode": "video",
                        "name_original": "Channel 13",
                        "name": "DW English",
                        "sub_name": "",
                        "stream_video_url": "https://dwamdstream102.akamaized.net/hls/live/2015525/dwstream102/index.m3u8",
                        "thumbnail_url": "https://i.imgur.com/A1xzjOI.png",
                        "thumbnail_url_original": "https://raw.githubusercontent.com/tvgram-inc/tvgram-inc.github.io/master/images/logo.png"
                    },
                    "sub_124": {
                        "id": 124,
                        "mode": "video",
                        "name_original": "Channel 14",
                        "name": "DW Espa\u00f1ol",
                        "sub_name": "",
                        "stream_video_url": "https://dwamdstream104.akamaized.net/hls/live/2015530/dwstream104/index.m3u8",
                        "thumbnail_url": "https://i.imgur.com/A1xzjOI.png",
                        "thumbnail_url_original": "https://raw.githubusercontent.com/tvgram-inc/tvgram-inc.github.io/master/images/logo.png"
                    },
                    "sub_125": {
                        "id": 125,
                        "mode": "video",
                        "name_original": "Channel 15",
                        "name": "EDN TV",
                        "sub_name": "",
                        "stream_video_url": "https://60417ddeaf0d9.streamlock.net/edntv/videoedntv/playlist.m3u8",
                        "thumbnail_url": "https://i.imgur.com/Dq9we3E.png",
                        "thumbnail_url_original": "https://raw.githubusercontent.com/tvgram-inc/tvgram-inc.github.io/master/images/logo.png"
                    },
                    "sub_126": {
                        "id": 126,
                        "mode": "video",
                        "name_original": "Channel 16",
                        "name": "EnerGeek Fanpop",
                        "sub_name": "",
                        "stream_video_url": "https://stream.wifispeed.cl:3247/live/energeek2live.m3u8",
                        "thumbnail_url": "https://i.imgur.com/AdsItgE.png",
                        "thumbnail_url_original": "https://raw.githubusercontent.com/tvgram-inc/tvgram-inc.github.io/master/images/logo.png"
                    },
                    "sub_127": {
                        "id": 127,
                        "mode": "video",
                        "name_original": "Channel 17",
                        "name": "EnerGeek Se\u00f1al 1",
                        "sub_name": "",
                        "stream_video_url": "https://stream.wifispeed.cl:3103/live/energeek1live.m3u8",
                        "thumbnail_url": "https://i.imgur.com/sFYhUs5.png",
                        "thumbnail_url_original": "https://raw.githubusercontent.com/tvgram-inc/tvgram-inc.github.io/master/images/logo.png"
                    },
                    "sub_128": {
                        "id": 128,
                        "mode": "video",
                        "name_original": "Channel 18",
                        "name": "EnerGeek Se\u00f1al 3",
                        "sub_name": "",
                        "stream_video_url": "https://stream.wifispeed.cl:3852/live/energeeklive.m3u8",
                        "thumbnail_url": "https://i2.paste.pics/2bf75a344d4cf7c2530247f14e101d84.png",
                        "thumbnail_url_original": "https://raw.githubusercontent.com/tvgram-inc/tvgram-inc.github.io/master/images/logo.png"
                    },
                    "sub_129": {
                        "id": 129,
                        "mode": "video",
                        "name_original": "Channel 19",
                        "name": "ERT World",
                        "sub_name": "",
                        "stream_video_url": "http://wpso.com:1936/hls/wzra.m3u8",
                        "thumbnail_url": "https://upload.wikimedia.org/wikipedia/commons/thumb/b/bc/ChannelLogo-ERTWORLD1.png/512px-ChannelLogo-ERTWORLD1.png",
                        "thumbnail_url_original": "https://raw.githubusercontent.com/tvgram-inc/tvgram-inc.github.io/master/images/logo.png"
                    }
                }
            }
        }
    }
}