{
    "TV_Data": {
        "Channel_List": {
            "is_channel_list": true,
            "is_override": true,
            "thumb_width": 150,
            "all_Channels_Tab_Name": "",
            "main": {
                "id": 0,
                "name": "Indian Channels",
                "sub_name": "Channels",
                "thumbnail_url": "https://www.iptv-updated.com/wp-content/uploads/2019/12/iconfinder_flag-india_748132.png",
                "sub": {
                    "sub_1": {
                        "id": 1,
                        "mode": "video",
                        "name": "Channel 1",
                        "sub_name": "",
                        "stream_video_url": "https://feeds.intoday.in/hltapps/api/master.m3u8",
                        "thumbnail_url": ".pnggg",
                        "thumbnail_url_original": "https://www.iptv-updated.comhttps://www.iptv-updated.com/wp-content/themes/shootingstar-child/uploaded_images/india_today_img_2363.png",
                        "name_original": "Channel 1"
                    },
                    "sub_2": {
                        "id": 2,
                        "mode": "video",
                        "name": "Channel 4",
                        "sub_name": "",
                        "stream_video_url": "https://indiatodaylive.akamaized.net/hls/live/2014320/indiatoday/indiatodaylive/playlist.m3u8",
                        "thumbnail_url": ".pnggg",
                        "thumbnail_url_original": "https://www.iptv-updated.comhttps://www.iptv-updated.com/wp-content/themes/shootingstar-child/uploaded_images/india_today_img_2363.png",
                        "name_original": "Channel 2"
                    },
                    "sub_3": {
                        "id": 3,
                        "mode": "video",
                        "name": "Channel 5",
                        "sub_name": "",
                        "stream_video_url": "http://live.wmncdn.net/jantatv/live.stream/index.m3u8",
                        "thumbnail_url": ".pnggg",
                        "thumbnail_url_original": "https://www.iptv-updated.comhttps://www.iptv-updated.com/wp-content/themes/shootingstar-child/uploaded_images/janta_tv_img_2372.png",
                        "name_original": "Channel 3"
                    },
                    "sub_4": {
                        "id": 4,
                        "mode": "video",
                        "name": "Channel 7",
                        "sub_name": "",
                        "stream_video_url": "https://live.wmncdn.net/jantatv/live.stream/index.m3u8",
                        "thumbnail_url": ".pnggg",
                        "thumbnail_url_original": "https://www.iptv-updated.comhttps://www.iptv-updated.com/wp-content/themes/shootingstar-child/uploaded_images/janta_tv_img_2372.png",
                        "name_original": "Channel 4"
                    },
                    "sub_5": {
                        "id": 5,
                        "mode": "video",
                        "name": "Channel 8",
                        "sub_name": "",
                        "stream_video_url": "https://live.mycast.in/kalingatv/d0dbe915091d400bd8ee7f27f0791303.sdp/playlist.m3u8",
                        "thumbnail_url": ".pnggg",
                        "thumbnail_url_original": "https://www.iptv-updated.com",
                        "name_original": "Channel 5"
                    },
                    "sub_6": {
                        "id": 6,
                        "mode": "video",
                        "name": "Channel 10",
                        "sub_name": "",
                        "stream_video_url": "http://fash1043.cloudycdn.services/slive/_definst_/ftv_pg16_adaptive.smil/playlist.m3u8",
                        "thumbnail_url": ".pnggg",
                        "thumbnail_url_original": "https://www.iptv-updated.comhttps://i.imgur.com/auHH1Ig.png",
                        "name_original": "Channel 6"
                    },
                    "sub_7": {
                        "id": 7,
                        "mode": "video",
                        "name": "Channel 11",
                        "sub_name": "",
                        "stream_video_url": "https://fash1043.cloudycdn.services/slive/_definst_/ftv_pg16_adaptive.smil/playlist.m3u8",
                        "thumbnail_url": ".pnggg",
                        "thumbnail_url_original": "https://www.iptv-updated.comhttps://i.imgur.com/auHH1Ig.png",
                        "name_original": "Channel 7"
                    },
                    "sub_8": {
                        "id": 8,
                        "mode": "video",
                        "name": "Channel 14",
                        "sub_name": "",
                        "stream_video_url": "https://fashiontv-fashiontv-1-eu.rakuten.wurl.com/manifest/playlist.m3u8",
                        "thumbnail_url": ".pnggg",
                        "thumbnail_url_original": "https://www.iptv-updated.comhttps://i.imgur.com/auHH1Ig.png",
                        "name_original": "Channel 8"
                    },
                    "sub_9": {
                        "id": 9,
                        "mode": "video",
                        "name": "Channel 17",
                        "sub_name": "",
                        "stream_video_url": "https://fashiontv-fashiontv-1-gb.samsung.wurl.com/manifest/playlist.m3u8",
                        "thumbnail_url": ".pnggg",
                        "thumbnail_url_original": "https://www.iptv-updated.comhttps://i.imgur.com/auHH1Ig.png",
                        "name_original": "Channel 9"
                    },
                    "sub_10": {
                        "id": 10,
                        "mode": "video",
                        "name": "Channel 19",
                        "sub_name": "",
                        "stream_video_url": "https://fashiontv-fashiontv-3-it.samsung.wurl.com/manifest/playlist.m3u8",
                        "thumbnail_url": ".pnggg",
                        "thumbnail_url_original": "https://www.iptv-updated.comhttps://i.imgur.com/auHH1Ig.png",
                        "name_original": "Channel 10"
                    },
                    "sub_11": {
                        "id": 11,
                        "mode": "video",
                        "name": "Channel 22",
                        "sub_name": "",
                        "stream_video_url": "https://vidcdn.vidgyor.com/kat-origin/liveabr/playlist.m3u8",
                        "thumbnail_url": ".pnggg",
                        "thumbnail_url_original": "https://www.iptv-updated.com",
                        "name_original": "Channel 11"
                    },
                    "sub_12": {
                        "id": 12,
                        "mode": "video",
                        "name": "Channel 23",
                        "sub_name": "",
                        "stream_video_url": "http://103.199.161.254/Content/asianetnews/Live/Channel(Asianetnews)/index.m3u8",
                        "thumbnail_url": ".pnggg",
                        "thumbnail_url_original": "https://www.iptv-updated.comhttps://www.iptv-updated.com/wp-content/themes/shootingstar-child/uploaded_images/asianet_news_img_2313.png",
                        "name_original": "Channel 12"
                    },
                    "sub_13": {
                        "id": 13,
                        "mode": "video",
                        "name": "Channel 26",
                        "sub_name": "",
                        "stream_video_url": "https://vidcdn.vidgyor.com/asianet-origin/liveabr/playlist.m3u8",
                        "thumbnail_url": ".pnggg",
                        "thumbnail_url_original": "https://www.iptv-updated.comhttps://www.iptv-updated.com/wp-content/themes/shootingstar-child/uploaded_images/asianet_news_img_2313.png",
                        "name_original": "Channel 13"
                    },
                    "sub_14": {
                        "id": 14,
                        "mode": "video",
                        "name": "Channel 28",
                        "sub_name": "",
                        "stream_video_url": "https://vidcdn.vidgyor.com/suvarna-origin/liveabr/playlist.m3u8",
                        "thumbnail_url": ".pnggg",
                        "thumbnail_url_original": "https://www.iptv-updated.comhttps://static.asianetnews.com/v1/images/asianet_suvarna_news.png",
                        "name_original": "Channel 14"
                    },
                    "sub_15": {
                        "id": 15,
                        "mode": "video",
                        "name": "Channel 34",
                        "sub_name": "",
                        "stream_video_url": "http://ashrafichannel.livebox.co.in/ashrafivhannelhls/live.m3u8",
                        "thumbnail_url": ".pnggg",
                        "thumbnail_url_original": "https://www.iptv-updated.com",
                        "name_original": "Channel 15"
                    },
                    "sub_16": {
                        "id": 16,
                        "mode": "video",
                        "name": "Channel 38",
                        "sub_name": "",
                        "stream_video_url": "https://f3.vstream.online:7443/bstb/ngrp:anjan_hdall/playlist.m3u8",
                        "thumbnail_url": ".pnggg",
                        "thumbnail_url_original": "https://www.iptv-updated.com",
                        "name_original": "Channel 16"
                    },
                    "sub_17": {
                        "id": 17,
                        "mode": "video",
                        "name": "Channel 40",
                        "sub_name": "",
                        "stream_video_url": "https://6n3yogbnd9ok-hls-live.5centscdn.com/threetamil/d0dbe915091d400bd8ee7f27f0791303.sdp/index.m3u8",
                        "thumbnail_url": ".pnggg",
                        "thumbnail_url_original": "https://www.iptv-updated.comhttps://i.imgur.com/WfAU7pB.png",
                        "name_original": "Channel 17"
                    },
                    "sub_18": {
                        "id": 18,
                        "mode": "video",
                        "name": "Channel 41",
                        "sub_name": "",
                        "stream_video_url": "http://live.wmncdn.net/desichannel/7e2dd0aed46b70a5c77f4affdb702e4b.sdp/mono.m3u8",
                        "thumbnail_url": ".pnggg",
                        "thumbnail_url_original": "https://www.iptv-updated.comhttps://www.iptv-updated.com/wp-content/themes/shootingstar-child/uploaded_images/desi_channel_img_2339.png",
                        "name_original": "Channel 18"
                    },
                    "sub_19": {
                        "id": 19,
                        "mode": "video",
                        "name": "Channel 43",
                        "sub_name": "",
                        "stream_video_url": "https://live.wmncdn.net/desichannel/7e2dd0aed46b70a5c77f4affdb702e4b.sdp/mono.m3u8",
                        "thumbnail_url": ".pnggg",
                        "thumbnail_url_original": "https://www.iptv-updated.comhttps://www.iptv-updated.com/wp-content/themes/shootingstar-child/uploaded_images/desi_channel_img_2339.png",
                        "name_original": "Channel 19"
                    },
                    "sub_20": {
                        "id": 20,
                        "mode": "video",
                        "name": "Channel 44",
                        "sub_name": "",
                        "stream_video_url": "https://live.wmncdn.net/desichannel/7e2dd0aed46b70a5c77f4affdb702e4b.sdp/playlist.m3u8",
                        "thumbnail_url": ".pnggg",
                        "thumbnail_url_original": "https://www.iptv-updated.comhttps://www.iptv-updated.com/wp-content/themes/shootingstar-child/uploaded_images/desi_channel_img_2339.png",
                        "name_original": "Channel 20"
                    },
                    "sub_21": {
                        "id": 21,
                        "mode": "video",
                        "name": "Channel 52",
                        "sub_name": "",
                        "stream_video_url": "http://akalmultimedia.net:1935/gdnslive/gdns-live/chunklist.m3u8",
                        "thumbnail_url": ".pnggg",
                        "thumbnail_url_original": "https://www.iptv-updated.com",
                        "name_original": "Channel 21"
                    },
                    "sub_22": {
                        "id": 22,
                        "mode": "video",
                        "name": "Channel 58",
                        "sub_name": "",
                        "stream_video_url": "https://vidcdn.vidgyor.com/janamtv-origin/liveabr/playlist.m3u8",
                        "thumbnail_url": ".pnggg",
                        "thumbnail_url_original": "https://www.iptv-updated.comhttps://www.iptv-updated.com/wp-content/themes/shootingstar-child/uploaded_images/default_img.png",
                        "name_original": "Channel 22"
                    },
                    "sub_23": {
                        "id": 23,
                        "mode": "video",
                        "name": "Channel 68",
                        "sub_name": "",
                        "stream_video_url": "https://d2q8p4pe5spbak.cloudfront.net/bpk-tv/9XM/9XM.isml/index.m3u8",
                        "thumbnail_url": ".pnggg",
                        "thumbnail_url_original": "https://www.iptv-updated.comhttps://i.imgur.com/fD7wLka.jpg",
                        "name_original": "Channel 23"
                    },
                    "sub_24": {
                        "id": 24,
                        "mode": "video",
                        "name": "Channel 74",
                        "sub_name": "",
                        "stream_video_url": "https://ndtvindiaelemarchana.akamaized.net//hls//live//2003679//ndtvindia//ndtvindiamaster.m3u8",
                        "thumbnail_url": ".pnggg",
                        "thumbnail_url_original": "https://www.iptv-updated.com",
                        "name_original": "Channel 24"
                    },
                    "sub_25": {
                        "id": 25,
                        "mode": "video",
                        "name": "Channel 76",
                        "sub_name": "",
                        "stream_video_url": "https://ndtv24x7elemarchana.akamaized.net/hls/live/2003678/ndtv24x7/ndtv24x7master.m3u8",
                        "thumbnail_url": ".pnggg",
                        "thumbnail_url_original": "https://www.iptv-updated.comhttps://www.iptv-updated.com/wp-content/themes/shootingstar-child/uploaded_images/default_img.png",
                        "name_original": "Channel 25"
                    },
                    "sub_26": {
                        "id": 26,
                        "mode": "video",
                        "name": "Channel 77",
                        "sub_name": "",
                        "stream_video_url": "https://ndtv24x7elemarchana.akamaized.net/hls/live/2003678/ndtv24x7/master.m3u8",
                        "thumbnail_url": ".pnggg",
                        "thumbnail_url_original": "https://www.iptv-updated.comhttps://www.iptv-updated.com/wp-content/themes/shootingstar-child/uploaded_images/default_img.png",
                        "name_original": "Channel 26"
                    },
                    "sub_27": {
                        "id": 27,
                        "mode": "video",
                        "name": "Channel 79",
                        "sub_name": "",
                        "stream_video_url": "https://ndtvindiaelemarchana.akamaized.net/hls/live/2003679/ndtvindia/ndtvindiamaster.m3u8",
                        "thumbnail_url": ".pnggg",
                        "thumbnail_url_original": "https://www.iptv-updated.comhttps://i.imgur.com/80vwZaO.png",
                        "name_original": "Channel 27"
                    },
                    "sub_28": {
                        "id": 28,
                        "mode": "video",
                        "name": "Channel 80",
                        "sub_name": "",
                        "stream_video_url": "https://ndtvindiaelemarchana.akamaized.net/hls/live/2003679/ndtvindia/master.m3u8",
                        "thumbnail_url": ".pnggg",
                        "thumbnail_url_original": "https://www.iptv-updated.comhttps://i.imgur.com/80vwZaO.png",
                        "name_original": "Channel 28"
                    },
                    "sub_29": {
                        "id": 29,
                        "mode": "video",
                        "name": "Channel 82",
                        "sub_name": "",
                        "stream_video_url": "https://ndtvprofitelemarchana.akamaized.net/hls/live/2003680/ndtvprofit/ndtvprofitmaster.m3u8",
                        "thumbnail_url": ".pnggg",
                        "thumbnail_url_original": "https://www.iptv-updated.comhttps://i.imgur.com/pQ7nl12.png",
                        "name_original": "Channel 29"
                    },
                    "sub_30": {
                        "id": 30,
                        "mode": "video",
                        "name": "Channel 83",
                        "sub_name": "",
                        "stream_video_url": "https://ndtvprofitelemarchana.akamaized.net/hls/live/2003680-b/ndtvprofit/master.m3u8",
                        "thumbnail_url": ".pnggg",
                        "thumbnail_url_original": "https://www.iptv-updated.comhttps://i.imgur.com/pQ7nl12.png",
                        "name_original": "Channel 30"
                    },
                    "sub_31": {
                        "id": 31,
                        "mode": "video",
                        "name": "Channel 85",
                        "sub_name": "",
                        "stream_video_url": "https://ndtvprofitelemarchana.akamaized.net/hls/live/2003680/ndtvprofit/master.m3u8",
                        "thumbnail_url": ".pnggg",
                        "thumbnail_url_original": "https://www.iptv-updated.comhttps://i.imgur.com/pQ7nl12.png",
                        "name_original": "Channel 31"
                    },
                    "sub_32": {
                        "id": 32,
                        "mode": "video",
                        "name": "Channel 98",
                        "sub_name": "",
                        "stream_video_url": "https://bk7l298nyx53-hls-live.5centscdn.com/realnews/e7dee419f91aa9e65939d3677fb9c4f5.sdp/playlist.m3u8",
                        "thumbnail_url": ".pnggg",
                        "thumbnail_url_original": "https://www.iptv-updated.comhttps://i.imgur.com/EmBpOWM.png",
                        "name_original": "Channel 32"
                    },
                    "sub_33": {
                        "id": 33,
                        "mode": "video",
                        "name": "Channel 100",
                        "sub_name": "",
                        "stream_video_url": "http://cdn12.henico.net:8080/live/sadatv/index.m3u8",
                        "thumbnail_url": ".pnggg",
                        "thumbnail_url_original": "https://www.iptv-updated.com",
                        "name_original": "Channel 33"
                    },
                    "sub_34": {
                        "id": 34,
                        "mode": "video",
                        "name": "Channel 103",
                        "sub_name": "",
                        "stream_video_url": "http://158.69.124.9:1935/sardaritv/sardaritv/playlist.m3u8",
                        "thumbnail_url": ".pnggg",
                        "thumbnail_url_original": "https://www.iptv-updated.comhttps://www.iptv-updated.com/wp-content/themes/shootingstar-child/uploaded_images/sardari_tv_img_2433.png",
                        "name_original": "Channel 34"
                    },
                    "sub_35": {
                        "id": 35,
                        "mode": "video",
                        "name": "Channel 104",
                        "sub_name": "",
                        "stream_video_url": "http://6284rn2xr7xv-hls-live.wmncdn.net/shubhsandeshtv1/live123.stream/index.m3u8",
                        "thumbnail_url": ".pnggg",
                        "thumbnail_url_original": "https://www.iptv-updated.comhttps://www.iptv-updated.com/wp-content/themes/shootingstar-child/uploaded_images/shubhsandesh_img_2435.png",
                        "name_original": "Channel 35"
                    },
                    "sub_36": {
                        "id": 36,
                        "mode": "video",
                        "name": "Channel 106",
                        "sub_name": "",
                        "stream_video_url": "https://6284rn2xr7xv-hls-live.wmncdn.net/shubhsandeshtv1/live123.stream/index.m3u8",
                        "thumbnail_url": ".pnggg",
                        "thumbnail_url_original": "https://www.iptv-updated.comhttps://www.iptv-updated.com/wp-content/themes/shootingstar-child/uploaded_images/shubhsandesh_img_2435.png",
                        "name_original": "Channel 36"
                    },
                    "sub_37": {
                        "id": 37,
                        "mode": "video",
                        "name": "Channel 107",
                        "sub_name": "",
                        "stream_video_url": "http://c0.cdn.trinity-tv.net/stream/nh9u54a7sfnc2hwzxr2zwykwkqm43bgyyzsm68ybbbnjei8kytwcgs3zm5gnw5c6efa5gr3fadzqe686w8gj2eaehrj89wvujvqza3kez78dtknwbbmnqf79yygmqqg7e9pnc3i3bpywjkiqrwke94yf.m3u8",
                        "thumbnail_url": ".pnggg",
                        "thumbnail_url_original": "https://www.iptv-updated.com",
                        "name_original": "Channel 37"
                    },
                    "sub_38": {
                        "id": 38,
                        "mode": "video",
                        "name": "Channel 109",
                        "sub_name": "",
                        "stream_video_url": "http://wms.shared.streamshow.it/supertv/mp4:supertv/playlist.m3u8",
                        "thumbnail_url": ".pnggg",
                        "thumbnail_url_original": "https://www.iptv-updated.comhttps://www.iptv-updated.com/wp-content/themes/shootingstar-child/uploaded_images/super_tv_img_2442.png",
                        "name_original": "Channel 38"
                    },
                    "sub_39": {
                        "id": 39,
                        "mode": "video",
                        "name": "Channel 112",
                        "sub_name": "",
                        "stream_video_url": "http://live.wmncdn.net/highnews/swaraj.stream/index.m3u8",
                        "thumbnail_url": ".pnggg",
                        "thumbnail_url_original": "https://www.iptv-updated.com",
                        "name_original": "Channel 39"
                    },
                    "sub_40": {
                        "id": 40,
                        "mode": "video",
                        "name": "Channel 113",
                        "sub_name": "",
                        "stream_video_url": "https://live.wmncdn.net/highnews/swaraj.stream/index.m3u8",
                        "thumbnail_url": ".pnggg",
                        "thumbnail_url_original": "https://www.iptv-updated.com",
                        "name_original": "Channel 40"
                    },
                    "sub_41": {
                        "id": 41,
                        "mode": "video",
                        "name": "Channel 115",
                        "sub_name": "",
                        "stream_video_url": "http://live.tamilvision.tv:8081/TVI/SD/chunks.m3u8",
                        "thumbnail_url": ".pnggg",
                        "thumbnail_url_original": "https://www.iptv-updated.comhttps://www.iptv-updated.com/wp-content/themes/shootingstar-child/uploaded_images/tamil_vision_international_img_2447.png",
                        "name_original": "Channel 41"
                    },
                    "sub_42": {
                        "id": 42,
                        "mode": "video",
                        "name": "Channel 116",
                        "sub_name": "",
                        "stream_video_url": "http://live.tamilvision.tv:8081/TVI/SD/playlist.m3u8",
                        "thumbnail_url": ".pnggg",
                        "thumbnail_url_original": "https://www.iptv-updated.comhttps://www.iptv-updated.com/wp-content/themes/shootingstar-child/uploaded_images/tamil_vision_international_img_2447.png",
                        "name_original": "Channel 42"
                    },
                    "sub_43": {
                        "id": 43,
                        "mode": "video",
                        "name": "Channel 118",
                        "sub_name": "",
                        "stream_video_url": "http://live.tamilvision.tv:8081/TVI/HD/playlist.m3u8",
                        "thumbnail_url": ".pnggg",
                        "thumbnail_url_original": "https://www.iptv-updated.comhttps://www.iptv-updated.com/wp-content/themes/shootingstar-child/uploaded_images/tamil_vision_international_img_2447.png",
                        "name_original": "Channel 43"
                    },
                    "sub_44": {
                        "id": 44,
                        "mode": "video",
                        "name": "Channel 1",
                        "sub_name": "",
                        "stream_video_url": "https://feeds.intoday.in/hltapps/api/master.m3u8",
                        "thumbnail_url": ".pnggg",
                        "thumbnail_url_original": "https://www.iptv-updated.comhttps://www.iptv-updated.com/wp-content/themes/shootingstar-child/uploaded_images/india_today_img_2363.png",
                        "name_original": "Channel 1"
                    },
                    "sub_45": {
                        "id": 45,
                        "mode": "video",
                        "name": "Channel 4",
                        "sub_name": "",
                        "stream_video_url": "https://indiatodaylive.akamaized.net/hls/live/2014320/indiatoday/indiatodaylive/playlist.m3u8",
                        "thumbnail_url": ".pnggg",
                        "thumbnail_url_original": "https://www.iptv-updated.comhttps://www.iptv-updated.com/wp-content/themes/shootingstar-child/uploaded_images/india_today_img_2363.png",
                        "name_original": "Channel 2"
                    },
                    "sub_46": {
                        "id": 46,
                        "mode": "video",
                        "name": "Channel 5",
                        "sub_name": "",
                        "stream_video_url": "http://live.wmncdn.net/jantatv/live.stream/index.m3u8",
                        "thumbnail_url": ".pnggg",
                        "thumbnail_url_original": "https://www.iptv-updated.comhttps://www.iptv-updated.com/wp-content/themes/shootingstar-child/uploaded_images/janta_tv_img_2372.png",
                        "name_original": "Channel 3"
                    },
                    "sub_47": {
                        "id": 47,
                        "mode": "video",
                        "name": "Channel 7",
                        "sub_name": "",
                        "stream_video_url": "https://live.wmncdn.net/jantatv/live.stream/index.m3u8",
                        "thumbnail_url": ".pnggg",
                        "thumbnail_url_original": "https://www.iptv-updated.comhttps://www.iptv-updated.com/wp-content/themes/shootingstar-child/uploaded_images/janta_tv_img_2372.png",
                        "name_original": "Channel 4"
                    },
                    "sub_48": {
                        "id": 48,
                        "mode": "video",
                        "name": "Channel 8",
                        "sub_name": "",
                        "stream_video_url": "https://live.mycast.in/kalingatv/d0dbe915091d400bd8ee7f27f0791303.sdp/playlist.m3u8",
                        "thumbnail_url": ".pnggg",
                        "thumbnail_url_original": "https://www.iptv-updated.com",
                        "name_original": "Channel 5"
                    },
                    "sub_49": {
                        "id": 49,
                        "mode": "video",
                        "name": "Channel 10",
                        "sub_name": "",
                        "stream_video_url": "http://fash1043.cloudycdn.services/slive/_definst_/ftv_pg16_adaptive.smil/playlist.m3u8",
                        "thumbnail_url": ".pnggg",
                        "thumbnail_url_original": "https://www.iptv-updated.comhttps://i.imgur.com/auHH1Ig.png",
                        "name_original": "Channel 6"
                    },
                    "sub_50": {
                        "id": 50,
                        "mode": "video",
                        "name": "Channel 11",
                        "sub_name": "",
                        "stream_video_url": "https://fash1043.cloudycdn.services/slive/_definst_/ftv_pg16_adaptive.smil/playlist.m3u8",
                        "thumbnail_url": ".pnggg",
                        "thumbnail_url_original": "https://www.iptv-updated.comhttps://i.imgur.com/auHH1Ig.png",
                        "name_original": "Channel 7"
                    },
                    "sub_51": {
                        "id": 51,
                        "mode": "video",
                        "name": "Channel 14",
                        "sub_name": "",
                        "stream_video_url": "https://fashiontv-fashiontv-1-eu.rakuten.wurl.com/manifest/playlist.m3u8",
                        "thumbnail_url": ".pnggg",
                        "thumbnail_url_original": "https://www.iptv-updated.comhttps://i.imgur.com/auHH1Ig.png",
                        "name_original": "Channel 8"
                    },
                    "sub_52": {
                        "id": 52,
                        "mode": "video",
                        "name": "Channel 17",
                        "sub_name": "",
                        "stream_video_url": "https://fashiontv-fashiontv-1-gb.samsung.wurl.com/manifest/playlist.m3u8",
                        "thumbnail_url": ".pnggg",
                        "thumbnail_url_original": "https://www.iptv-updated.comhttps://i.imgur.com/auHH1Ig.png",
                        "name_original": "Channel 9"
                    },
                    "sub_53": {
                        "id": 53,
                        "mode": "video",
                        "name": "Channel 19",
                        "sub_name": "",
                        "stream_video_url": "https://fashiontv-fashiontv-3-it.samsung.wurl.com/manifest/playlist.m3u8",
                        "thumbnail_url": ".pnggg",
                        "thumbnail_url_original": "https://www.iptv-updated.comhttps://i.imgur.com/auHH1Ig.png",
                        "name_original": "Channel 10"
                    },
                    "sub_54": {
                        "id": 54,
                        "mode": "video",
                        "name": "Channel 22",
                        "sub_name": "",
                        "stream_video_url": "https://vidcdn.vidgyor.com/kat-origin/liveabr/playlist.m3u8",
                        "thumbnail_url": ".pnggg",
                        "thumbnail_url_original": "https://www.iptv-updated.com",
                        "name_original": "Channel 11"
                    },
                    "sub_55": {
                        "id": 55,
                        "mode": "video",
                        "name": "Channel 23",
                        "sub_name": "",
                        "stream_video_url": "http://103.199.161.254/Content/asianetnews/Live/Channel(Asianetnews)/index.m3u8",
                        "thumbnail_url": ".pnggg",
                        "thumbnail_url_original": "https://www.iptv-updated.comhttps://www.iptv-updated.com/wp-content/themes/shootingstar-child/uploaded_images/asianet_news_img_2313.png",
                        "name_original": "Channel 12"
                    },
                    "sub_56": {
                        "id": 56,
                        "mode": "video",
                        "name": "Channel 26",
                        "sub_name": "",
                        "stream_video_url": "https://vidcdn.vidgyor.com/asianet-origin/liveabr/playlist.m3u8",
                        "thumbnail_url": ".pnggg",
                        "thumbnail_url_original": "https://www.iptv-updated.comhttps://www.iptv-updated.com/wp-content/themes/shootingstar-child/uploaded_images/asianet_news_img_2313.png",
                        "name_original": "Channel 13"
                    },
                    "sub_57": {
                        "id": 57,
                        "mode": "video",
                        "name": "Channel 28",
                        "sub_name": "",
                        "stream_video_url": "https://vidcdn.vidgyor.com/suvarna-origin/liveabr/playlist.m3u8",
                        "thumbnail_url": ".pnggg",
                        "thumbnail_url_original": "https://www.iptv-updated.comhttps://static.asianetnews.com/v1/images/asianet_suvarna_news.png",
                        "name_original": "Channel 14"
                    },
                    "sub_58": {
                        "id": 58,
                        "mode": "video",
                        "name": "Channel 34",
                        "sub_name": "",
                        "stream_video_url": "http://ashrafichannel.livebox.co.in/ashrafivhannelhls/live.m3u8",
                        "thumbnail_url": ".pnggg",
                        "thumbnail_url_original": "https://www.iptv-updated.com",
                        "name_original": "Channel 15"
                    },
                    "sub_59": {
                        "id": 59,
                        "mode": "video",
                        "name": "Channel 38",
                        "sub_name": "",
                        "stream_video_url": "https://f3.vstream.online:7443/bstb/ngrp:anjan_hdall/playlist.m3u8",
                        "thumbnail_url": ".pnggg",
                        "thumbnail_url_original": "https://www.iptv-updated.com",
                        "name_original": "Channel 16"
                    },
                    "sub_60": {
                        "id": 60,
                        "mode": "video",
                        "name": "Channel 40",
                        "sub_name": "",
                        "stream_video_url": "https://6n3yogbnd9ok-hls-live.5centscdn.com/threetamil/d0dbe915091d400bd8ee7f27f0791303.sdp/index.m3u8",
                        "thumbnail_url": ".pnggg",
                        "thumbnail_url_original": "https://www.iptv-updated.comhttps://i.imgur.com/WfAU7pB.png",
                        "name_original": "Channel 17"
                    },
                    "sub_61": {
                        "id": 61,
                        "mode": "video",
                        "name": "Channel 41",
                        "sub_name": "",
                        "stream_video_url": "http://live.wmncdn.net/desichannel/7e2dd0aed46b70a5c77f4affdb702e4b.sdp/mono.m3u8",
                        "thumbnail_url": ".pnggg",
                        "thumbnail_url_original": "https://www.iptv-updated.comhttps://www.iptv-updated.com/wp-content/themes/shootingstar-child/uploaded_images/desi_channel_img_2339.png",
                        "name_original": "Channel 18"
                    },
                    "sub_62": {
                        "id": 62,
                        "mode": "video",
                        "name": "Channel 43",
                        "sub_name": "",
                        "stream_video_url": "https://live.wmncdn.net/desichannel/7e2dd0aed46b70a5c77f4affdb702e4b.sdp/mono.m3u8",
                        "thumbnail_url": ".pnggg",
                        "thumbnail_url_original": "https://www.iptv-updated.comhttps://www.iptv-updated.com/wp-content/themes/shootingstar-child/uploaded_images/desi_channel_img_2339.png",
                        "name_original": "Channel 19"
                    },
                    "sub_63": {
                        "id": 63,
                        "mode": "video",
                        "name": "Channel 44",
                        "sub_name": "",
                        "stream_video_url": "https://live.wmncdn.net/desichannel/7e2dd0aed46b70a5c77f4affdb702e4b.sdp/playlist.m3u8",
                        "thumbnail_url": ".pnggg",
                        "thumbnail_url_original": "https://www.iptv-updated.comhttps://www.iptv-updated.com/wp-content/themes/shootingstar-child/uploaded_images/desi_channel_img_2339.png",
                        "name_original": "Channel 20"
                    },
                    "sub_64": {
                        "id": 64,
                        "mode": "video",
                        "name": "Channel 52",
                        "sub_name": "",
                        "stream_video_url": "http://akalmultimedia.net:1935/gdnslive/gdns-live/chunklist.m3u8",
                        "thumbnail_url": ".pnggg",
                        "thumbnail_url_original": "https://www.iptv-updated.com",
                        "name_original": "Channel 21"
                    },
                    "sub_65": {
                        "id": 65,
                        "mode": "video",
                        "name": "Channel 58",
                        "sub_name": "",
                        "stream_video_url": "https://vidcdn.vidgyor.com/janamtv-origin/liveabr/playlist.m3u8",
                        "thumbnail_url": ".pnggg",
                        "thumbnail_url_original": "https://www.iptv-updated.comhttps://www.iptv-updated.com/wp-content/themes/shootingstar-child/uploaded_images/default_img.png",
                        "name_original": "Channel 22"
                    },
                    "sub_66": {
                        "id": 66,
                        "mode": "video",
                        "name": "Channel 68",
                        "sub_name": "",
                        "stream_video_url": "https://d2q8p4pe5spbak.cloudfront.net/bpk-tv/9XM/9XM.isml/index.m3u8",
                        "thumbnail_url": ".pnggg",
                        "thumbnail_url_original": "https://www.iptv-updated.comhttps://i.imgur.com/fD7wLka.jpg",
                        "name_original": "Channel 23"
                    },
                    "sub_67": {
                        "id": 67,
                        "mode": "video",
                        "name": "Channel 74",
                        "sub_name": "",
                        "stream_video_url": "https://ndtvindiaelemarchana.akamaized.net//hls//live//2003679//ndtvindia//ndtvindiamaster.m3u8",
                        "thumbnail_url": ".pnggg",
                        "thumbnail_url_original": "https://www.iptv-updated.com",
                        "name_original": "Channel 24"
                    },
                    "sub_68": {
                        "id": 68,
                        "mode": "video",
                        "name": "Channel 76",
                        "sub_name": "",
                        "stream_video_url": "https://ndtv24x7elemarchana.akamaized.net/hls/live/2003678/ndtv24x7/ndtv24x7master.m3u8",
                        "thumbnail_url": ".pnggg",
                        "thumbnail_url_original": "https://www.iptv-updated.comhttps://www.iptv-updated.com/wp-content/themes/shootingstar-child/uploaded_images/default_img.png",
                        "name_original": "Channel 25"
                    },
                    "sub_69": {
                        "id": 69,
                        "mode": "video",
                        "name": "Channel 77",
                        "sub_name": "",
                        "stream_video_url": "https://ndtv24x7elemarchana.akamaized.net/hls/live/2003678/ndtv24x7/master.m3u8",
                        "thumbnail_url": ".pnggg",
                        "thumbnail_url_original": "https://www.iptv-updated.comhttps://www.iptv-updated.com/wp-content/themes/shootingstar-child/uploaded_images/default_img.png",
                        "name_original": "Channel 26"
                    },
                    "sub_70": {
                        "id": 70,
                        "mode": "video",
                        "name": "Channel 79",
                        "sub_name": "",
                        "stream_video_url": "https://ndtvindiaelemarchana.akamaized.net/hls/live/2003679/ndtvindia/ndtvindiamaster.m3u8",
                        "thumbnail_url": ".pnggg",
                        "thumbnail_url_original": "https://www.iptv-updated.comhttps://i.imgur.com/80vwZaO.png",
                        "name_original": "Channel 27"
                    },
                    "sub_71": {
                        "id": 71,
                        "mode": "video",
                        "name": "Channel 80",
                        "sub_name": "",
                        "stream_video_url": "https://ndtvindiaelemarchana.akamaized.net/hls/live/2003679/ndtvindia/master.m3u8",
                        "thumbnail_url": ".pnggg",
                        "thumbnail_url_original": "https://www.iptv-updated.comhttps://i.imgur.com/80vwZaO.png",
                        "name_original": "Channel 28"
                    },
                    "sub_72": {
                        "id": 72,
                        "mode": "video",
                        "name": "Channel 82",
                        "sub_name": "",
                        "stream_video_url": "https://ndtvprofitelemarchana.akamaized.net/hls/live/2003680/ndtvprofit/ndtvprofitmaster.m3u8",
                        "thumbnail_url": ".pnggg",
                        "thumbnail_url_original": "https://www.iptv-updated.comhttps://i.imgur.com/pQ7nl12.png",
                        "name_original": "Channel 29"
                    },
                    "sub_73": {
                        "id": 73,
                        "mode": "video",
                        "name": "Channel 83",
                        "sub_name": "",
                        "stream_video_url": "https://ndtvprofitelemarchana.akamaized.net/hls/live/2003680-b/ndtvprofit/master.m3u8",
                        "thumbnail_url": ".pnggg",
                        "thumbnail_url_original": "https://www.iptv-updated.comhttps://i.imgur.com/pQ7nl12.png",
                        "name_original": "Channel 30"
                    },
                    "sub_74": {
                        "id": 74,
                        "mode": "video",
                        "name": "Channel 85",
                        "sub_name": "",
                        "stream_video_url": "https://ndtvprofitelemarchana.akamaized.net/hls/live/2003680/ndtvprofit/master.m3u8",
                        "thumbnail_url": ".pnggg",
                        "thumbnail_url_original": "https://www.iptv-updated.comhttps://i.imgur.com/pQ7nl12.png",
                        "name_original": "Channel 31"
                    },
                    "sub_75": {
                        "id": 75,
                        "mode": "video",
                        "name": "Channel 98",
                        "sub_name": "",
                        "stream_video_url": "https://bk7l298nyx53-hls-live.5centscdn.com/realnews/e7dee419f91aa9e65939d3677fb9c4f5.sdp/playlist.m3u8",
                        "thumbnail_url": ".pnggg",
                        "thumbnail_url_original": "https://www.iptv-updated.comhttps://i.imgur.com/EmBpOWM.png",
                        "name_original": "Channel 32"
                    },
                    "sub_76": {
                        "id": 76,
                        "mode": "video",
                        "name": "Channel 100",
                        "sub_name": "",
                        "stream_video_url": "http://cdn12.henico.net:8080/live/sadatv/index.m3u8",
                        "thumbnail_url": ".pnggg",
                        "thumbnail_url_original": "https://www.iptv-updated.com",
                        "name_original": "Channel 33"
                    },
                    "sub_77": {
                        "id": 77,
                        "mode": "video",
                        "name": "Channel 103",
                        "sub_name": "",
                        "stream_video_url": "http://158.69.124.9:1935/sardaritv/sardaritv/playlist.m3u8",
                        "thumbnail_url": ".pnggg",
                        "thumbnail_url_original": "https://www.iptv-updated.comhttps://www.iptv-updated.com/wp-content/themes/shootingstar-child/uploaded_images/sardari_tv_img_2433.png",
                        "name_original": "Channel 34"
                    },
                    "sub_78": {
                        "id": 78,
                        "mode": "video",
                        "name": "Channel 104",
                        "sub_name": "",
                        "stream_video_url": "http://6284rn2xr7xv-hls-live.wmncdn.net/shubhsandeshtv1/live123.stream/index.m3u8",
                        "thumbnail_url": ".pnggg",
                        "thumbnail_url_original": "https://www.iptv-updated.comhttps://www.iptv-updated.com/wp-content/themes/shootingstar-child/uploaded_images/shubhsandesh_img_2435.png",
                        "name_original": "Channel 35"
                    },
                    "sub_79": {
                        "id": 79,
                        "mode": "video",
                        "name": "Channel 106",
                        "sub_name": "",
                        "stream_video_url": "https://6284rn2xr7xv-hls-live.wmncdn.net/shubhsandeshtv1/live123.stream/index.m3u8",
                        "thumbnail_url": ".pnggg",
                        "thumbnail_url_original": "https://www.iptv-updated.comhttps://www.iptv-updated.com/wp-content/themes/shootingstar-child/uploaded_images/shubhsandesh_img_2435.png",
                        "name_original": "Channel 36"
                    },
                    "sub_80": {
                        "id": 80,
                        "mode": "video",
                        "name": "Channel 107",
                        "sub_name": "",
                        "stream_video_url": "http://c0.cdn.trinity-tv.net/stream/nh9u54a7sfnc2hwzxr2zwykwkqm43bgyyzsm68ybbbnjei8kytwcgs3zm5gnw5c6efa5gr3fadzqe686w8gj2eaehrj89wvujvqza3kez78dtknwbbmnqf79yygmqqg7e9pnc3i3bpywjkiqrwke94yf.m3u8",
                        "thumbnail_url": ".pnggg",
                        "thumbnail_url_original": "https://www.iptv-updated.com",
                        "name_original": "Channel 37"
                    },
                    "sub_81": {
                        "id": 81,
                        "mode": "video",
                        "name": "Channel 109",
                        "sub_name": "",
                        "stream_video_url": "http://wms.shared.streamshow.it/supertv/mp4:supertv/playlist.m3u8",
                        "thumbnail_url": ".pnggg",
                        "thumbnail_url_original": "https://www.iptv-updated.comhttps://www.iptv-updated.com/wp-content/themes/shootingstar-child/uploaded_images/super_tv_img_2442.png",
                        "name_original": "Channel 38"
                    },
                    "sub_82": {
                        "id": 82,
                        "mode": "video",
                        "name": "Channel 112",
                        "sub_name": "",
                        "stream_video_url": "http://live.wmncdn.net/highnews/swaraj.stream/index.m3u8",
                        "thumbnail_url": ".pnggg",
                        "thumbnail_url_original": "https://www.iptv-updated.com",
                        "name_original": "Channel 39"
                    },
                    "sub_83": {
                        "id": 83,
                        "mode": "video",
                        "name": "Channel 113",
                        "sub_name": "",
                        "stream_video_url": "https://live.wmncdn.net/highnews/swaraj.stream/index.m3u8",
                        "thumbnail_url": ".pnggg",
                        "thumbnail_url_original": "https://www.iptv-updated.com",
                        "name_original": "Channel 40"
                    },
                    "sub_84": {
                        "id": 84,
                        "mode": "video",
                        "name": "Channel 115",
                        "sub_name": "",
                        "stream_video_url": "http://live.tamilvision.tv:8081/TVI/SD/chunks.m3u8",
                        "thumbnail_url": ".pnggg",
                        "thumbnail_url_original": "https://www.iptv-updated.comhttps://www.iptv-updated.com/wp-content/themes/shootingstar-child/uploaded_images/tamil_vision_international_img_2447.png",
                        "name_original": "Channel 41"
                    },
                    "sub_85": {
                        "id": 85,
                        "mode": "video",
                        "name": "Channel 116",
                        "sub_name": "",
                        "stream_video_url": "http://live.tamilvision.tv:8081/TVI/SD/playlist.m3u8",
                        "thumbnail_url": ".pnggg",
                        "thumbnail_url_original": "https://www.iptv-updated.comhttps://www.iptv-updated.com/wp-content/themes/shootingstar-child/uploaded_images/tamil_vision_international_img_2447.png",
                        "name_original": "Channel 42"
                    },
                    "sub_86": {
                        "id": 86,
                        "mode": "video",
                        "name": "Channel 118",
                        "sub_name": "",
                        "stream_video_url": "http://live.tamilvision.tv:8081/TVI/HD/playlist.m3u8",
                        "thumbnail_url": ".pnggg",
                        "thumbnail_url_original": "https://www.iptv-updated.comhttps://www.iptv-updated.com/wp-content/themes/shootingstar-child/uploaded_images/tamil_vision_international_img_2447.png",
                        "name_original": "Channel 43"
                    },
                    "sub_87": {
                        "id": 87,
                        "mode": "video",
                        "name": "Channel 1",
                        "sub_name": "",
                        "stream_video_url": "https://feeds.intoday.in/hltapps/api/master.m3u8",
                        "thumbnail_url": ".pnggg",
                        "thumbnail_url_original": "https://www.iptv-updated.comhttps://www.iptv-updated.com/wp-content/themes/shootingstar-child/uploaded_images/india_today_img_2363.png",
                        "name_original": "Channel 1"
                    },
                    "sub_88": {
                        "id": 88,
                        "mode": "video",
                        "name": "Channel 4",
                        "sub_name": "",
                        "stream_video_url": "https://indiatodaylive.akamaized.net/hls/live/2014320/indiatoday/indiatodaylive/playlist.m3u8",
                        "thumbnail_url": ".pnggg",
                        "thumbnail_url_original": "https://www.iptv-updated.comhttps://www.iptv-updated.com/wp-content/themes/shootingstar-child/uploaded_images/india_today_img_2363.png",
                        "name_original": "Channel 2"
                    },
                    "sub_89": {
                        "id": 89,
                        "mode": "video",
                        "name": "Channel 5",
                        "sub_name": "",
                        "stream_video_url": "http://live.wmncdn.net/jantatv/live.stream/index.m3u8",
                        "thumbnail_url": ".pnggg",
                        "thumbnail_url_original": "https://www.iptv-updated.comhttps://www.iptv-updated.com/wp-content/themes/shootingstar-child/uploaded_images/janta_tv_img_2372.png",
                        "name_original": "Channel 3"
                    },
                    "sub_90": {
                        "id": 90,
                        "mode": "video",
                        "name": "Channel 7",
                        "sub_name": "",
                        "stream_video_url": "https://live.wmncdn.net/jantatv/live.stream/index.m3u8",
                        "thumbnail_url": ".pnggg",
                        "thumbnail_url_original": "https://www.iptv-updated.comhttps://www.iptv-updated.com/wp-content/themes/shootingstar-child/uploaded_images/janta_tv_img_2372.png",
                        "name_original": "Channel 4"
                    },
                    "sub_91": {
                        "id": 91,
                        "mode": "video",
                        "name": "Channel 8",
                        "sub_name": "",
                        "stream_video_url": "https://live.mycast.in/kalingatv/d0dbe915091d400bd8ee7f27f0791303.sdp/playlist.m3u8",
                        "thumbnail_url": ".pnggg",
                        "thumbnail_url_original": "https://www.iptv-updated.com",
                        "name_original": "Channel 5"
                    },
                    "sub_92": {
                        "id": 92,
                        "mode": "video",
                        "name": "Channel 10",
                        "sub_name": "",
                        "stream_video_url": "http://fash1043.cloudycdn.services/slive/_definst_/ftv_pg16_adaptive.smil/playlist.m3u8",
                        "thumbnail_url": ".pnggg",
                        "thumbnail_url_original": "https://www.iptv-updated.comhttps://i.imgur.com/auHH1Ig.png",
                        "name_original": "Channel 6"
                    },
                    "sub_93": {
                        "id": 93,
                        "mode": "video",
                        "name": "Channel 11",
                        "sub_name": "",
                        "stream_video_url": "https://fash1043.cloudycdn.services/slive/_definst_/ftv_pg16_adaptive.smil/playlist.m3u8",
                        "thumbnail_url": ".pnggg",
                        "thumbnail_url_original": "https://www.iptv-updated.comhttps://i.imgur.com/auHH1Ig.png",
                        "name_original": "Channel 7"
                    },
                    "sub_94": {
                        "id": 94,
                        "mode": "video",
                        "name": "Channel 14",
                        "sub_name": "",
                        "stream_video_url": "https://fashiontv-fashiontv-1-eu.rakuten.wurl.com/manifest/playlist.m3u8",
                        "thumbnail_url": ".pnggg",
                        "thumbnail_url_original": "https://www.iptv-updated.comhttps://i.imgur.com/auHH1Ig.png",
                        "name_original": "Channel 8"
                    },
                    "sub_95": {
                        "id": 95,
                        "mode": "video",
                        "name": "Channel 17",
                        "sub_name": "",
                        "stream_video_url": "https://fashiontv-fashiontv-1-gb.samsung.wurl.com/manifest/playlist.m3u8",
                        "thumbnail_url": ".pnggg",
                        "thumbnail_url_original": "https://www.iptv-updated.comhttps://i.imgur.com/auHH1Ig.png",
                        "name_original": "Channel 9"
                    },
                    "sub_96": {
                        "id": 96,
                        "mode": "video",
                        "name": "Channel 19",
                        "sub_name": "",
                        "stream_video_url": "https://fashiontv-fashiontv-3-it.samsung.wurl.com/manifest/playlist.m3u8",
                        "thumbnail_url": ".pnggg",
                        "thumbnail_url_original": "https://www.iptv-updated.comhttps://i.imgur.com/auHH1Ig.png",
                        "name_original": "Channel 10"
                    },
                    "sub_97": {
                        "id": 97,
                        "mode": "video",
                        "name": "Channel 22",
                        "sub_name": "",
                        "stream_video_url": "https://vidcdn.vidgyor.com/kat-origin/liveabr/playlist.m3u8",
                        "thumbnail_url": ".pnggg",
                        "thumbnail_url_original": "https://www.iptv-updated.com",
                        "name_original": "Channel 11"
                    },
                    "sub_98": {
                        "id": 98,
                        "mode": "video",
                        "name": "Channel 23",
                        "sub_name": "",
                        "stream_video_url": "http://103.199.161.254/Content/asianetnews/Live/Channel(Asianetnews)/index.m3u8",
                        "thumbnail_url": ".pnggg",
                        "thumbnail_url_original": "https://www.iptv-updated.comhttps://www.iptv-updated.com/wp-content/themes/shootingstar-child/uploaded_images/asianet_news_img_2313.png",
                        "name_original": "Channel 12"
                    },
                    "sub_99": {
                        "id": 99,
                        "mode": "video",
                        "name": "Channel 26",
                        "sub_name": "",
                        "stream_video_url": "https://vidcdn.vidgyor.com/asianet-origin/liveabr/playlist.m3u8",
                        "thumbnail_url": ".pnggg",
                        "thumbnail_url_original": "https://www.iptv-updated.comhttps://www.iptv-updated.com/wp-content/themes/shootingstar-child/uploaded_images/asianet_news_img_2313.png",
                        "name_original": "Channel 13"
                    },
                    "sub_100": {
                        "id": 100,
                        "mode": "video",
                        "name": "Channel 28",
                        "sub_name": "",
                        "stream_video_url": "https://vidcdn.vidgyor.com/suvarna-origin/liveabr/playlist.m3u8",
                        "thumbnail_url": ".pnggg",
                        "thumbnail_url_original": "https://www.iptv-updated.comhttps://static.asianetnews.com/v1/images/asianet_suvarna_news.png",
                        "name_original": "Channel 14"
                    },
                    "sub_101": {
                        "id": 101,
                        "mode": "video",
                        "name": "Channel 34",
                        "sub_name": "",
                        "stream_video_url": "http://ashrafichannel.livebox.co.in/ashrafivhannelhls/live.m3u8",
                        "thumbnail_url": ".pnggg",
                        "thumbnail_url_original": "https://www.iptv-updated.com",
                        "name_original": "Channel 15"
                    },
                    "sub_102": {
                        "id": 102,
                        "mode": "video",
                        "name": "Channel 38",
                        "sub_name": "",
                        "stream_video_url": "https://f3.vstream.online:7443/bstb/ngrp:anjan_hdall/playlist.m3u8",
                        "thumbnail_url": ".pnggg",
                        "thumbnail_url_original": "https://www.iptv-updated.com",
                        "name_original": "Channel 16"
                    },
                    "sub_103": {
                        "id": 103,
                        "mode": "video",
                        "name": "Channel 40",
                        "sub_name": "",
                        "stream_video_url": "https://6n3yogbnd9ok-hls-live.5centscdn.com/threetamil/d0dbe915091d400bd8ee7f27f0791303.sdp/index.m3u8",
                        "thumbnail_url": ".pnggg",
                        "thumbnail_url_original": "https://www.iptv-updated.comhttps://i.imgur.com/WfAU7pB.png",
                        "name_original": "Channel 17"
                    },
                    "sub_104": {
                        "id": 104,
                        "mode": "video",
                        "name": "Channel 41",
                        "sub_name": "",
                        "stream_video_url": "http://live.wmncdn.net/desichannel/7e2dd0aed46b70a5c77f4affdb702e4b.sdp/mono.m3u8",
                        "thumbnail_url": ".pnggg",
                        "thumbnail_url_original": "https://www.iptv-updated.comhttps://www.iptv-updated.com/wp-content/themes/shootingstar-child/uploaded_images/desi_channel_img_2339.png",
                        "name_original": "Channel 18"
                    },
                    "sub_105": {
                        "id": 105,
                        "mode": "video",
                        "name": "Channel 43",
                        "sub_name": "",
                        "stream_video_url": "https://live.wmncdn.net/desichannel/7e2dd0aed46b70a5c77f4affdb702e4b.sdp/mono.m3u8",
                        "thumbnail_url": ".pnggg",
                        "thumbnail_url_original": "https://www.iptv-updated.comhttps://www.iptv-updated.com/wp-content/themes/shootingstar-child/uploaded_images/desi_channel_img_2339.png",
                        "name_original": "Channel 19"
                    },
                    "sub_106": {
                        "id": 106,
                        "mode": "video",
                        "name": "Channel 44",
                        "sub_name": "",
                        "stream_video_url": "https://live.wmncdn.net/desichannel/7e2dd0aed46b70a5c77f4affdb702e4b.sdp/playlist.m3u8",
                        "thumbnail_url": ".pnggg",
                        "thumbnail_url_original": "https://www.iptv-updated.comhttps://www.iptv-updated.com/wp-content/themes/shootingstar-child/uploaded_images/desi_channel_img_2339.png",
                        "name_original": "Channel 20"
                    },
                    "sub_107": {
                        "id": 107,
                        "mode": "video",
                        "name": "Channel 52",
                        "sub_name": "",
                        "stream_video_url": "http://akalmultimedia.net:1935/gdnslive/gdns-live/chunklist.m3u8",
                        "thumbnail_url": ".pnggg",
                        "thumbnail_url_original": "https://www.iptv-updated.com",
                        "name_original": "Channel 21"
                    },
                    "sub_108": {
                        "id": 108,
                        "mode": "video",
                        "name": "Channel 58",
                        "sub_name": "",
                        "stream_video_url": "https://vidcdn.vidgyor.com/janamtv-origin/liveabr/playlist.m3u8",
                        "thumbnail_url": ".pnggg",
                        "thumbnail_url_original": "https://www.iptv-updated.comhttps://www.iptv-updated.com/wp-content/themes/shootingstar-child/uploaded_images/default_img.png",
                        "name_original": "Channel 22"
                    },
                    "sub_109": {
                        "id": 109,
                        "mode": "video",
                        "name": "Channel 68",
                        "sub_name": "",
                        "stream_video_url": "https://d2q8p4pe5spbak.cloudfront.net/bpk-tv/9XM/9XM.isml/index.m3u8",
                        "thumbnail_url": ".pnggg",
                        "thumbnail_url_original": "https://www.iptv-updated.comhttps://i.imgur.com/fD7wLka.jpg",
                        "name_original": "Channel 23"
                    },
                    "sub_110": {
                        "id": 110,
                        "mode": "video",
                        "name": "Channel 74",
                        "sub_name": "",
                        "stream_video_url": "https://ndtvindiaelemarchana.akamaized.net//hls//live//2003679//ndtvindia//ndtvindiamaster.m3u8",
                        "thumbnail_url": ".pnggg",
                        "thumbnail_url_original": "https://www.iptv-updated.com",
                        "name_original": "Channel 24"
                    },
                    "sub_111": {
                        "id": 111,
                        "mode": "video",
                        "name": "Channel 76",
                        "sub_name": "",
                        "stream_video_url": "https://ndtv24x7elemarchana.akamaized.net/hls/live/2003678/ndtv24x7/ndtv24x7master.m3u8",
                        "thumbnail_url": ".pnggg",
                        "thumbnail_url_original": "https://www.iptv-updated.comhttps://www.iptv-updated.com/wp-content/themes/shootingstar-child/uploaded_images/default_img.png",
                        "name_original": "Channel 25"
                    },
                    "sub_112": {
                        "id": 112,
                        "mode": "video",
                        "name": "Channel 77",
                        "sub_name": "",
                        "stream_video_url": "https://ndtv24x7elemarchana.akamaized.net/hls/live/2003678/ndtv24x7/master.m3u8",
                        "thumbnail_url": ".pnggg",
                        "thumbnail_url_original": "https://www.iptv-updated.comhttps://www.iptv-updated.com/wp-content/themes/shootingstar-child/uploaded_images/default_img.png",
                        "name_original": "Channel 26"
                    },
                    "sub_113": {
                        "id": 113,
                        "mode": "video",
                        "name": "Channel 79",
                        "sub_name": "",
                        "stream_video_url": "https://ndtvindiaelemarchana.akamaized.net/hls/live/2003679/ndtvindia/ndtvindiamaster.m3u8",
                        "thumbnail_url": ".pnggg",
                        "thumbnail_url_original": "https://www.iptv-updated.comhttps://i.imgur.com/80vwZaO.png",
                        "name_original": "Channel 27"
                    },
                    "sub_114": {
                        "id": 114,
                        "mode": "video",
                        "name": "Channel 80",
                        "sub_name": "",
                        "stream_video_url": "https://ndtvindiaelemarchana.akamaized.net/hls/live/2003679/ndtvindia/master.m3u8",
                        "thumbnail_url": ".pnggg",
                        "thumbnail_url_original": "https://www.iptv-updated.comhttps://i.imgur.com/80vwZaO.png",
                        "name_original": "Channel 28"
                    },
                    "sub_115": {
                        "id": 115,
                        "mode": "video",
                        "name": "Channel 82",
                        "sub_name": "",
                        "stream_video_url": "https://ndtvprofitelemarchana.akamaized.net/hls/live/2003680/ndtvprofit/ndtvprofitmaster.m3u8",
                        "thumbnail_url": ".pnggg",
                        "thumbnail_url_original": "https://www.iptv-updated.comhttps://i.imgur.com/pQ7nl12.png",
                        "name_original": "Channel 29"
                    },
                    "sub_116": {
                        "id": 116,
                        "mode": "video",
                        "name": "Channel 83",
                        "sub_name": "",
                        "stream_video_url": "https://ndtvprofitelemarchana.akamaized.net/hls/live/2003680-b/ndtvprofit/master.m3u8",
                        "thumbnail_url": ".pnggg",
                        "thumbnail_url_original": "https://www.iptv-updated.comhttps://i.imgur.com/pQ7nl12.png",
                        "name_original": "Channel 30"
                    },
                    "sub_117": {
                        "id": 117,
                        "mode": "video",
                        "name": "Channel 85",
                        "sub_name": "",
                        "stream_video_url": "https://ndtvprofitelemarchana.akamaized.net/hls/live/2003680/ndtvprofit/master.m3u8",
                        "thumbnail_url": ".pnggg",
                        "thumbnail_url_original": "https://www.iptv-updated.comhttps://i.imgur.com/pQ7nl12.png",
                        "name_original": "Channel 31"
                    },
                    "sub_118": {
                        "id": 118,
                        "mode": "video",
                        "name": "Channel 98",
                        "sub_name": "",
                        "stream_video_url": "https://bk7l298nyx53-hls-live.5centscdn.com/realnews/e7dee419f91aa9e65939d3677fb9c4f5.sdp/playlist.m3u8",
                        "thumbnail_url": ".pnggg",
                        "thumbnail_url_original": "https://www.iptv-updated.comhttps://i.imgur.com/EmBpOWM.png",
                        "name_original": "Channel 32"
                    },
                    "sub_119": {
                        "id": 119,
                        "mode": "video",
                        "name": "Channel 100",
                        "sub_name": "",
                        "stream_video_url": "http://cdn12.henico.net:8080/live/sadatv/index.m3u8",
                        "thumbnail_url": ".pnggg",
                        "thumbnail_url_original": "https://www.iptv-updated.com",
                        "name_original": "Channel 33"
                    },
                    "sub_120": {
                        "id": 120,
                        "mode": "video",
                        "name": "Channel 103",
                        "sub_name": "",
                        "stream_video_url": "http://158.69.124.9:1935/sardaritv/sardaritv/playlist.m3u8",
                        "thumbnail_url": ".pnggg",
                        "thumbnail_url_original": "https://www.iptv-updated.comhttps://www.iptv-updated.com/wp-content/themes/shootingstar-child/uploaded_images/sardari_tv_img_2433.png",
                        "name_original": "Channel 34"
                    },
                    "sub_121": {
                        "id": 121,
                        "mode": "video",
                        "name": "Channel 104",
                        "sub_name": "",
                        "stream_video_url": "http://6284rn2xr7xv-hls-live.wmncdn.net/shubhsandeshtv1/live123.stream/index.m3u8",
                        "thumbnail_url": ".pnggg",
                        "thumbnail_url_original": "https://www.iptv-updated.comhttps://www.iptv-updated.com/wp-content/themes/shootingstar-child/uploaded_images/shubhsandesh_img_2435.png",
                        "name_original": "Channel 35"
                    },
                    "sub_122": {
                        "id": 122,
                        "mode": "video",
                        "name": "Channel 106",
                        "sub_name": "",
                        "stream_video_url": "https://6284rn2xr7xv-hls-live.wmncdn.net/shubhsandeshtv1/live123.stream/index.m3u8",
                        "thumbnail_url": ".pnggg",
                        "thumbnail_url_original": "https://www.iptv-updated.comhttps://www.iptv-updated.com/wp-content/themes/shootingstar-child/uploaded_images/shubhsandesh_img_2435.png",
                        "name_original": "Channel 36"
                    },
                    "sub_123": {
                        "id": 123,
                        "mode": "video",
                        "name": "Channel 107",
                        "sub_name": "",
                        "stream_video_url": "http://c0.cdn.trinity-tv.net/stream/nh9u54a7sfnc2hwzxr2zwykwkqm43bgyyzsm68ybbbnjei8kytwcgs3zm5gnw5c6efa5gr3fadzqe686w8gj2eaehrj89wvujvqza3kez78dtknwbbmnqf79yygmqqg7e9pnc3i3bpywjkiqrwke94yf.m3u8",
                        "thumbnail_url": ".pnggg",
                        "thumbnail_url_original": "https://www.iptv-updated.com",
                        "name_original": "Channel 37"
                    },
                    "sub_124": {
                        "id": 124,
                        "mode": "video",
                        "name": "Channel 109",
                        "sub_name": "",
                        "stream_video_url": "http://wms.shared.streamshow.it/supertv/mp4:supertv/playlist.m3u8",
                        "thumbnail_url": ".pnggg",
                        "thumbnail_url_original": "https://www.iptv-updated.comhttps://www.iptv-updated.com/wp-content/themes/shootingstar-child/uploaded_images/super_tv_img_2442.png",
                        "name_original": "Channel 38"
                    },
                    "sub_125": {
                        "id": 125,
                        "mode": "video",
                        "name": "Channel 112",
                        "sub_name": "",
                        "stream_video_url": "http://live.wmncdn.net/highnews/swaraj.stream/index.m3u8",
                        "thumbnail_url": ".pnggg",
                        "thumbnail_url_original": "https://www.iptv-updated.com",
                        "name_original": "Channel 39"
                    },
                    "sub_126": {
                        "id": 126,
                        "mode": "video",
                        "name": "Channel 113",
                        "sub_name": "",
                        "stream_video_url": "https://live.wmncdn.net/highnews/swaraj.stream/index.m3u8",
                        "thumbnail_url": ".pnggg",
                        "thumbnail_url_original": "https://www.iptv-updated.com",
                        "name_original": "Channel 40"
                    },
                    "sub_127": {
                        "id": 127,
                        "mode": "video",
                        "name": "Channel 115",
                        "sub_name": "",
                        "stream_video_url": "http://live.tamilvision.tv:8081/TVI/SD/chunks.m3u8",
                        "thumbnail_url": ".pnggg",
                        "thumbnail_url_original": "https://www.iptv-updated.comhttps://www.iptv-updated.com/wp-content/themes/shootingstar-child/uploaded_images/tamil_vision_international_img_2447.png",
                        "name_original": "Channel 41"
                    },
                    "sub_128": {
                        "id": 128,
                        "mode": "video",
                        "name": "Channel 116",
                        "sub_name": "",
                        "stream_video_url": "http://live.tamilvision.tv:8081/TVI/SD/playlist.m3u8",
                        "thumbnail_url": ".pnggg",
                        "thumbnail_url_original": "https://www.iptv-updated.comhttps://www.iptv-updated.com/wp-content/themes/shootingstar-child/uploaded_images/tamil_vision_international_img_2447.png",
                        "name_original": "Channel 42"
                    },
                    "sub_129": {
                        "id": 129,
                        "mode": "video",
                        "name": "Channel 118",
                        "sub_name": "",
                        "stream_video_url": "http://live.tamilvision.tv:8081/TVI/HD/playlist.m3u8",
                        "thumbnail_url": ".pnggg",
                        "thumbnail_url_original": "https://www.iptv-updated.comhttps://www.iptv-updated.com/wp-content/themes/shootingstar-child/uploaded_images/tamil_vision_international_img_2447.png",
                        "name_original": "Channel 43"
                    }
                }
            }
        }
    }
}