{
    "TV_Data": {
        "Channel_List": {
            "is_channel_list": true,
            "is_override": true,
            "thumb_width": 150,
            "all_Channels_Tab_Name": "",
            "main": {
                "id": 1,
                "name": "Turkey Channels",
                "sub_name": "Channels",
                "thumbnail_url": "https://flagpedia.net/data/flags/h80/tr.png",
                "sub": {
                    "sub_1": {
                        "id": 1,
                        "mode": "video",
                        "name_original": "Channel 1",
                        "name": "Akit TV",
                        "sub_name": "",
                        "stream_video_url": "https://akittv-live.ercdn.net/akittv/akittv.m3u8",
                        "thumbnail_url": "https://i.ibb.co/zG7NM55/Jagn7PG.png",
                        "thumbnail_url_original": "https://raw.githubusercontent.com/tvgram-inc/tvgram-inc.github.io/master/images/logo.png"
                    },
                    "sub_2": {
                        "id": 2,
                        "mode": "video",
                        "name_original": "Channel 2",
                        "name": "Al Hayat TV",
                        "sub_name": "",
                        "stream_video_url": "http://media.islamexplained.com:1935/live/_definst_mp4:ahme.stream/playlist.m3u8",
                        "thumbnail_url": "https://www.alhayat.tv/images/logo/main.34f5c635.png",
                        "thumbnail_url_original": "https://raw.githubusercontent.com/tvgram-inc/tvgram-inc.github.io/master/images/logo.png"
                    },
                    "sub_3": {
                        "id": 3,
                        "mode": "video",
                        "name_original": "Channel 3",
                        "name": "Al Jazeera Documentary",
                        "sub_name": "",
                        "stream_video_url": "https://live-hls-web-ajd.getaj.net/AJD/index.m3u8",
                        "thumbnail_url": "https://upload.wikimedia.org/wikipedia/en/e/e6/Al_Jazeera_Doc.png",
                        "thumbnail_url_original": "https://raw.githubusercontent.com/tvgram-inc/tvgram-inc.github.io/master/images/logo.png"
                    },
                    "sub_4": {
                        "id": 4,
                        "mode": "video",
                        "name_original": "Channel 4",
                        "name": "Al-Zahra TV Turkic",
                        "sub_name": "",
                        "stream_video_url": "https://live.al-zahratv.com/live/playlist.m3u8",
                        "thumbnail_url": "https://i.ibb.co/1LGHMzQ/lwkowCS.png",
                        "thumbnail_url_original": "https://raw.githubusercontent.com/tvgram-inc/tvgram-inc.github.io/master/images/logo.png"
                    },
                    "sub_5": {
                        "id": 5,
                        "mode": "video",
                        "name_original": "Channel 5",
                        "name": "Alanya Posta TV",
                        "sub_name": "",
                        "stream_video_url": "http://win4.yayin.com.tr/postatv/postatv/playlist.m3u8",
                        "thumbnail_url": "https://i.imgur.com/IgcCGcL.jpeg",
                        "thumbnail_url_original": "https://raw.githubusercontent.com/tvgram-inc/tvgram-inc.github.io/master/images/logo.png"
                    },
                    "sub_6": {
                        "id": 6,
                        "mode": "video",
                        "name_original": "Channel 6",
                        "name": "ALTAS TV",
                        "sub_name": "",
                        "stream_video_url": "http://stream.taksimbilisim.com:1935/altastv/bant1/playlist.m3u8",
                        "thumbnail_url": "https://www.lyngsat.com/logo/tv/aa/altas-tv-tr.png",
                        "thumbnail_url_original": "https://raw.githubusercontent.com/tvgram-inc/tvgram-inc.github.io/master/images/logo.png"
                    },
                    "sub_7": {
                        "id": 7,
                        "mode": "video",
                        "name_original": "Channel 7",
                        "name": "ATV Alanya",
                        "sub_name": "",
                        "stream_video_url": "http://stream2.taksimbilisim.com:1935/alanyatv/alanyatv.smil/playlist.m3u8",
                        "thumbnail_url": "https://i.imgur.com/Jo6DJUe.png",
                        "thumbnail_url_original": "https://raw.githubusercontent.com/tvgram-inc/tvgram-inc.github.io/master/images/logo.png"
                    },
                    "sub_8": {
                        "id": 8,
                        "mode": "video",
                        "name_original": "Channel 8",
                        "name": "Bahrain International",
                        "sub_name": "",
                        "stream_video_url": "https://5c7b683162943.streamlock.net/live/ngrp:bahraininternational_all/playlist.m3u8",
                        "thumbnail_url": "https://www.lyngsat.com/logo/tv/bb/bahrain_tv_international.png",
                        "thumbnail_url_original": "https://raw.githubusercontent.com/tvgram-inc/tvgram-inc.github.io/master/images/logo.png"
                    },
                    "sub_9": {
                        "id": 9,
                        "mode": "video",
                        "name_original": "Channel 9",
                        "name": "Berat TV",
                        "sub_name": "",
                        "stream_video_url": "http://cdn-berattv.yayin.com.tr/berattv/berattv/playlist.m3u8",
                        "thumbnail_url": "https://www.lyngsat.com/logo/tv/bb/berat-tv-tr.png",
                        "thumbnail_url_original": "https://raw.githubusercontent.com/tvgram-inc/tvgram-inc.github.io/master/images/logo.png"
                    },
                    "sub_10": {
                        "id": 10,
                        "mode": "video",
                        "name_original": "Channel 10",
                        "name": "BeritaSatu World",
                        "sub_name": "",
                        "stream_video_url": "https://b1world.beritasatumedia.com/Beritasatu/B1World_manifest.m3u8",
                        "thumbnail_url": "https://upload.wikimedia.org/wikipedia/commons/thumb/f/f1/BeritaSatuWorld.png/512px-BeritaSatuWorld.png",
                        "thumbnail_url_original": "https://raw.githubusercontent.com/tvgram-inc/tvgram-inc.github.io/master/images/logo.png"
                    },
                    "sub_11": {
                        "id": 11,
                        "mode": "video",
                        "name_original": "Channel 11",
                        "name": "Be\u015fikta\u015f Web TV",
                        "sub_name": "",
                        "stream_video_url": "https://s01.vpis.io/besiktas/besiktas.m3u8",
                        "thumbnail_url": "https://i.ibb.co/bRhnM6W/qti5aea.png",
                        "thumbnail_url_original": "https://raw.githubusercontent.com/tvgram-inc/tvgram-inc.github.io/master/images/logo.png"
                    },
                    "sub_12": {
                        "id": 12,
                        "mode": "video",
                        "name_original": "Channel 12",
                        "name": "Bloomberg TV EMEA Live Event",
                        "sub_name": "",
                        "stream_video_url": "https://bloomberg.com/media-manifest/streams/eu-event.m3u8",
                        "thumbnail_url": "https://upload.wikimedia.org/wikipedia/commons/3/3b/Bloomberg_Television_2016.png",
                        "thumbnail_url_original": "https://raw.githubusercontent.com/tvgram-inc/tvgram-inc.github.io/master/images/logo.png"
                    },
                    "sub_13": {
                        "id": 13,
                        "mode": "video",
                        "name_original": "Channel 13",
                        "name": "Bloomberg TV Europe",
                        "sub_name": "",
                        "stream_video_url": "https://bloomberg.com/media-manifest/streams/eu.m3u8",
                        "thumbnail_url": "https://upload.wikimedia.org/wikipedia/commons/3/3b/Bloomberg_Television_2016.png",
                        "thumbnail_url_original": "https://raw.githubusercontent.com/tvgram-inc/tvgram-inc.github.io/master/images/logo.png"
                    },
                    "sub_14": {
                        "id": 14,
                        "mode": "video",
                        "name_original": "Channel 14",
                        "name": "Can TV",
                        "sub_name": "",
                        "stream_video_url": "http://canbroadcast.com:7000/canlican/tv.m3u8",
                        "thumbnail_url": "https://i.ibb.co/qdBr2fH/kgwc6oT.jpg",
                        "thumbnail_url_original": "https://raw.githubusercontent.com/tvgram-inc/tvgram-inc.github.io/master/images/logo.png"
                    },
                    "sub_15": {
                        "id": 15,
                        "mode": "video",
                        "name_original": "Channel 15",
                        "name": "Cartoon Network Arabia",
                        "sub_name": "",
                        "stream_video_url": "https://shls-cartoon-net-prod-dub.shahid.net/out/v1/dc4aa87372374325a66be458f29eab0f/index.m3u8",
                        "thumbnail_url": "https://upload.wikimedia.org/wikipedia/commons/thumb/b/bb/Cartoon_Network_Arabic_logo.png/512px-Cartoon_Network_Arabic_logo.png",
                        "thumbnail_url_original": "https://raw.githubusercontent.com/tvgram-inc/tvgram-inc.github.io/master/images/logo.png"
                    },
                    "sub_16": {
                        "id": 16,
                        "mode": "video",
                        "name_original": "Channel 16",
                        "name": "Cay TV",
                        "sub_name": "",
                        "stream_video_url": "http://stream2.taksimbilisim.com:1935/caytv/bant1/CAYTV.m3u8",
                        "thumbnail_url": "https://i.ibb.co/80d40Qb/e2K5ixJ.png",
                        "thumbnail_url_original": "https://raw.githubusercontent.com/tvgram-inc/tvgram-inc.github.io/master/images/logo.png"
                    },
                    "sub_17": {
                        "id": 17,
                        "mode": "video",
                        "name_original": "Channel 17",
                        "name": "Cekmek\u00f6y TV",
                        "sub_name": "",
                        "stream_video_url": "https://cdn-cekmekoybeltv.yayin.com.tr/cekmekoybeltv/cekmekoybeltv_1080p/playlist.m3u8",
                        "thumbnail_url": "https://i.imgur.com/sjAGFWu.png",
                        "thumbnail_url_original": "https://raw.githubusercontent.com/tvgram-inc/tvgram-inc.github.io/master/images/logo.png"
                    },
                    "sub_18": {
                        "id": 18,
                        "mode": "video",
                        "name_original": "Channel 18",
                        "name": "CGTN",
                        "sub_name": "",
                        "stream_video_url": "https://news.cgtn.com/resource/live/english/cgtn-news.m3u8",
                        "thumbnail_url": "https://upload.wikimedia.org/wikipedia/commons/thumb/8/81/CGTN.svg/512px-CGTN.svg.png",
                        "thumbnail_url_original": "https://raw.githubusercontent.com/tvgram-inc/tvgram-inc.github.io/master/images/logo.png"
                    },
                    "sub_19": {
                        "id": 19,
                        "mode": "video",
                        "name_original": "Channel 19",
                        "name": "\u00c7ift\u00e7i TV",
                        "sub_name": "",
                        "stream_video_url": "http://stream.taksimbilisim.com:1935/ciftcitv/smil:ciftcitv.smil/playlist.m3u8",
                        "thumbnail_url": "https://izmottvsc23.tvplus.com.tr:33207/CPS/images/universal/film/logo/202003/20200302/20200302114910325fpj_op.png",
                        "thumbnail_url_original": "https://raw.githubusercontent.com/tvgram-inc/tvgram-inc.github.io/master/images/logo.png"
                    },
                    "sub_20": {
                        "id": 20,
                        "mode": "video",
                        "name_original": "Channel 20",
                        "name": "Classic Arts Showcase",
                        "sub_name": "",
                        "stream_video_url": "https://classicarts.akamaized.net/hls/live/1024257/CAS/master.m3u8",
                        "thumbnail_url": "https://i.imgur.com/M6FFkc3.png",
                        "thumbnail_url_original": "https://raw.githubusercontent.com/tvgram-inc/tvgram-inc.github.io/master/images/logo.png"
                    },
                    "sub_21": {
                        "id": 21,
                        "mode": "video",
                        "name_original": "Channel 21",
                        "name": "CNA International",
                        "sub_name": "",
                        "stream_video_url": "https://d2e1asnsl7br7b.cloudfront.net/7782e205e72f43aeb4a48ec97f66ebbe/index.m3u8",
                        "thumbnail_url": "https://upload.wikimedia.org/wikipedia/commons/thumb/8/83/CNA_new_logo.svg/512px-CNA_new_logo.svg.png",
                        "thumbnail_url_original": "https://raw.githubusercontent.com/tvgram-inc/tvgram-inc.github.io/master/images/logo.png"
                    },
                    "sub_22": {
                        "id": 22,
                        "mode": "video",
                        "name_original": "Channel 22",
                        "name": "CNN Turk",
                        "sub_name": "",
                        "stream_video_url": "https://live.duhnet.tv/S2/HLS_LIVE/cnnturknp/playlist.m3u8",
                        "thumbnail_url": "https://upload.wikimedia.org/wikipedia/commons/thumb/5/59/CNN_T%C3%BCrk_logo.svg/512px-CNN_T%C3%BCrk_logo.svg.png",
                        "thumbnail_url_original": "https://raw.githubusercontent.com/tvgram-inc/tvgram-inc.github.io/master/images/logo.png"
                    },
                    "sub_23": {
                        "id": 23,
                        "mode": "video",
                        "name_original": "Channel 23",
                        "name": "Daawah TV",
                        "sub_name": "",
                        "stream_video_url": "http://51.15.246.58:8081/daawahtv/daawahtv2/playlist.m3u8",
                        "thumbnail_url": null,
                        "thumbnail_url_original": "https://raw.githubusercontent.com/tvgram-inc/tvgram-inc.github.io/master/images/logo.png"
                    },
                    "sub_24": {
                        "id": 24,
                        "mode": "video",
                        "name_original": "Channel 24",
                        "name": "DHA",
                        "sub_name": "",
                        "stream_video_url": "https://603c568fccdf5.streamlock.net/live/dhaweb1_C5efC/playlist.m3u8",
                        "thumbnail_url": "https://i.imgur.com/E2c0Ri9.png",
                        "thumbnail_url_original": "https://raw.githubusercontent.com/tvgram-inc/tvgram-inc.github.io/master/images/logo.png"
                    },
                    "sub_25": {
                        "id": 25,
                        "mode": "video",
                        "name_original": "Channel 25",
                        "name": "Diyanet TV",
                        "sub_name": "",
                        "stream_video_url": "https://eustr73.mediatriple.net/videoonlylive/mtikoimxnztxlive/broadcast_5e3bf95a47e07.smil/playlist.m3u8",
                        "thumbnail_url": "https://upload.wikimedia.org/wikipedia/commons/thumb/4/43/Diyanet_TV_logo.svg/512px-Diyanet_TV_logo.svg.png",
                        "thumbnail_url_original": "https://raw.githubusercontent.com/tvgram-inc/tvgram-inc.github.io/master/images/logo.png"
                    },
                    "sub_26": {
                        "id": 26,
                        "mode": "video",
                        "name_original": "Channel 26",
                        "name": "DW English",
                        "sub_name": "",
                        "stream_video_url": "https://dwamdstream102.akamaized.net/hls/live/2015525/dwstream102/index.m3u8",
                        "thumbnail_url": "https://i.imgur.com/A1xzjOI.png",
                        "thumbnail_url_original": "https://raw.githubusercontent.com/tvgram-inc/tvgram-inc.github.io/master/images/logo.png"
                    },
                    "sub_27": {
                        "id": 27,
                        "mode": "video",
                        "name_original": "Channel 27",
                        "name": "EbS Live",
                        "sub_name": "",
                        "stream_video_url": "https://euc-live.fl.freecaster.net/live/eucom/ebs.m3u8",
                        "thumbnail_url": "https://raw.githubusercontent.com/jnk22/kodinerds-iptv/master/logos/tv/ebs.png",
                        "thumbnail_url_original": "https://raw.githubusercontent.com/tvgram-inc/tvgram-inc.github.io/master/images/logo.png"
                    },
                    "sub_28": {
                        "id": 28,
                        "mode": "video",
                        "name_original": "Channel 28",
                        "name": "EbS+ Live",
                        "sub_name": "",
                        "stream_video_url": "https://euc-live.fl.freecaster.net/live/eucom/ebsp.m3u8",
                        "thumbnail_url": "https://raw.githubusercontent.com/jnk22/kodinerds-iptv/master/logos/tv/ebs.png",
                        "thumbnail_url_original": "https://raw.githubusercontent.com/tvgram-inc/tvgram-inc.github.io/master/images/logo.png"
                    },
                    "sub_29": {
                        "id": 29,
                        "mode": "video",
                        "name_original": "Channel 29",
                        "name": "Em TV",
                        "sub_name": "",
                        "stream_video_url": "https://cdn.yayin.com.tr/TVEM/TVEM/playlist.m3u8",
                        "thumbnail_url": "https://i.imgur.com/pHlRi8m.jpg",
                        "thumbnail_url_original": "https://raw.githubusercontent.com/tvgram-inc/tvgram-inc.github.io/master/images/logo.png"
                    },
                    "sub_30": {
                        "id": 30,
                        "mode": "video",
                        "name_original": "Channel 30",
                        "name": "Ert Sah TV",
                        "sub_name": "",
                        "stream_video_url": "http://win20.yayin.com.tr/ertsahtv/ertsahtv/playlist.m3u8",
                        "thumbnail_url": "https://i.imgur.com/J2OSHdh.png",
                        "thumbnail_url_original": "https://raw.githubusercontent.com/tvgram-inc/tvgram-inc.github.io/master/images/logo.png"
                    },
                    "sub_31": {
                        "id": 31,
                        "mode": "video",
                        "name_original": "Channel 31",
                        "name": "ERT World",
                        "sub_name": "",
                        "stream_video_url": "http://wpso.com:1936/hls/wzra.m3u8",
                        "thumbnail_url": "https://upload.wikimedia.org/wikipedia/commons/thumb/b/bc/ChannelLogo-ERTWORLD1.png/512px-ChannelLogo-ERTWORLD1.png",
                        "thumbnail_url_original": "https://raw.githubusercontent.com/tvgram-inc/tvgram-inc.github.io/master/images/logo.png"
                    },
                    "sub_32": {
                        "id": 32,
                        "mode": "video",
                        "name_original": "Channel 32",
                        "name": "ETB Basque",
                        "sub_name": "",
                        "stream_video_url": "https://multimedia.eitb.eus/live-content/eitbbasque-hls/master.m3u8",
                        "thumbnail_url": "https://upload.wikimedia.org/wikipedia/commons/thumb/c/ca/ETB_Basque_2022_logo.svg/512px-ETB_Basque_2022_logo.svg.png",
                        "thumbnail_url_original": "https://raw.githubusercontent.com/tvgram-inc/tvgram-inc.github.io/master/images/logo.png"
                    },
                    "sub_33": {
                        "id": 33,
                        "mode": "video",
                        "name_original": "Channel 33",
                        "name": "Euro Indie Music Chart TV",
                        "sub_name": "",
                        "stream_video_url": "http://178.33.224.197:1935/euroindiemusic/euroindiemusic/playlist.m3u8",
                        "thumbnail_url": "https://i.imgur.com/UDFBYpN.png",
                        "thumbnail_url_original": "https://raw.githubusercontent.com/tvgram-inc/tvgram-inc.github.io/master/images/logo.png"
                    },
                    "sub_34": {
                        "id": 34,
                        "mode": "video",
                        "name_original": "Channel 34",
                        "name": "Fashion TV",
                        "sub_name": "",
                        "stream_video_url": "https://fashiontv-fashiontv-1-eu.rakuten.wurl.tv/playlist.m3u8",
                        "thumbnail_url": "https://upload.wikimedia.org/wikipedia/commons/thumb/7/7a/Fashion_TV_logo.svg/512px-Fashion_TV_logo.svg.png",
                        "thumbnail_url_original": "https://raw.githubusercontent.com/tvgram-inc/tvgram-inc.github.io/master/images/logo.png"
                    },
                    "sub_35": {
                        "id": 35,
                        "mode": "video",
                        "name_original": "Channel 35",
                        "name": "Galicia TV Europa",
                        "sub_name": "",
                        "stream_video_url": "http://europa-crtvg.flumotion.com/playlist.m3u8",
                        "thumbnail_url": "https://www.meo.pt/PublishingImages/canais/tv-galicia.png",
                        "thumbnail_url_original": "https://raw.githubusercontent.com/tvgram-inc/tvgram-inc.github.io/master/images/logo.png"
                    },
                    "sub_36": {
                        "id": 36,
                        "mode": "video",
                        "name_original": "Channel 36",
                        "name": "Haber61 TV",
                        "sub_name": "",
                        "stream_video_url": "https://cdn-haber61tv.yayin.com.tr/haber61tv/smil:haber61tv.smil/index.m3u8",
                        "thumbnail_url": "https://i.imgur.com/RhPIYKu.jpg",
                        "thumbnail_url_original": "https://raw.githubusercontent.com/tvgram-inc/tvgram-inc.github.io/master/images/logo.png"
                    },
                    "sub_37": {
                        "id": 37,
                        "mode": "video",
                        "name_original": "Channel 37",
                        "name": "IBB TV",
                        "sub_name": "",
                        "stream_video_url": "http://wowza.istweb.tv:1935/webtv/webtv_wowza1/playlist.m3u8",
                        "thumbnail_url": "https://i.imgur.com/aXxAz84.png",
                        "thumbnail_url_original": "https://raw.githubusercontent.com/tvgram-inc/tvgram-inc.github.io/master/images/logo.png"
                    },
                    "sub_38": {
                        "id": 38,
                        "mode": "video",
                        "name_original": "Channel 38",
                        "name": "Icel TV",
                        "sub_name": "",
                        "stream_video_url": "http://stream.taksimbilisim.com:1935/iceltv/bant1/playlist.m3u8",
                        "thumbnail_url": "https://i.imgur.com/CGwImKv.png",
                        "thumbnail_url_original": "https://raw.githubusercontent.com/tvgram-inc/tvgram-inc.github.io/master/images/logo.png"
                    },
                    "sub_39": {
                        "id": 39,
                        "mode": "video",
                        "name_original": "Channel 39",
                        "name": "Kanal 3",
                        "sub_name": "",
                        "stream_video_url": "http://stream.taksimbilisim.com:1935/kanal3/bant1/playlist.m3u8",
                        "thumbnail_url": "https://i.ibb.co/Jq49Y1g/uHAGsRk.png",
                        "thumbnail_url_original": "https://raw.githubusercontent.com/tvgram-inc/tvgram-inc.github.io/master/images/logo.png"
                    },
                    "sub_40": {
                        "id": 40,
                        "mode": "video",
                        "name_original": "Channel 40",
                        "name": "Kanal 7 Avrupa",
                        "sub_name": "",
                        "stream_video_url": "https://live.kanal7.com/live/kanal7AvrupaLive/index.m3u8",
                        "thumbnail_url": "https://i.imgur.com/oHq0PKQ.jpg",
                        "thumbnail_url_original": "https://raw.githubusercontent.com/tvgram-inc/tvgram-inc.github.io/master/images/logo.png"
                    },
                    "sub_41": {
                        "id": 41,
                        "mode": "video",
                        "name_original": "Channel 41",
                        "name": "Kanal 33",
                        "sub_name": "",
                        "stream_video_url": "http://stream.taksimbilisim.com:1935/kanal33/bant1/playlist.m3u8",
                        "thumbnail_url": "https://izmottvsc23.tvplus.com.tr:33207/CPS/images/universal/film/logo/202103/20210324/16/202103241155383682ej_op.png",
                        "thumbnail_url_original": "https://raw.githubusercontent.com/tvgram-inc/tvgram-inc.github.io/master/images/logo.png"
                    },
                    "sub_42": {
                        "id": 42,
                        "mode": "video",
                        "name_original": "Channel 42",
                        "name": "KBS World",
                        "sub_name": "",
                        "stream_video_url": "https://kbsworld-ott.akamaized.net/hls/live/2002341/kbsworld/master.m3u8",
                        "thumbnail_url": "https://upload.wikimedia.org/wikipedia/commons/thumb/1/1b/KBS_World_%282009%29.svg/512px-KBS_World_%282009%29.svg.png",
                        "thumbnail_url_original": "https://raw.githubusercontent.com/tvgram-inc/tvgram-inc.github.io/master/images/logo.png"
                    },
                    "sub_43": {
                        "id": 43,
                        "mode": "video",
                        "name_original": "Channel 43",
                        "name": "Laleg\u00fcl TV",
                        "sub_name": "",
                        "stream_video_url": "http://lalegultv.netmedya.net/hls/lalegultv.m3u8",
                        "thumbnail_url": "https://www.lyngsat.com/logo/tv/ll/lalegul-tv-tr.png",
                        "thumbnail_url_original": "https://raw.githubusercontent.com/tvgram-inc/tvgram-inc.github.io/master/images/logo.png"
                    },
                    "sub_44": {
                        "id": 44,
                        "mode": "video",
                        "name_original": "Channel 44",
                        "name": "MavTV Select",
                        "sub_name": "",
                        "stream_video_url": "https://mavtv-mavtvglobal-1-eu.rakuten.wurl.tv/playlist.m3u8",
                        "thumbnail_url": "https://i.imgur.com/KMGUuAX.png",
                        "thumbnail_url_original": "https://raw.githubusercontent.com/tvgram-inc/tvgram-inc.github.io/master/images/logo.png"
                    },
                    "sub_45": {
                        "id": 45,
                        "mode": "video",
                        "name_original": "Channel 45",
                        "name": "Metro Globe Network",
                        "sub_name": "",
                        "stream_video_url": "https://edge.medcom.id/live-edge/smil:mgnch.smil/playlist.m3u8",
                        "thumbnail_url": "https://i.imgur.com/NTCI3lf.png",
                        "thumbnail_url_original": "https://raw.githubusercontent.com/tvgram-inc/tvgram-inc.github.io/master/images/logo.png"
                    },
                    "sub_46": {
                        "id": 46,
                        "mode": "video",
                        "name_original": "Channel 46",
                        "name": "Myanmar International TV",
                        "sub_name": "",
                        "stream_video_url": "https://5a13fe32ef748.streamlock.net/mmplay/mitv/playlist.m3u8",
                        "thumbnail_url": "https://www.lyngsat.com/logo/tv/mm/myanmar-international-tv-mm.png",
                        "thumbnail_url_original": "https://raw.githubusercontent.com/tvgram-inc/tvgram-inc.github.io/master/images/logo.png"
                    },
                    "sub_47": {
                        "id": 47,
                        "mode": "video",
                        "name_original": "Channel 47",
                        "name": "NASA TV",
                        "sub_name": "",
                        "stream_video_url": "https://uplynkcontent.sinclairstoryline.com/channel/ddd76fdc1c0a456ba537e4f48e827d3e.m3u8",
                        "thumbnail_url": "https://upload.wikimedia.org/wikipedia/commons/thumb/b/b4/NASA_TV.svg/512px-NASA_TV.svg.png",
                        "thumbnail_url_original": "https://raw.githubusercontent.com/tvgram-inc/tvgram-inc.github.io/master/images/logo.png"
                    },
                    "sub_48": {
                        "id": 48,
                        "mode": "video",
                        "name_original": "Channel 48",
                        "name": "Og\u00fcn TV",
                        "sub_name": "",
                        "stream_video_url": "https://s01.vpis.io/ogun/ogun.m3u8",
                        "thumbnail_url": null,
                        "thumbnail_url_original": "https://raw.githubusercontent.com/tvgram-inc/tvgram-inc.github.io/master/images/logo.png"
                    },
                    "sub_49": {
                        "id": 49,
                        "mode": "video",
                        "name_original": "Channel 49",
                        "name": "PMC",
                        "sub_name": "",
                        "stream_video_url": "https://hls.pmchd.live/hls/stream.m3u8",
                        "thumbnail_url": "https://i.imgur.com/o8vx6FG.png",
                        "thumbnail_url_original": "https://raw.githubusercontent.com/tvgram-inc/tvgram-inc.github.io/master/images/logo.png"
                    },
                    "sub_50": {
                        "id": 50,
                        "mode": "video",
                        "name_original": "Channel 50",
                        "name": "Power Turk",
                        "sub_name": "",
                        "stream_video_url": "https://livetv.powerapp.com.tr/powerturkTV/powerturkhd.smil/playlist.m3u8",
                        "thumbnail_url": "https://i.imgur.com/9OPoXQG.png",
                        "thumbnail_url_original": "https://raw.githubusercontent.com/tvgram-inc/tvgram-inc.github.io/master/images/logo.png"
                    },
                    "sub_51": {
                        "id": 51,
                        "mode": "video",
                        "name_original": "Channel 51",
                        "name": "Red Bull TV",
                        "sub_name": "",
                        "stream_video_url": "https://rbmn-live.akamaized.net/hls/live/590964/BoRB-AT/master.m3u8",
                        "thumbnail_url": "https://i.imgur.com/7NeBmWX.jpg",
                        "thumbnail_url_original": "https://raw.githubusercontent.com/tvgram-inc/tvgram-inc.github.io/master/images/logo.png"
                    },
                    "sub_52": {
                        "id": 52,
                        "mode": "video",
                        "name_original": "Channel 52",
                        "name": "RT Documentary Russian",
                        "sub_name": "",
                        "stream_video_url": "http://uiptv.do.am/1ufc/300663722/playlist.m3u8",
                        "thumbnail_url": "https://i.imgur.com/rli3c7T.png",
                        "thumbnail_url_original": "https://raw.githubusercontent.com/tvgram-inc/tvgram-inc.github.io/master/images/logo.png"
                    },
                    "sub_53": {
                        "id": 53,
                        "mode": "video",
                        "name_original": "Channel 53",
                        "name": "RT en Espa\u00f1ol",
                        "sub_name": "",
                        "stream_video_url": "https://rt-esp.rttv.com/live/rtesp/playlist.m3u8",
                        "thumbnail_url": "https://i.imgur.com/Fbli6Ml.png",
                        "thumbnail_url_original": "https://raw.githubusercontent.com/tvgram-inc/tvgram-inc.github.io/master/images/logo.png"
                    },
                    "sub_54": {
                        "id": 54,
                        "mode": "video",
                        "name_original": "Channel 54",
                        "name": "Sar\u0131yer TV",
                        "sub_name": "",
                        "stream_video_url": "http://s01.vpis.io/sariyer/sariyer.m3u8",
                        "thumbnail_url": "https://i.imgur.com/ybfYUm2.png",
                        "thumbnail_url_original": "https://raw.githubusercontent.com/tvgram-inc/tvgram-inc.github.io/master/images/logo.png"
                    },
                    "sub_55": {
                        "id": 55,
                        "mode": "video",
                        "name_original": "Channel 55",
                        "name": "Sat7 T\u00fcrk",
                        "sub_name": "",
                        "stream_video_url": "https://svs.itworkscdn.net/sat7turklive/sat7turk.smil/playlist.m3u8",
                        "thumbnail_url": "https://i.imgur.com/cKQIK4i.png",
                        "thumbnail_url_original": "https://raw.githubusercontent.com/tvgram-inc/tvgram-inc.github.io/master/images/logo.png"
                    },
                    "sub_56": {
                        "id": 56,
                        "mode": "video",
                        "name_original": "Channel 56",
                        "name": "Satran\u00e7 TV",
                        "sub_name": "",
                        "stream_video_url": "http://139.162.182.79/live/test/index.m3u8",
                        "thumbnail_url": "https://i.imgur.com/TXDV1ty.png",
                        "thumbnail_url_original": "https://raw.githubusercontent.com/tvgram-inc/tvgram-inc.github.io/master/images/logo.png"
                    },
                    "sub_57": {
                        "id": 57,
                        "mode": "video",
                        "name_original": "Channel 57",
                        "name": "Sinop Yildiz TV",
                        "sub_name": "",
                        "stream_video_url": "https://s01.vpis.io/sinopyildiz/sinopyildiz.m3u8",
                        "thumbnail_url": "https://i.imgur.com/qk102lK.png",
                        "thumbnail_url_original": "https://raw.githubusercontent.com/tvgram-inc/tvgram-inc.github.io/master/images/logo.png"
                    },
                    "sub_58": {
                        "id": 58,
                        "mode": "video",
                        "name_original": "Channel 58",
                        "name": "Ski TV",
                        "sub_name": "",
                        "stream_video_url": "https://d2xeo83q8fcni6.cloudfront.net/v1/master/9d062541f2ff39b5c0f48b743c6411d25f62fc25/SkiTV-SynapseTV/193.m3u8",
                        "thumbnail_url": "https://i.imgur.com/idKogRi.png",
                        "thumbnail_url_original": "https://raw.githubusercontent.com/tvgram-inc/tvgram-inc.github.io/master/images/logo.png"
                    },
                    "sub_59": {
                        "id": 59,
                        "mode": "video",
                        "name_original": "Channel 59",
                        "name": "Sports TV",
                        "sub_name": "",
                        "stream_video_url": "https://live.sportstv.com.tr/hls/low/sportstv.m3u8",
                        "thumbnail_url": "https://i.imgur.com/tGTVcVe.jpg",
                        "thumbnail_url_original": "https://raw.githubusercontent.com/tvgram-inc/tvgram-inc.github.io/master/images/logo.png"
                    },
                    "sub_60": {
                        "id": 60,
                        "mode": "video",
                        "name_original": "Channel 60",
                        "name": "TGRT Haber",
                        "sub_name": "",
                        "stream_video_url": "https://b01c02nl.mediatriple.net/videoonlylive/mtsxxkzwwuqtglive/broadcast_5fe4598be8e5d.smil/playlist.m3u8",
                        "thumbnail_url": "https://upload.wikimedia.org/wikipedia/commons/thumb/e/e1/TGRT_Haber_logosu.png/512px-TGRT_Haber_logosu.png",
                        "thumbnail_url_original": "https://raw.githubusercontent.com/tvgram-inc/tvgram-inc.github.io/master/images/logo.png"
                    },
                    "sub_61": {
                        "id": 61,
                        "mode": "video",
                        "name_original": "Channel 61",
                        "name": "Three Angels Broadcasting Network International",
                        "sub_name": "",
                        "stream_video_url": "https://3abn-live.akamaized.net/hls/live/2010544/International/master.m3u8",
                        "thumbnail_url": "https://i.imgur.com/vhb8zvB.png",
                        "thumbnail_url_original": "https://raw.githubusercontent.com/tvgram-inc/tvgram-inc.github.io/master/images/logo.png"
                    },
                    "sub_62": {
                        "id": 62,
                        "mode": "video",
                        "name_original": "Channel 62",
                        "name": "TRT \u00c7ocuk",
                        "sub_name": "",
                        "stream_video_url": "https://tv-trtcocuk.live.trt.com.tr/master.m3u8",
                        "thumbnail_url": "https://upload.wikimedia.org/wikipedia/commons/thumb/1/1a/TRT_%C3%87ocuk_logo_%282021%29.svg/512px-TRT_%C3%87ocuk_logo_%282021%29.svg.png",
                        "thumbnail_url_original": "https://raw.githubusercontent.com/tvgram-inc/tvgram-inc.github.io/master/images/logo.png"
                    },
                    "sub_63": {
                        "id": 63,
                        "mode": "video",
                        "name_original": "Channel 63",
                        "name": "TRT World",
                        "sub_name": "",
                        "stream_video_url": "https://tv-trtworld.live.trt.com.tr/master.m3u8",
                        "thumbnail_url": "https://upload.wikimedia.org/wikipedia/commons/thumb/2/27/TRT_World.svg/512px-TRT_World.svg.png",
                        "thumbnail_url_original": "https://raw.githubusercontent.com/tvgram-inc/tvgram-inc.github.io/master/images/logo.png"
                    },
                    "sub_64": {
                        "id": 64,
                        "mode": "video",
                        "name_original": "Channel 64",
                        "name": "TV3CAT",
                        "sub_name": "",
                        "stream_video_url": "https://directes-tv-int.ccma.cat/live-origin/tvi-hls/master.m3u8",
                        "thumbnail_url": "https://upload.wikimedia.org/wikipedia/commons/thumb/9/97/TV3CAT.svg/512px-TV3CAT.svg.png",
                        "thumbnail_url_original": "https://raw.githubusercontent.com/tvgram-inc/tvgram-inc.github.io/master/images/logo.png"
                    },
                    "sub_65": {
                        "id": 65,
                        "mode": "video",
                        "name_original": "Channel 65",
                        "name": "TV4",
                        "sub_name": "",
                        "stream_video_url": "https://turkmedya-live.ercdn.net/tv4/tv4.m3u8",
                        "thumbnail_url": "https://i.imgur.com/gnkPxVV.png",
                        "thumbnail_url_original": "https://raw.githubusercontent.com/tvgram-inc/tvgram-inc.github.io/master/images/logo.png"
                    },
                    "sub_66": {
                        "id": 66,
                        "mode": "video",
                        "name_original": "Channel 66",
                        "name": "TV 8",
                        "sub_name": "",
                        "stream_video_url": "https://tv8-live.daioncdn.net/tv8/tv8.m3u8",
                        "thumbnail_url": "https://i.imgur.com/DKNwiDm.png",
                        "thumbnail_url_original": "https://raw.githubusercontent.com/tvgram-inc/tvgram-inc.github.io/master/images/logo.png"
                    },
                    "sub_67": {
                        "id": 67,
                        "mode": "video",
                        "name_original": "Channel 67",
                        "name": "TV 41",
                        "sub_name": "",
                        "stream_video_url": "http://stream.taksimbilisim.com:1935/tv41/bant1/playlist.m3u8",
                        "thumbnail_url": "https://www.lyngsat.com/logo/tv/tt/tv_41_tr.png",
                        "thumbnail_url_original": "https://raw.githubusercontent.com/tvgram-inc/tvgram-inc.github.io/master/images/logo.png"
                    },
                    "sub_68": {
                        "id": 68,
                        "mode": "video",
                        "name_original": "Channel 68",
                        "name": "TV 52",
                        "sub_name": "",
                        "stream_video_url": "http://stream.taksimbilisim.com:1935/tv52/smil:tv52.smil/playlist.m3u8",
                        "thumbnail_url": "https://i.imgur.com/jt92HbR.jpg",
                        "thumbnail_url_original": "https://raw.githubusercontent.com/tvgram-inc/tvgram-inc.github.io/master/images/logo.png"
                    },
                    "sub_69": {
                        "id": 69,
                        "mode": "video",
                        "name_original": "Channel 69",
                        "name": "TV Den",
                        "sub_name": "",
                        "stream_video_url": "http://canli.tvden.com.tr/hls/live.m3u8",
                        "thumbnail_url": "https://i.imgur.com/PFWOkNh.png",
                        "thumbnail_url_original": "https://raw.githubusercontent.com/tvgram-inc/tvgram-inc.github.io/master/images/logo.png"
                    },
                    "sub_70": {
                        "id": 70,
                        "mode": "video",
                        "name_original": "Channel 70",
                        "name": "TV Em",
                        "sub_name": "",
                        "stream_video_url": "http://cdn-tvem.yayin.com.tr/TVEM/TVEM/playlist.m3u8",
                        "thumbnail_url": "https://upload.wikimedia.org/wikipedia/tr/e/e9/TvEM_logosu.png",
                        "thumbnail_url_original": "https://raw.githubusercontent.com/tvgram-inc/tvgram-inc.github.io/master/images/logo.png"
                    },
                    "sub_71": {
                        "id": 71,
                        "mode": "video",
                        "name_original": "Channel 71",
                        "name": "TVM Internacional",
                        "sub_name": "",
                        "stream_video_url": "http://online.tvm.co.mz:1935/live/smil:Channel2.smil/playlist.m3u8",
                        "thumbnail_url": "https://i.imgur.com/Ns3WrOQ.png",
                        "thumbnail_url_original": "https://raw.githubusercontent.com/tvgram-inc/tvgram-inc.github.io/master/images/logo.png"
                    },
                    "sub_72": {
                        "id": 72,
                        "mode": "video",
                        "name_original": "Channel 72",
                        "name": "TVnet",
                        "sub_name": "",
                        "stream_video_url": "https://mn-nl.mncdn.com/tvnet/tvnet/chunklist.m3u8",
                        "thumbnail_url": "https://i.imgur.com/NTWLhuL.png",
                        "thumbnail_url_original": "https://raw.githubusercontent.com/tvgram-inc/tvgram-inc.github.io/master/images/logo.png"
                    },
                    "sub_73": {
                        "id": 73,
                        "mode": "video",
                        "name_original": "Channel 73",
                        "name": "UN Web TV",
                        "sub_name": "",
                        "stream_video_url": "https://cdnapi.kaltura.com/p/2503451/sp/250345100/playManifest/entryId/1_gb6tjmle/protocol/https/format/applehttp/a.m3u8",
                        "thumbnail_url": "https://i.imgur.com/lPyJhBN.png",
                        "thumbnail_url_original": "https://raw.githubusercontent.com/tvgram-inc/tvgram-inc.github.io/master/images/logo.png"
                    },
                    "sub_74": {
                        "id": 74,
                        "mode": "video",
                        "name_original": "Channel 74",
                        "name": "\u00dc\u00dc TV \u00dcsk\u00fcdar \u00dcniversitesi TV",
                        "sub_name": "",
                        "stream_video_url": "http://uskudarunv.mediatriple.net/uskudarunv/uskudar2/playlist.m3u8",
                        "thumbnail_url": "https://i.imgur.com/cHhElAa.png",
                        "thumbnail_url_original": "https://raw.githubusercontent.com/tvgram-inc/tvgram-inc.github.io/master/images/logo.png"
                    },
                    "sub_75": {
                        "id": 75,
                        "mode": "video",
                        "name_original": "Channel 75",
                        "name": "WeatherSpy Europe",
                        "sub_name": "",
                        "stream_video_url": "https://jukin-weatherspy-2-eu.rakuten.wurl.tv/playlist.m3u8",
                        "thumbnail_url": "https://i.imgur.com/SAZF1cq.jpg",
                        "thumbnail_url_original": "https://raw.githubusercontent.com/tvgram-inc/tvgram-inc.github.io/master/images/logo.png"
                    },
                    "sub_76": {
                        "id": 76,
                        "mode": "video",
                        "name_original": "Channel 76",
                        "name": "World Poker Tour",
                        "sub_name": "",
                        "stream_video_url": "https://d3w4n3hhseniak.cloudfront.net/v1/master/9d062541f2ff39b5c0f48b743c6411d25f62fc25/WPT-DistroTV/150.m3u8",
                        "thumbnail_url": "https://images.pluto.tv/channels/5f8ecfb9db6c180007a6d1b0/colorLogoPNG.png",
                        "thumbnail_url_original": "https://raw.githubusercontent.com/tvgram-inc/tvgram-inc.github.io/master/images/logo.png"
                    },
                    "sub_77": {
                        "id": 77,
                        "mode": "video",
                        "name_original": "Channel 1",
                        "name": "Akit TV",
                        "sub_name": "",
                        "stream_video_url": "https://akittv-live.ercdn.net/akittv/akittv.m3u8",
                        "thumbnail_url": "https://i.ibb.co/zG7NM55/Jagn7PG.png",
                        "thumbnail_url_original": "https://raw.githubusercontent.com/tvgram-inc/tvgram-inc.github.io/master/images/logo.png"
                    },
                    "sub_78": {
                        "id": 78,
                        "mode": "video",
                        "name_original": "Channel 2",
                        "name": "Al Hayat TV",
                        "sub_name": "",
                        "stream_video_url": "http://media.islamexplained.com:1935/live/_definst_mp4:ahme.stream/playlist.m3u8",
                        "thumbnail_url": "https://www.alhayat.tv/images/logo/main.34f5c635.png",
                        "thumbnail_url_original": "https://raw.githubusercontent.com/tvgram-inc/tvgram-inc.github.io/master/images/logo.png"
                    },
                    "sub_79": {
                        "id": 79,
                        "mode": "video",
                        "name_original": "Channel 3",
                        "name": "Al Jazeera Documentary",
                        "sub_name": "",
                        "stream_video_url": "https://live-hls-web-ajd.getaj.net/AJD/index.m3u8",
                        "thumbnail_url": "https://upload.wikimedia.org/wikipedia/en/e/e6/Al_Jazeera_Doc.png",
                        "thumbnail_url_original": "https://raw.githubusercontent.com/tvgram-inc/tvgram-inc.github.io/master/images/logo.png"
                    },
                    "sub_80": {
                        "id": 80,
                        "mode": "video",
                        "name_original": "Channel 4",
                        "name": "Al-Zahra TV Turkic",
                        "sub_name": "",
                        "stream_video_url": "https://live.al-zahratv.com/live/playlist.m3u8",
                        "thumbnail_url": "https://i.ibb.co/1LGHMzQ/lwkowCS.png",
                        "thumbnail_url_original": "https://raw.githubusercontent.com/tvgram-inc/tvgram-inc.github.io/master/images/logo.png"
                    },
                    "sub_81": {
                        "id": 81,
                        "mode": "video",
                        "name_original": "Channel 5",
                        "name": "Alanya Posta TV",
                        "sub_name": "",
                        "stream_video_url": "http://win4.yayin.com.tr/postatv/postatv/playlist.m3u8",
                        "thumbnail_url": "https://i.imgur.com/IgcCGcL.jpeg",
                        "thumbnail_url_original": "https://raw.githubusercontent.com/tvgram-inc/tvgram-inc.github.io/master/images/logo.png"
                    },
                    "sub_82": {
                        "id": 82,
                        "mode": "video",
                        "name_original": "Channel 6",
                        "name": "ALTAS TV",
                        "sub_name": "",
                        "stream_video_url": "http://stream.taksimbilisim.com:1935/altastv/bant1/playlist.m3u8",
                        "thumbnail_url": "https://www.lyngsat.com/logo/tv/aa/altas-tv-tr.png",
                        "thumbnail_url_original": "https://raw.githubusercontent.com/tvgram-inc/tvgram-inc.github.io/master/images/logo.png"
                    },
                    "sub_83": {
                        "id": 83,
                        "mode": "video",
                        "name_original": "Channel 7",
                        "name": "ATV Alanya",
                        "sub_name": "",
                        "stream_video_url": "http://stream2.taksimbilisim.com:1935/alanyatv/alanyatv.smil/playlist.m3u8",
                        "thumbnail_url": "https://i.imgur.com/Jo6DJUe.png",
                        "thumbnail_url_original": "https://raw.githubusercontent.com/tvgram-inc/tvgram-inc.github.io/master/images/logo.png"
                    },
                    "sub_84": {
                        "id": 84,
                        "mode": "video",
                        "name_original": "Channel 8",
                        "name": "Bahrain International",
                        "sub_name": "",
                        "stream_video_url": "https://5c7b683162943.streamlock.net/live/ngrp:bahraininternational_all/playlist.m3u8",
                        "thumbnail_url": "https://www.lyngsat.com/logo/tv/bb/bahrain_tv_international.png",
                        "thumbnail_url_original": "https://raw.githubusercontent.com/tvgram-inc/tvgram-inc.github.io/master/images/logo.png"
                    },
                    "sub_85": {
                        "id": 85,
                        "mode": "video",
                        "name_original": "Channel 9",
                        "name": "Berat TV",
                        "sub_name": "",
                        "stream_video_url": "http://cdn-berattv.yayin.com.tr/berattv/berattv/playlist.m3u8",
                        "thumbnail_url": "https://www.lyngsat.com/logo/tv/bb/berat-tv-tr.png",
                        "thumbnail_url_original": "https://raw.githubusercontent.com/tvgram-inc/tvgram-inc.github.io/master/images/logo.png"
                    },
                    "sub_86": {
                        "id": 86,
                        "mode": "video",
                        "name_original": "Channel 10",
                        "name": "BeritaSatu World",
                        "sub_name": "",
                        "stream_video_url": "https://b1world.beritasatumedia.com/Beritasatu/B1World_manifest.m3u8",
                        "thumbnail_url": "https://upload.wikimedia.org/wikipedia/commons/thumb/f/f1/BeritaSatuWorld.png/512px-BeritaSatuWorld.png",
                        "thumbnail_url_original": "https://raw.githubusercontent.com/tvgram-inc/tvgram-inc.github.io/master/images/logo.png"
                    },
                    "sub_87": {
                        "id": 87,
                        "mode": "video",
                        "name_original": "Channel 11",
                        "name": "Be\u015fikta\u015f Web TV",
                        "sub_name": "",
                        "stream_video_url": "https://s01.vpis.io/besiktas/besiktas.m3u8",
                        "thumbnail_url": "https://i.ibb.co/bRhnM6W/qti5aea.png",
                        "thumbnail_url_original": "https://raw.githubusercontent.com/tvgram-inc/tvgram-inc.github.io/master/images/logo.png"
                    },
                    "sub_88": {
                        "id": 88,
                        "mode": "video",
                        "name_original": "Channel 12",
                        "name": "Bloomberg TV EMEA Live Event",
                        "sub_name": "",
                        "stream_video_url": "https://bloomberg.com/media-manifest/streams/eu-event.m3u8",
                        "thumbnail_url": "https://upload.wikimedia.org/wikipedia/commons/3/3b/Bloomberg_Television_2016.png",
                        "thumbnail_url_original": "https://raw.githubusercontent.com/tvgram-inc/tvgram-inc.github.io/master/images/logo.png"
                    },
                    "sub_89": {
                        "id": 89,
                        "mode": "video",
                        "name_original": "Channel 13",
                        "name": "Bloomberg TV Europe",
                        "sub_name": "",
                        "stream_video_url": "https://bloomberg.com/media-manifest/streams/eu.m3u8",
                        "thumbnail_url": "https://upload.wikimedia.org/wikipedia/commons/3/3b/Bloomberg_Television_2016.png",
                        "thumbnail_url_original": "https://raw.githubusercontent.com/tvgram-inc/tvgram-inc.github.io/master/images/logo.png"
                    },
                    "sub_90": {
                        "id": 90,
                        "mode": "video",
                        "name_original": "Channel 14",
                        "name": "Can TV",
                        "sub_name": "",
                        "stream_video_url": "http://canbroadcast.com:7000/canlican/tv.m3u8",
                        "thumbnail_url": "https://i.ibb.co/qdBr2fH/kgwc6oT.jpg",
                        "thumbnail_url_original": "https://raw.githubusercontent.com/tvgram-inc/tvgram-inc.github.io/master/images/logo.png"
                    },
                    "sub_91": {
                        "id": 91,
                        "mode": "video",
                        "name_original": "Channel 15",
                        "name": "Cartoon Network Arabia",
                        "sub_name": "",
                        "stream_video_url": "https://shls-cartoon-net-prod-dub.shahid.net/out/v1/dc4aa87372374325a66be458f29eab0f/index.m3u8",
                        "thumbnail_url": "https://upload.wikimedia.org/wikipedia/commons/thumb/b/bb/Cartoon_Network_Arabic_logo.png/512px-Cartoon_Network_Arabic_logo.png",
                        "thumbnail_url_original": "https://raw.githubusercontent.com/tvgram-inc/tvgram-inc.github.io/master/images/logo.png"
                    },
                    "sub_92": {
                        "id": 92,
                        "mode": "video",
                        "name_original": "Channel 16",
                        "name": "Cay TV",
                        "sub_name": "",
                        "stream_video_url": "http://stream2.taksimbilisim.com:1935/caytv/bant1/CAYTV.m3u8",
                        "thumbnail_url": "https://i.ibb.co/80d40Qb/e2K5ixJ.png",
                        "thumbnail_url_original": "https://raw.githubusercontent.com/tvgram-inc/tvgram-inc.github.io/master/images/logo.png"
                    },
                    "sub_93": {
                        "id": 93,
                        "mode": "video",
                        "name_original": "Channel 17",
                        "name": "Cekmek\u00f6y TV",
                        "sub_name": "",
                        "stream_video_url": "https://cdn-cekmekoybeltv.yayin.com.tr/cekmekoybeltv/cekmekoybeltv_1080p/playlist.m3u8",
                        "thumbnail_url": "https://i.imgur.com/sjAGFWu.png",
                        "thumbnail_url_original": "https://raw.githubusercontent.com/tvgram-inc/tvgram-inc.github.io/master/images/logo.png"
                    },
                    "sub_94": {
                        "id": 94,
                        "mode": "video",
                        "name_original": "Channel 18",
                        "name": "CGTN",
                        "sub_name": "",
                        "stream_video_url": "https://news.cgtn.com/resource/live/english/cgtn-news.m3u8",
                        "thumbnail_url": "https://upload.wikimedia.org/wikipedia/commons/thumb/8/81/CGTN.svg/512px-CGTN.svg.png",
                        "thumbnail_url_original": "https://raw.githubusercontent.com/tvgram-inc/tvgram-inc.github.io/master/images/logo.png"
                    },
                    "sub_95": {
                        "id": 95,
                        "mode": "video",
                        "name_original": "Channel 19",
                        "name": "\u00c7ift\u00e7i TV",
                        "sub_name": "",
                        "stream_video_url": "http://stream.taksimbilisim.com:1935/ciftcitv/smil:ciftcitv.smil/playlist.m3u8",
                        "thumbnail_url": "https://izmottvsc23.tvplus.com.tr:33207/CPS/images/universal/film/logo/202003/20200302/20200302114910325fpj_op.png",
                        "thumbnail_url_original": "https://raw.githubusercontent.com/tvgram-inc/tvgram-inc.github.io/master/images/logo.png"
                    },
                    "sub_96": {
                        "id": 96,
                        "mode": "video",
                        "name_original": "Channel 20",
                        "name": "Classic Arts Showcase",
                        "sub_name": "",
                        "stream_video_url": "https://classicarts.akamaized.net/hls/live/1024257/CAS/master.m3u8",
                        "thumbnail_url": "https://i.imgur.com/M6FFkc3.png",
                        "thumbnail_url_original": "https://raw.githubusercontent.com/tvgram-inc/tvgram-inc.github.io/master/images/logo.png"
                    },
                    "sub_97": {
                        "id": 97,
                        "mode": "video",
                        "name_original": "Channel 21",
                        "name": "CNA International",
                        "sub_name": "",
                        "stream_video_url": "https://d2e1asnsl7br7b.cloudfront.net/7782e205e72f43aeb4a48ec97f66ebbe/index.m3u8",
                        "thumbnail_url": "https://upload.wikimedia.org/wikipedia/commons/thumb/8/83/CNA_new_logo.svg/512px-CNA_new_logo.svg.png",
                        "thumbnail_url_original": "https://raw.githubusercontent.com/tvgram-inc/tvgram-inc.github.io/master/images/logo.png"
                    },
                    "sub_98": {
                        "id": 98,
                        "mode": "video",
                        "name_original": "Channel 22",
                        "name": "CNN Turk",
                        "sub_name": "",
                        "stream_video_url": "https://live.duhnet.tv/S2/HLS_LIVE/cnnturknp/playlist.m3u8",
                        "thumbnail_url": "https://upload.wikimedia.org/wikipedia/commons/thumb/5/59/CNN_T%C3%BCrk_logo.svg/512px-CNN_T%C3%BCrk_logo.svg.png",
                        "thumbnail_url_original": "https://raw.githubusercontent.com/tvgram-inc/tvgram-inc.github.io/master/images/logo.png"
                    },
                    "sub_99": {
                        "id": 99,
                        "mode": "video",
                        "name_original": "Channel 23",
                        "name": "Daawah TV",
                        "sub_name": "",
                        "stream_video_url": "http://51.15.246.58:8081/daawahtv/daawahtv2/playlist.m3u8",
                        "thumbnail_url": null,
                        "thumbnail_url_original": "https://raw.githubusercontent.com/tvgram-inc/tvgram-inc.github.io/master/images/logo.png"
                    },
                    "sub_100": {
                        "id": 100,
                        "mode": "video",
                        "name_original": "Channel 24",
                        "name": "DHA",
                        "sub_name": "",
                        "stream_video_url": "https://603c568fccdf5.streamlock.net/live/dhaweb1_C5efC/playlist.m3u8",
                        "thumbnail_url": "https://i.imgur.com/E2c0Ri9.png",
                        "thumbnail_url_original": "https://raw.githubusercontent.com/tvgram-inc/tvgram-inc.github.io/master/images/logo.png"
                    },
                    "sub_101": {
                        "id": 101,
                        "mode": "video",
                        "name_original": "Channel 25",
                        "name": "Diyanet TV",
                        "sub_name": "",
                        "stream_video_url": "https://eustr73.mediatriple.net/videoonlylive/mtikoimxnztxlive/broadcast_5e3bf95a47e07.smil/playlist.m3u8",
                        "thumbnail_url": "https://upload.wikimedia.org/wikipedia/commons/thumb/4/43/Diyanet_TV_logo.svg/512px-Diyanet_TV_logo.svg.png",
                        "thumbnail_url_original": "https://raw.githubusercontent.com/tvgram-inc/tvgram-inc.github.io/master/images/logo.png"
                    },
                    "sub_102": {
                        "id": 102,
                        "mode": "video",
                        "name_original": "Channel 26",
                        "name": "DW English",
                        "sub_name": "",
                        "stream_video_url": "https://dwamdstream102.akamaized.net/hls/live/2015525/dwstream102/index.m3u8",
                        "thumbnail_url": "https://i.imgur.com/A1xzjOI.png",
                        "thumbnail_url_original": "https://raw.githubusercontent.com/tvgram-inc/tvgram-inc.github.io/master/images/logo.png"
                    },
                    "sub_103": {
                        "id": 103,
                        "mode": "video",
                        "name_original": "Channel 27",
                        "name": "EbS Live",
                        "sub_name": "",
                        "stream_video_url": "https://euc-live.fl.freecaster.net/live/eucom/ebs.m3u8",
                        "thumbnail_url": "https://raw.githubusercontent.com/jnk22/kodinerds-iptv/master/logos/tv/ebs.png",
                        "thumbnail_url_original": "https://raw.githubusercontent.com/tvgram-inc/tvgram-inc.github.io/master/images/logo.png"
                    },
                    "sub_104": {
                        "id": 104,
                        "mode": "video",
                        "name_original": "Channel 28",
                        "name": "EbS+ Live",
                        "sub_name": "",
                        "stream_video_url": "https://euc-live.fl.freecaster.net/live/eucom/ebsp.m3u8",
                        "thumbnail_url": "https://raw.githubusercontent.com/jnk22/kodinerds-iptv/master/logos/tv/ebs.png",
                        "thumbnail_url_original": "https://raw.githubusercontent.com/tvgram-inc/tvgram-inc.github.io/master/images/logo.png"
                    },
                    "sub_105": {
                        "id": 105,
                        "mode": "video",
                        "name_original": "Channel 29",
                        "name": "Em TV",
                        "sub_name": "",
                        "stream_video_url": "https://cdn.yayin.com.tr/TVEM/TVEM/playlist.m3u8",
                        "thumbnail_url": "https://i.imgur.com/pHlRi8m.jpg",
                        "thumbnail_url_original": "https://raw.githubusercontent.com/tvgram-inc/tvgram-inc.github.io/master/images/logo.png"
                    },
                    "sub_106": {
                        "id": 106,
                        "mode": "video",
                        "name_original": "Channel 30",
                        "name": "Ert Sah TV",
                        "sub_name": "",
                        "stream_video_url": "http://win20.yayin.com.tr/ertsahtv/ertsahtv/playlist.m3u8",
                        "thumbnail_url": "https://i.imgur.com/J2OSHdh.png",
                        "thumbnail_url_original": "https://raw.githubusercontent.com/tvgram-inc/tvgram-inc.github.io/master/images/logo.png"
                    },
                    "sub_107": {
                        "id": 107,
                        "mode": "video",
                        "name_original": "Channel 31",
                        "name": "ERT World",
                        "sub_name": "",
                        "stream_video_url": "http://wpso.com:1936/hls/wzra.m3u8",
                        "thumbnail_url": "https://upload.wikimedia.org/wikipedia/commons/thumb/b/bc/ChannelLogo-ERTWORLD1.png/512px-ChannelLogo-ERTWORLD1.png",
                        "thumbnail_url_original": "https://raw.githubusercontent.com/tvgram-inc/tvgram-inc.github.io/master/images/logo.png"
                    },
                    "sub_108": {
                        "id": 108,
                        "mode": "video",
                        "name_original": "Channel 32",
                        "name": "ETB Basque",
                        "sub_name": "",
                        "stream_video_url": "https://multimedia.eitb.eus/live-content/eitbbasque-hls/master.m3u8",
                        "thumbnail_url": "https://upload.wikimedia.org/wikipedia/commons/thumb/c/ca/ETB_Basque_2022_logo.svg/512px-ETB_Basque_2022_logo.svg.png",
                        "thumbnail_url_original": "https://raw.githubusercontent.com/tvgram-inc/tvgram-inc.github.io/master/images/logo.png"
                    },
                    "sub_109": {
                        "id": 109,
                        "mode": "video",
                        "name_original": "Channel 33",
                        "name": "Euro Indie Music Chart TV",
                        "sub_name": "",
                        "stream_video_url": "http://178.33.224.197:1935/euroindiemusic/euroindiemusic/playlist.m3u8",
                        "thumbnail_url": "https://i.imgur.com/UDFBYpN.png",
                        "thumbnail_url_original": "https://raw.githubusercontent.com/tvgram-inc/tvgram-inc.github.io/master/images/logo.png"
                    },
                    "sub_110": {
                        "id": 110,
                        "mode": "video",
                        "name_original": "Channel 34",
                        "name": "Fashion TV",
                        "sub_name": "",
                        "stream_video_url": "https://fashiontv-fashiontv-1-eu.rakuten.wurl.tv/playlist.m3u8",
                        "thumbnail_url": "https://upload.wikimedia.org/wikipedia/commons/thumb/7/7a/Fashion_TV_logo.svg/512px-Fashion_TV_logo.svg.png",
                        "thumbnail_url_original": "https://raw.githubusercontent.com/tvgram-inc/tvgram-inc.github.io/master/images/logo.png"
                    },
                    "sub_111": {
                        "id": 111,
                        "mode": "video",
                        "name_original": "Channel 35",
                        "name": "Galicia TV Europa",
                        "sub_name": "",
                        "stream_video_url": "http://europa-crtvg.flumotion.com/playlist.m3u8",
                        "thumbnail_url": "https://www.meo.pt/PublishingImages/canais/tv-galicia.png",
                        "thumbnail_url_original": "https://raw.githubusercontent.com/tvgram-inc/tvgram-inc.github.io/master/images/logo.png"
                    },
                    "sub_112": {
                        "id": 112,
                        "mode": "video",
                        "name_original": "Channel 36",
                        "name": "Haber61 TV",
                        "sub_name": "",
                        "stream_video_url": "https://cdn-haber61tv.yayin.com.tr/haber61tv/smil:haber61tv.smil/index.m3u8",
                        "thumbnail_url": "https://i.imgur.com/RhPIYKu.jpg",
                        "thumbnail_url_original": "https://raw.githubusercontent.com/tvgram-inc/tvgram-inc.github.io/master/images/logo.png"
                    },
                    "sub_113": {
                        "id": 113,
                        "mode": "video",
                        "name_original": "Channel 37",
                        "name": "IBB TV",
                        "sub_name": "",
                        "stream_video_url": "http://wowza.istweb.tv:1935/webtv/webtv_wowza1/playlist.m3u8",
                        "thumbnail_url": "https://i.imgur.com/aXxAz84.png",
                        "thumbnail_url_original": "https://raw.githubusercontent.com/tvgram-inc/tvgram-inc.github.io/master/images/logo.png"
                    },
                    "sub_114": {
                        "id": 114,
                        "mode": "video",
                        "name_original": "Channel 38",
                        "name": "Icel TV",
                        "sub_name": "",
                        "stream_video_url": "http://stream.taksimbilisim.com:1935/iceltv/bant1/playlist.m3u8",
                        "thumbnail_url": "https://i.imgur.com/CGwImKv.png",
                        "thumbnail_url_original": "https://raw.githubusercontent.com/tvgram-inc/tvgram-inc.github.io/master/images/logo.png"
                    },
                    "sub_115": {
                        "id": 115,
                        "mode": "video",
                        "name_original": "Channel 39",
                        "name": "Kanal 3",
                        "sub_name": "",
                        "stream_video_url": "http://stream.taksimbilisim.com:1935/kanal3/bant1/playlist.m3u8",
                        "thumbnail_url": "https://i.ibb.co/Jq49Y1g/uHAGsRk.png",
                        "thumbnail_url_original": "https://raw.githubusercontent.com/tvgram-inc/tvgram-inc.github.io/master/images/logo.png"
                    },
                    "sub_116": {
                        "id": 116,
                        "mode": "video",
                        "name_original": "Channel 40",
                        "name": "Kanal 7 Avrupa",
                        "sub_name": "",
                        "stream_video_url": "https://live.kanal7.com/live/kanal7AvrupaLive/index.m3u8",
                        "thumbnail_url": "https://i.imgur.com/oHq0PKQ.jpg",
                        "thumbnail_url_original": "https://raw.githubusercontent.com/tvgram-inc/tvgram-inc.github.io/master/images/logo.png"
                    },
                    "sub_117": {
                        "id": 117,
                        "mode": "video",
                        "name_original": "Channel 41",
                        "name": "Kanal 33",
                        "sub_name": "",
                        "stream_video_url": "http://stream.taksimbilisim.com:1935/kanal33/bant1/playlist.m3u8",
                        "thumbnail_url": "https://izmottvsc23.tvplus.com.tr:33207/CPS/images/universal/film/logo/202103/20210324/16/202103241155383682ej_op.png",
                        "thumbnail_url_original": "https://raw.githubusercontent.com/tvgram-inc/tvgram-inc.github.io/master/images/logo.png"
                    },
                    "sub_118": {
                        "id": 118,
                        "mode": "video",
                        "name_original": "Channel 42",
                        "name": "KBS World",
                        "sub_name": "",
                        "stream_video_url": "https://kbsworld-ott.akamaized.net/hls/live/2002341/kbsworld/master.m3u8",
                        "thumbnail_url": "https://upload.wikimedia.org/wikipedia/commons/thumb/1/1b/KBS_World_%282009%29.svg/512px-KBS_World_%282009%29.svg.png",
                        "thumbnail_url_original": "https://raw.githubusercontent.com/tvgram-inc/tvgram-inc.github.io/master/images/logo.png"
                    },
                    "sub_119": {
                        "id": 119,
                        "mode": "video",
                        "name_original": "Channel 43",
                        "name": "Laleg\u00fcl TV",
                        "sub_name": "",
                        "stream_video_url": "http://lalegultv.netmedya.net/hls/lalegultv.m3u8",
                        "thumbnail_url": "https://www.lyngsat.com/logo/tv/ll/lalegul-tv-tr.png",
                        "thumbnail_url_original": "https://raw.githubusercontent.com/tvgram-inc/tvgram-inc.github.io/master/images/logo.png"
                    },
                    "sub_120": {
                        "id": 120,
                        "mode": "video",
                        "name_original": "Channel 44",
                        "name": "MavTV Select",
                        "sub_name": "",
                        "stream_video_url": "https://mavtv-mavtvglobal-1-eu.rakuten.wurl.tv/playlist.m3u8",
                        "thumbnail_url": "https://i.imgur.com/KMGUuAX.png",
                        "thumbnail_url_original": "https://raw.githubusercontent.com/tvgram-inc/tvgram-inc.github.io/master/images/logo.png"
                    },
                    "sub_121": {
                        "id": 121,
                        "mode": "video",
                        "name_original": "Channel 45",
                        "name": "Metro Globe Network",
                        "sub_name": "",
                        "stream_video_url": "https://edge.medcom.id/live-edge/smil:mgnch.smil/playlist.m3u8",
                        "thumbnail_url": "https://i.imgur.com/NTCI3lf.png",
                        "thumbnail_url_original": "https://raw.githubusercontent.com/tvgram-inc/tvgram-inc.github.io/master/images/logo.png"
                    },
                    "sub_122": {
                        "id": 122,
                        "mode": "video",
                        "name_original": "Channel 46",
                        "name": "Myanmar International TV",
                        "sub_name": "",
                        "stream_video_url": "https://5a13fe32ef748.streamlock.net/mmplay/mitv/playlist.m3u8",
                        "thumbnail_url": "https://www.lyngsat.com/logo/tv/mm/myanmar-international-tv-mm.png",
                        "thumbnail_url_original": "https://raw.githubusercontent.com/tvgram-inc/tvgram-inc.github.io/master/images/logo.png"
                    },
                    "sub_123": {
                        "id": 123,
                        "mode": "video",
                        "name_original": "Channel 47",
                        "name": "NASA TV",
                        "sub_name": "",
                        "stream_video_url": "https://uplynkcontent.sinclairstoryline.com/channel/ddd76fdc1c0a456ba537e4f48e827d3e.m3u8",
                        "thumbnail_url": "https://upload.wikimedia.org/wikipedia/commons/thumb/b/b4/NASA_TV.svg/512px-NASA_TV.svg.png",
                        "thumbnail_url_original": "https://raw.githubusercontent.com/tvgram-inc/tvgram-inc.github.io/master/images/logo.png"
                    },
                    "sub_124": {
                        "id": 124,
                        "mode": "video",
                        "name_original": "Channel 48",
                        "name": "Og\u00fcn TV",
                        "sub_name": "",
                        "stream_video_url": "https://s01.vpis.io/ogun/ogun.m3u8",
                        "thumbnail_url": null,
                        "thumbnail_url_original": "https://raw.githubusercontent.com/tvgram-inc/tvgram-inc.github.io/master/images/logo.png"
                    },
                    "sub_125": {
                        "id": 125,
                        "mode": "video",
                        "name_original": "Channel 49",
                        "name": "PMC",
                        "sub_name": "",
                        "stream_video_url": "https://hls.pmchd.live/hls/stream.m3u8",
                        "thumbnail_url": "https://i.imgur.com/o8vx6FG.png",
                        "thumbnail_url_original": "https://raw.githubusercontent.com/tvgram-inc/tvgram-inc.github.io/master/images/logo.png"
                    },
                    "sub_126": {
                        "id": 126,
                        "mode": "video",
                        "name_original": "Channel 50",
                        "name": "Power Turk",
                        "sub_name": "",
                        "stream_video_url": "https://livetv.powerapp.com.tr/powerturkTV/powerturkhd.smil/playlist.m3u8",
                        "thumbnail_url": "https://i.imgur.com/9OPoXQG.png",
                        "thumbnail_url_original": "https://raw.githubusercontent.com/tvgram-inc/tvgram-inc.github.io/master/images/logo.png"
                    },
                    "sub_127": {
                        "id": 127,
                        "mode": "video",
                        "name_original": "Channel 51",
                        "name": "Red Bull TV",
                        "sub_name": "",
                        "stream_video_url": "https://rbmn-live.akamaized.net/hls/live/590964/BoRB-AT/master.m3u8",
                        "thumbnail_url": "https://i.imgur.com/7NeBmWX.jpg",
                        "thumbnail_url_original": "https://raw.githubusercontent.com/tvgram-inc/tvgram-inc.github.io/master/images/logo.png"
                    },
                    "sub_128": {
                        "id": 128,
                        "mode": "video",
                        "name_original": "Channel 52",
                        "name": "RT Documentary Russian",
                        "sub_name": "",
                        "stream_video_url": "http://uiptv.do.am/1ufc/300663722/playlist.m3u8",
                        "thumbnail_url": "https://i.imgur.com/rli3c7T.png",
                        "thumbnail_url_original": "https://raw.githubusercontent.com/tvgram-inc/tvgram-inc.github.io/master/images/logo.png"
                    },
                    "sub_129": {
                        "id": 129,
                        "mode": "video",
                        "name_original": "Channel 53",
                        "name": "RT en Espa\u00f1ol",
                        "sub_name": "",
                        "stream_video_url": "https://rt-esp.rttv.com/live/rtesp/playlist.m3u8",
                        "thumbnail_url": "https://i.imgur.com/Fbli6Ml.png",
                        "thumbnail_url_original": "https://raw.githubusercontent.com/tvgram-inc/tvgram-inc.github.io/master/images/logo.png"
                    }
                }
            }
        }
    }
}