{		
	"com.livex.jully.tv.channels": 	
	{	
		
	"app_logo":	"https://play-lh.googleusercontent.com/33_mPNzvE6WRV6czGRm8EhSrSh0G9wnRQRfMXfcqQLU8j3z4UYu7nrgw5SmaP9UFf0U=s180-rw",
	"app_title":	"YOYO: Live Random Video Chat",
		
	"ads_sequence": [	
		
		"app_lovin"
		
	],	
	"more_app_url": "https://play.google.com/store/apps/developer?id=AppLine+LLC", 	
	"extra_url": "https://gitlab.com/bitcodingsolutions/iptv_channels/-/raw/main/X_App/More_Urls/new_data.json", 	
	"more_live_apps":"https://gitlab.com/bitcodingsolutions/other/-/raw/main/LiveX_Temp_Drawer.json", 	
	"iptv_player_url": "com.pocketiptv",	
	"ad_setting": {	
		
		"app_version_code": 2,
		
		"is_full_ads": false,
		"onesignal_id": "5f27d383-2c08-4180-94e3-04a7e8699b4b", 
		"ads_loading_text": "Ad is loading...",
		"seconds_require_triger_reward": 25,
		"global_intra_interval_click": 2,
		"interstitial_ad_time_interval": 5,
		"native_ad_list_interval": 3
	},	
	"app_update": {	
		"is_popup_dialog": true,
		"is_update_require": false,
		"package_id": "com.adult.iptv.hot.playlist", 
		"website_url": "https://play.google.com/store/apps/details?id=com.adult.iptv.hot.playlist", 
		"app_icon": "https://play-lh.googleusercontent.com/DFrL4OmwEWMQnRjs9tBcekNn6DYrlehENI0aAD5XphVvenROVKOon7sfLf84YhmyM08=w240-h480-rw",
		"updated_version_code": 50,
		"title": "Enjoy Free Naughty Videos",
		"default_message": "Don’t Feel Alone",
		"is_shuffle": false,
		"change_dialogdata_click_count" : 1,
		"app_list_url" : "https://gitlab.com/bitcodingsolutions/other/-/raw/main/App_Update_Apps.json"
	},	
	"exit_dialog": {	
		"is_exit_require": true,
		"exit_title": "Exit",
		"exit_message": "Do you want to exit from App?"
	},	
	"reward_dialog": {      	
		"is_reward_require": true,
		"reward_message": "Watch Reward ad to get LiveX Channel"
	},     	
		
	"About_App": {	
		"is_override": false,
		"is_about_app": true,
		"about_title": "Jullys TV Channels", 
		"about_message": "Your app need an Update!",
		"registration_detail": "Jullys TV Channels", 
		"version_detail": "version : 1.0.0"
	},	
	"rate_app": {	
		"is_rate_app": true,
		"package_id": "com.livex.jully.tv.channels", 
		"rate_app_url": "https://play.google.com/store/apps/details?id=com.livex.jully.tv.channels", 
		"rate_message": "Please Rate us and promote us."
	},	
	"share_app": {	
		"is_share_app": true,
		"share_title": "Share link url :https://play.google.com/store/apps/details?id=com.livex.jully.tv.channels", 
		"share_message": "Now anyone can get Jullys TV Channels app : https://play.google.com/store/apps/details?id=com.livex.jully.tv.channels" 
	},	
	"privacy_policy": {	
		"is_privacy_policy": true,
		"is_system_browser": true,
		"privacy_policy": "https://pages.flycricket.io/live-tv-channels-1/privacy.html" 
	},	
	"terms_of_use": {	
		"is_terms_of_use": true,
		"is_system_browser": true,
		"terms_of_use": "https://pages.flycricket.io/live-tv-channels-1/privacy.html" 
	},	
	"error_report": {	
		"is_error_report_support": true,
		"email_id": "mailto:appline.llc@gmail.com"
	},	
	"feedback_support": {	
		"is_feedback_support": true,
		"email_id":"mailto:appline.llc@gmail.com",
		"feedback_title": "Feedback on Jullys TV Channels",
		"feedback_message": "Hi,\n\n\nYour Feedback Jullys TV Channels! I would like to give you some feedback:",
		"email_subject": "Feedback on Jullys TV Channels",
		"email_message": "Hi,\n\n\nYour Feedback Jullys TV Channels! I would like to give you some feedback:"
		
	},	
	"google_ads": {	
		"banner_ad_unit_id_android": "/6499/example/banner", 
		"interstitial_ad_unit_id_android": "/6499/example/interstitial", 
		"app_open_ad_unit_id_android": "/6499/example/app-open", 
		"native_ads_unit_id_android": "/6499/example/native", 
		"rewared_ads_unit_id": "/6499/example/rewarded", 
		"native_video_ads_unit_id_android": "/6499/example/native-video", 
		"is_banner_ads": true,
		"is_open_ads": true,
		"is_interstitial_ads": true,
		"is_rewared_ads": true,
		"is_native_ads": true,
		"no_of_click_interstitial": 1
	},	
	"facebook_ads": {	
		"banner_ad_unit_id_android": "5726269587427975_5726271627427771", 
		"interstitial_ad_unit_id_android": "5726269587427975_5726271264094474", 
		"native_ads_unit_id_android": "5726269587427975_5726270920761175", 
		"rewared_ads_unit_id": "5726269587427975_5726270717427862", 
		"is_banner_ads": true,
		"is_interstitial_ads": true,
		"is_native_ads": true,
		"is_rewared_ads": true,
		"no_of_click_interstitial": 1
	},	
	"app_lovin": {	
		"sdk_key":"KU0qPINT5BgZHEOCOPqSgNggV2A6ZrkdHZwmhV7imclwQpMkaFuF2oaifSuTSKc-l1Chk67e5mb6qUdXwTqZFH",
		"is_unlimited_ads": true,
		"id_unit_open": "3f478ddd78fcafa2",
		"id_unit_banner": "624b66e088591efb",
		"id_unit_intra": "a3029c0bdbcd034b",
		"id_unit_native_multiple": 
		{
		   "small":"",
		   "medium":"",
		   "manual":"2b58c17b4989f3b0"
		 },
		"rewared_ads_unit_id": "bcbe3a92a8cd6cdf",
		"is_open_ads": true,
		"is_banner_ads": true,
		"is_interstitial_ads": true,
		"is_native_ads": true,
		"is_rewared_ads": true
	},	
	"custom_ads": {	
		"qureka_link": "https://490.go.qureka.com/intro/question",
		"is_quraka_banner": true,
		"is_quraka_intera": true,
		"is_quraka_native": true,
		"close_button_to_direct_web": true,
	"quraka_intra_image": [	
		"https://github.com/pragneshpalsanabitcoding/image_quraka/blob/main/360X640_1.png?raw=true",
		"https://github.com/pragneshpalsanabitcoding/image_quraka/blob/main/360X640_2.png?raw=true",
		"https://github.com/pragneshpalsanabitcoding/image_quraka/blob/main/360X640_3.png?raw=true",
		"https://github.com/pragneshpalsanabitcoding/image_quraka/blob/main/360X640_4.png?raw=true",
		"https://github.com/pragneshpalsanabitcoding/image_quraka/blob/main/360X640_5.png?raw=true"
	],	
	"quraka_native_image": [	
		"https://github.com/pragneshpalsanabitcoding/image_quraka/blob/main/3.jpg?raw=true",
		"https://github.com/pragneshpalsanabitcoding/image_quraka/blob/main/320x50.jpg?raw=true",
		"https://github.com/pragneshpalsanabitcoding/image_quraka/blob/main/4.jpg?raw=true",
		"https://github.com/pragneshpalsanabitcoding/image_quraka/blob/main/6.jpg?raw=true"
	],	
	"quraka_banner_image": [	
		"https://github.com/pragneshpalsanabitcoding/image_quraka/blob/main/2.jpg?raw=true",
		"https://github.com/pragneshpalsanabitcoding/image_quraka/blob/main/3.jpg?raw=true",
		"https://github.com/pragneshpalsanabitcoding/image_quraka/blob/main/320x50.jpg?raw=true",
		"https://github.com/pragneshpalsanabitcoding/image_quraka/blob/main/4.jpg?raw=true",
		"https://github.com/pragneshpalsanabitcoding/image_quraka/blob/main/5.jpg?raw=true",
		"https://github.com/pragneshpalsanabitcoding/image_quraka/blob/main/6.jpg?raw=true"
	]	
	}	
	}	
}		
