{
    "com.any.tv.search.and.play": {
        "app_logo": "https://play-lh.googleusercontent.com/33_mPNzvE6WRV6czGRm8EhSrSh0G9wnRQRfMXfcqQLU8j3z4UYu7nrgw5SmaP9UFf0U=s180-rw",
        "app_title": "YOYO: Live Random Video Chat",
        "is_all_ads": true,
        "is_follow_loop_sequence_ads": false,
        "ads_sequence": [
            "app_lovin",
            "google_ads"
        ],
        "intra_ads_sequence": [
            "app_lovin",
            "google_ads"
        ],
        "rewards_ads_sequence": [
            "app_lovin",
            "google_ads"
        ],
        "native_ads_sequence": [
            "app_lovin",
            "google_ads"
        ],
        "banner_ads_sequence": [
            "app_lovin",
            "google_ads"
        ],
        "more_app_url": "https://play.google.com/store/apps/developer?id=Any+TV",
        "extra_url": "0",
        "more_live_apps": "https://gitlab.com/vs.bitcoding/live_apps/-/raw/main/live_apps.json",
        "iptv_player_url": "com.pocketiptv",
        "ad_setting": {
            "app_version_code": 10,
            "is_full_ads": true,
            "onesignal_id": "07de0128-c4bc-45f0-8baa-6867a262a6b7",
            "ads_loading_text": "Ad is loading...",
            "seconds_require_triger_reward": 25,
            "global_intra_interval_click": 2,
            "global_intra_custom_impression": 1,
            "ads_loading_timeout_in_millseconds": 1000,
            "ads_timeout_in_millseconds": 5000,
            "ads_retry": 2,
            "interstitial_ad_time_interval": 0,
            "native_ad_list_interval": 6,
            "is_geoedge_sdk_flag": true,
            "geoedge_sdk_key": "d33650a2-63a2-4578-81c2-1615d31b195c",
            "geoedge_sdk_timeout_in_seconds": 25
        },
        "app_update": {
            "is_popup_dialog": true,
            "is_update_require": false,
            "updated_version_code": 50,
            "is_shuffle": false,
            "change_dialogdata_click_count": 1,
            "app_list_url": "https://gitlab.com/bitcodingsolutions/other/-/raw/main/App_Update_Apps.json"
        },
        "exit_dialog": {
            "is_exit_require": true,
            "exit_title": "Exit",
            "exit_message": "Do you want to exit from App?"
        },
        "reward_dialog": {
            "is_reward_require": true,
            "reward_message": "Watch Reward ad to get Live TV Channel"
        },
        "About_App": {
            "is_override": false,
            "is_about_app": true,
            "about_title": "Simple IPTV",
            "about_message": "Best app to get  IPTV Channels",
            "registration_detail": "Simple IPTV",
            "version_detail": "version : 1.0.0"
        },
        "rate_app": {
            "is_rate_app": true,
            "package_id": "com.any.tv.search.and.play",
            "rate_app_url": "https://play.google.com/store/apps/details?id=com.any.tv.search.and.play",
            "rate_message": "Please Rate us and promote us."
        },
        "share_app": {
            "is_share_app": true,
            "share_title": "Share link url :https://play.google.com/store/apps/details?id=com.any.tv.search.and.play",
            "share_message": "Now anyone can get Simple IPTV app : https://play.google.com/store/apps/details?id=com.any.tv.search.and.play"
        },
        "privacy_policy": {
            "is_privacy_policy": true,
            "is_system_browser": true,
            "privacy_policy": "https://sites.google.com/view/simple-iptv"
        },
        "terms_of_use": {
            "is_terms_of_use": true,
            "is_system_browser": true,
            "terms_of_use": "https://sites.google.com/view/simple-iptv"
        },
        "error_report": {
            "is_error_report_support": true,
            "email_id": "mailto:anytv.inc@gmail.com"
        },
        "feedback_support": {
            "is_feedback_support": true,
            "email_id": "mailto:anytv.inc@gmail.com",
            "feedback_title": "Feedback on Simple IPTV",
            "feedback_message": "Hi,\n\n\nYour Feedback Simple IPTV! I would like to give you some feedback:",
            "email_subject": "Feedback on Simple IPTV",
            "email_message": "Hi,\n\n\nYour Feedback Simple IPTV! I would like to give you some feedback:"
        },
        "google_ads": {
            "banner_ad_unit_id_android": "/21753324030,22831392815/com.any.tv.search.and.play_Banner",
            "interstitial_ad_unit_id_android": "/21753324030,22831392815/com.any.tv.search.and.play_Interstitial",
            "app_open_ad_unit_id_android": "/21753324030,22831392815/com.any.tv.search.and.play_AppOpen",
            "native_ads_unit_id_android": "/21753324030,22831392815/com.any.tv.search.and.play_Native",
            "rewared_ads_unit_id": "/21753324030,22831392815/com.any.tv.search.and.play_Rewarded",
            "native_video_ads_unit_id_android": "/6499/example/native-video",
            "is_banner_ads": true,
            "is_open_ads": true,
            "is_redirect_custom_impression": false,
            "is_interstitial_ads": true,
            "is_rewared_ads": true,
            "is_native_ads": true,
            "no_of_click_interstitial": 1
        },
        "facebook_ads": {
            "banner_ad_unit_id_android": "633714137717004_6337144383590",
            "interstitial_ad_unit_id_android": "633714137717004_6337149483590",
            "native_ads_unit_id_android": "633714137717004_6337144433590",
            "rewared_ads_unit_id": "633714137717004_6337144483590",
            "is_banner_ads": true,
            "is_redirect_custom_impression": false,
            "is_interstitial_ads": true,
            "is_native_ads": true,
            "is_rewared_ads": true,
            "no_of_click_interstitial": 1
        },
        "app_lovin": {
            "sdk_key": "4gMXSz-Qe0J5xhqXwJcMmT7JI0AW07aPscFTtvib7ir7hpC_mGuKBqIPEHlv57iZdH4bCD2koZm4pQTRi9J999",
            "is_redirect_custom_impression": true,
            "is_unlimited_ads": true,
            "id_unit_open": "7b944df9f5183adf",
            "id_unit_banner": "252859d3529e870c",
            "id_unit_intra": "3d0eb97f23fa1838",
            "id_unit_native_multiple": {
                "small": "",
                "medium": "",
                "manual": "d46cde8bf6a74680"
            },
            "rewared_ads_unit_id": "f8942008d42f4a3b",
            "is_open_ads": true,
            "is_banner_ads": true,
            "is_interstitial_ads": true,
            "is_native_ads": true,
            "is_rewared_ads": true
        },
        "custom_ads": {
            "qureka_link": "https://play2086.atmegame.com/",
            "is_quraka_banner": true,
            "is_redirect_custom_impression": true,
            "is_qureka_webview": false,
            "is_qureka_custom_tab": true,
            "is_qureka_imageview": false,
            "qureka_webview_timing": 0,
            "no_of_custom_impression": 0,
            "qureka_webview_agent": "",
            "qureka_webview_script": "",
            "is_quraka_intera": true,
            "is_quraka_native": true,
            "close_button_to_direct_web": true,
            "quraka_intra_image": [
                "https://github.com/pragneshpalsanabitcoding/image_quraka/blob/main/360X640_1.png?raw=true",
                "https://github.com/pragneshpalsanabitcoding/image_quraka/blob/main/360X640_2.png?raw=true",
                "https://github.com/pragneshpalsanabitcoding/image_quraka/blob/main/360X640_3.png?raw=true",
                "https://github.com/pragneshpalsanabitcoding/image_quraka/blob/main/360X640_4.png?raw=true",
                "https://github.com/pragneshpalsanabitcoding/image_quraka/blob/main/360X640_5.png?raw=true"
            ],
            "quraka_native_image": [
                "https://firebasestorage.googleapis.com/v0/b/agecalculator-ba6f7.appspot.com/o/800x480-(10).png?alt=media&token=05877ba8-e8fc-435f-bb25-02b076517e10",
                "https://firebasestorage.googleapis.com/v0/b/agecalculator-ba6f7.appspot.com/o/800x480-(11).png?alt=media&token=39da778d-b2fd-46b2-9786-c62b7c8644e4",
                "https://firebasestorage.googleapis.com/v0/b/agecalculator-ba6f7.appspot.com/o/800x480-(12).png?alt=media&token=4f1ff7bf-1954-4b96-8ee3-7e721f544eab",
                "https://firebasestorage.googleapis.com/v0/b/agecalculator-ba6f7.appspot.com/o/800x480-(13).png?alt=media&token=a8a92edd-d055-4c04-9672-4f726b1621ef"
            ],
            "quraka_banner_image": [
                "https://firebasestorage.googleapis.com/v0/b/agecalculator-ba6f7.appspot.com/o/1200x470_12.png?alt=media&token=cdee4fbc-5fec-4b7d-97b6-5e18e831f06c",
                "https://firebasestorage.googleapis.com/v0/b/agecalculator-ba6f7.appspot.com/o/1200x470_13.png?alt=media&token=6b159513-a94a-4b2b-a9cf-f8949944139a",
                "https://firebasestorage.googleapis.com/v0/b/agecalculator-ba6f7.appspot.com/o/1200x470_14.png?alt=media&token=c19432cd-26b0-4574-b15e-f4ced8f9de18",
                "https://firebasestorage.googleapis.com/v0/b/agecalculator-ba6f7.appspot.com/o/1200x470_14.png?alt=media&token=c19432cd-26b0-4574-b15e-f4ced8f9de18"
            ]
        }
    }
}
