{		
	"com.watch.live.movies": 	
	{	
		
	"app_logo":	"https://play-lh.googleusercontent.com/33_mPNzvE6WRV6czGRm8EhSrSh0G9wnRQRfMXfcqQLU8j3z4UYu7nrgw5SmaP9UFf0U=s180-rw",
	"app_title":	"YOYO: Live Random Video Chat",
		
	"ads_sequence": [
       	 
			"app_lovin"
	



		],	
	"more_app_url": "https://play.google.com/store/apps/developer?id=Tech+Fest.LLC", 	
	"extra_url": "https://gitlab.com/bitcodingsolutions/iptv_channels/-/raw/main/Movies/Data/All_Movies.json", 	
	"more_live_apps":"https://gitlab.com/vs.bitcoding/live_apps/-/raw/main/live_apps.json", 	
	"iptv_player_url": "com.pocketiptv",	
	"ad_setting": {	
		
		"app_version_code": 50,
		
		"is_full_ads": true,
		"onesignal_id": "07de0128-c4bc-45f0-8baa-6867a262a6b7", 
		"ads_loading_text": "Ad is loading...",
		"seconds_require_triger_reward": 25,
		"global_intra_interval_click": 1,
		"interstitial_ad_time_interval": 0,
		"native_ad_list_interval": 3
	},	
	"app_update": {	
		"is_popup_dialog": true,
		"is_update_require": false,
		"package_id": "com.adult.iptv.hot.playlist", 
		"website_url": "https://play.google.com/store/apps/details?id=com.adult.iptv.hot.playlist", 
		"app_icon": "https://play-lh.googleusercontent.com/DFrL4OmwEWMQnRjs9tBcekNn6DYrlehENI0aAD5XphVvenROVKOon7sfLf84YhmyM08=w240-h480-rw",
		"updated_version_code": 50,
		"title": "Enjoy Free Naughty Videos",
		"default_message": "Don’t Feel Alone",
		"is_shuffle": false,
		"change_dialogdata_click_count" : 1,
	  	"app_list_url" : "https://gitlab.com/bitcodingsolutions/other/-/raw/main/App_Update_Apps.json"
	},	
	"exit_dialog": {	
		"is_exit_require": true,
		"exit_title": "Exit",
		"exit_message": "Do you want to exit from App?"
	},	
	"reward_dialog": {      	
		"is_reward_require": false,
		"reward_message": "Watch Reward ads to get All Movies Link"
	},     	
		
	"About_App": {	
		"is_override": false,
		"is_about_app": true,
		"about_title": "Watch All Live Movies Online", 
		"about_message": "Your app need an Update!",
		"registration_detail": "Watch All Live Movies Online", 
		"version_detail": "version : 1.0.0"
	},	
	"rate_app": {	
		"is_rate_app": true,
		"package_id": "com.watch.live.movies", 
		"rate_app_url": "https://play.google.com/store/apps/details?id=com.watch.live.movies", 
		"rate_message": "Please Rate us and promote us."
	},	
	"share_app": {	
		"is_share_app": true,
		"share_title": "Share link url :https://play.google.com/store/apps/details?id=com.watch.live.movies", 
		"share_message": "Now anyone can get Watch All Live Movies Online app : https://play.google.com/store/apps/details?id=com.watch.live.movies" 
	},	
	"privacy_policy": {	
		"is_privacy_policy": true,
		"is_system_browser": true,
		"privacy_policy": "https://sites.google.com/view/hdmovies-privacypolicy/home" 
	},	
	"terms_of_use": {	
		"is_terms_of_use": true,
		"is_system_browser": true,
		"terms_of_use": "https://sites.google.com/view/hdmovies-privacypolicy/home" 
	},	
	"error_report": {	
		"is_error_report_support": true,
		"email_id": "mailto:techfest.llc@gmail.com"
	},	
	"feedback_support": {	
		"is_feedback_support": true,
		"email_id":"mailto:techfest.llc@gmail.com",
		"feedback_title": "Feedback on Watch All Live Movies Online",
		"feedback_message": "Hi,\n\n\nYour Feedback Watch All Live Movies Online! I would like to give you some feedback:",
		"email_subject": "Feedback on Watch All Live Movies Online",
		"email_message": "Hi,\n\n\nYour Feedback Watch All Live Movies Online! I would like to give you some feedback:"
		
	},

	
	"google_ads": {	
		"banner_ad_unit_id_android": "/21753324030,22831392815/com.watch.live.movies_Banner", 
		"interstitial_ad_unit_id_android": "/21753324030,22831392815/com.watch.live.movies_Interstitial", 
		"app_open_ad_unit_id_android": "/21753324030,22831392815/com.watch.live.movies_AppOpen", 
		"native_ads_unit_id_android": "/21753324030,22831392815/com.watch.live.movies_Native", 
		"rewared_ads_unit_id": "/21753324030,22831392815/com.watch.live.movies_Rewarded", 
		"native_video_ads_unit_id_android": "/21753324030,22831392815/com.watch.live.movies_Native", 
		"is_banner_ads": true,
		"is_open_ads": true,
		"is_interstitial_ads": true,
		"is_rewared_ads": false,
		"is_native_ads": true,
		"no_of_click_interstitial": 1

	},	
	"facebook_ads": {	
		"banner_ad_unit_id_android": "633714137717004_6337144383590", 
		"interstitial_ad_unit_id_android": "633714137717004_6337149483590", 
		"native_ads_unit_id_android": "633714137717004_6337144433590", 
		"rewared_ads_unit_id": "633714137717004_6337144483590", 
		"is_banner_ads": true,
		"is_interstitial_ads": true,
		"is_native_ads": true,
		"is_rewared_ads": true,
		"no_of_click_interstitial": 1
	},	
	"app_lovin": {	
		"sdk_key":"KU0qPINT5BgZHEOCOPqSgNggV2A6ZrkdHZwmhV7imclwQpMkaFuF2oaifSuTSKc-l1Chk67e5mb6qUdXwTqZFH",
		"is_unlimited_ads": true,
		"id_unit_open": "1524f4afdc7d9fa5",
		"id_unit_banner": "92fe08a44e8e66f7",
		"id_unit_intra": "6cbd464d8a558e2d",
		"id_unit_native_multiple": 
		{
		   "small":"9632213c2b615176",
		   "medium":"8e4ac4cda97b3d52",
		   "manual":"b139c1858ce8b023"
		 },
		"rewared_ads_unit_id": "68230052e0268f70",
		"is_open_ads": true,
		"is_banner_ads": true,
		"is_interstitial_ads": true,
		"is_native_ads": true,
		"is_rewared_ads": true
	},	
	"custom_ads": {	
		"qureka_link": "https://490.go.qureka.com/intro/question",
		"is_quraka_banner": true,
		"is_quraka_intera": true,
		"is_quraka_native": true,
		"close_button_to_direct_web": true,
	"quraka_intra_image": [	
		"https://github.com/pragneshpalsanabitcoding/image_quraka/blob/main/360X640_1.png?raw=true",
		"https://github.com/pragneshpalsanabitcoding/image_quraka/blob/main/360X640_2.png?raw=true",
		"https://github.com/pragneshpalsanabitcoding/image_quraka/blob/main/360X640_3.png?raw=true",
		"https://github.com/pragneshpalsanabitcoding/image_quraka/blob/main/360X640_4.png?raw=true",
		"https://github.com/pragneshpalsanabitcoding/image_quraka/blob/main/360X640_5.png?raw=true"
	],	
	"quraka_native_image": [	
		"https://github.com/pragneshpalsanabitcoding/image_quraka/blob/main/3.jpg?raw=true",
		"https://github.com/pragneshpalsanabitcoding/image_quraka/blob/main/320x50.jpg?raw=true",
		"https://github.com/pragneshpalsanabitcoding/image_quraka/blob/main/4.jpg?raw=true",
		"https://github.com/pragneshpalsanabitcoding/image_quraka/blob/main/6.jpg?raw=true"
	],	
	"quraka_banner_image": [	
		"https://github.com/pragneshpalsanabitcoding/image_quraka/blob/main/2.jpg?raw=true",
		"https://github.com/pragneshpalsanabitcoding/image_quraka/blob/main/3.jpg?raw=true",
		"https://github.com/pragneshpalsanabitcoding/image_quraka/blob/main/320x50.jpg?raw=true",
		"https://github.com/pragneshpalsanabitcoding/image_quraka/blob/main/4.jpg?raw=true",
		"https://github.com/pragneshpalsanabitcoding/image_quraka/blob/main/5.jpg?raw=true",
		"https://github.com/pragneshpalsanabitcoding/image_quraka/blob/main/6.jpg?raw=true"
	]	
	}	
	}	
}		
